objid	container	server_template_crc	cell_index	px	py	pz	qw	qx	qy	qz	scripts	objvars
i	i	h	i	f	f	f	f	f	f	f	s	p
-27298000	0	object/building/kashyyyk/thm_kash_rodian_bannerpole_s01.iff	0	0	195	0	1	0	0	0		$|
-624485074	0	object/tangible/ground_spawning/patrol_spawner.iff	0	607.981	23.4	37.6357	1	0	0	0	systems.spawning.spawner_patrol	fltMaxSpawnTime|2|100.000000|fltMinSpawnTime|2|60.000000|fltRadius|2|1.000000|intDefaultBehavior|0|3|intGoodLocationSpawner|0|0|intSpawnCount|0|2|intSpawnSystem|0|1|patrolPathType|4|cycle|registerWithController|0|1|strName|4|smuggler_enemy_patrol|strPatrolPointNames|5|smuggler_enemy_patrol_10014962_1:smuggler_enemy_patrol_10014962_2:smuggler_enemy_patrol_10014962_3:|strSpawnerType|4|patrol|strSpawns|4|corellia/smuggler_patrol_5|$|
-1692412990	0	object/tangible/ground_spawning/patrol_waypoint.iff	0	589.85	23.4	21.9575	1	0	0	0		ignoreInBuildoutArray|0|1|pointName|4|smuggler_enemy_patrol_10014962_1|registerWithController|0|1|$|
-1741254016	0	object/tangible/ground_spawning/patrol_waypoint.iff	0	569.858	23.4	9.14746	1	0	0	0		ignoreInBuildoutArray|0|1|pointName|4|smuggler_enemy_patrol_10014962_2|registerWithController|0|1|$|
-565265765	0	object/tangible/ground_spawning/patrol_waypoint.iff	0	573.792	23.4	41.896	1	0	0	0		ignoreInBuildoutArray|0|1|pointName|4|smuggler_enemy_patrol_10014962_3|registerWithController|0|1|$|
