objid	container	server_template_crc	cell_index	px	py	pz	qw	qx	qy	qz	scripts	objvars
i	i	h	i	f	f	f	f	f	f	f	s	p
-185784705	0	object/building/general/bunker_imperial_detainment_center_01.iff	0	1625.48	398	1895.8	0.671178	0	0.741297	0		portalProperty.crc|0|1975171258|$|
-1336200139	-185784705	object/cell/cell.iff	1	0	0	0	1	0	0	0		$|
-1369751509	-185784705	object/cell/cell.iff	2	0	0	0	1	0	0	0		$|
-1813437071	-185784705	object/cell/cell.iff	3	0	0	0	1	0	0	0		$|
-949702823	-185784705	object/cell/cell.iff	4	0	0	0	1	0	0	0		$|
-1826738138	-185784705	object/cell/cell.iff	5	0	0	0	1	0	0	0		$|
-1088977967	-185784705	object/cell/cell.iff	6	0	0	0	1	0	0	0		$|
-448591721	-185784705	object/cell/cell.iff	7	0	0	0	1	0	0	0		$|
-759651764	-185784705	object/cell/cell.iff	8	0	0	0	1	0	0	0		$|
-1601803071	-185784705	object/cell/cell.iff	9	0	0	0	1	0	0	0		$|
-2034178253	-185784705	object/cell/cell.iff	10	0	0	0	1	0	0	0		$|
-1458422990	-185784705	object/cell/cell.iff	11	0	0	0	1	0	0	0		$|
-644670235	-185784705	object/cell/cell.iff	12	0	0	0	1	0	0	0		$|
-1086875810	-185784705	object/cell/cell.iff	13	0	0	0	1	0	0	0		$|
-1282636132	-185784705	object/cell/cell.iff	14	0	0	0	1	0	0	0		$|
-1607150644	-185784705	object/cell/cell.iff	15	0	0	0	1	0	0	0		$|
-82159257	-185784705	object/cell/cell.iff	16	0	0	0	1	0	0	0		$|
-1593698500	-185784705	object/cell/cell.iff	17	0	0	0	1	0	0	0		$|
-277570119	-1369751509	object/tangible/ground_spawning/area_spawner.iff	2	-3.99719	0.25	3.21688	0.734386	0	0.678732	0	systems.spawning.spawner_area	fltMaxSpawnTime|2|120.000000|fltMinSpawnTime|2|90.000000|fltRadius|2|0.000000|intDefaultBehavior|0|1|intGoodLocationSpawner|0|0|intSpawnCount|0|1|intSpawnSystem|0|1|registerWithController|0|1|strName|4|rebel_detainment_blastromech|strSpawnerType|4|area|strSpawns|4|rebel_detainment_blastromech|$|
-1816083477	-949702823	object/tangible/ground_spawning/area_spawner.iff	4	0.528743	-8.99	19.95	0.999528	0	-0.030716	0	systems.spawning.spawner_area	fltMaxSpawnTime|2|120.000000|fltMinSpawnTime|2|90.000000|fltRadius|2|0.000000|intDefaultBehavior|0|1|intGoodLocationSpawner|0|0|intSpawnCount|0|1|intSpawnSystem|0|1|registerWithController|0|1|strName|4|rebel_detainment_commando|strSpawnerType|4|area|strSpawns|4|rebel_detainment_commando|$|
-1020226810	-949702823	object/tangible/ground_spawning/area_spawner.iff	4	6.168	-8.99	19.95	0.999957	0	-0.00929672	0	systems.spawning.spawner_area	fltMaxSpawnTime|2|120.000000|fltMinSpawnTime|2|90.000000|fltRadius|2|0.000000|intDefaultBehavior|0|1|intGoodLocationSpawner|0|0|intSpawnCount|0|1|intSpawnSystem|0|1|registerWithController|0|1|strName|4|rebel_detainment_commando|strSpawnerType|4|area|strSpawns|4|rebel_detainment_commando|$|
-822776274	-949702823	object/tangible/ground_spawning/area_spawner.iff	4	-3.9	-8.99	24.8037	0.757783	0	0.652507	0	systems.spawning.spawner_area	fltMaxSpawnTime|2|120.000000|fltMinSpawnTime|2|90.000000|fltRadius|2|0.000000|intDefaultBehavior|0|1|intGoodLocationSpawner|0|0|intSpawnCount|0|1|intSpawnSystem|0|1|registerWithController|0|1|strName|4|rebel_detainment_commando|strSpawnerType|4|area|strSpawns|4|rebel_detainment_commando|$|
-659650650	-949702823	object/tangible/ground_spawning/area_spawner.iff	4	3.69134	-8.99	30.3508	0.0489404	0	0.998802	0	systems.spawning.spawner_area	fltMaxSpawnTime|2|120.000000|fltMinSpawnTime|2|90.000000|fltRadius|2|0.000000|intDefaultBehavior|0|1|intGoodLocationSpawner|0|0|intSpawnCount|0|1|intSpawnSystem|0|1|registerWithController|0|1|strName|4|reb_empireday_detentionboss_rebtrooper|strSpawnerType|4|area|strSpawns|4|reb_empireday_detentionboss_rebtrooper|$|
-261044382	-949702823	object/tangible/ground_spawning/area_spawner.iff	4	-3.9	-8.99	29.9312	0.711192	0	0.702998	0	systems.spawning.spawner_area	fltMaxSpawnTime|2|120.000000|fltMinSpawnTime|2|90.000000|fltRadius|2|0.000000|intDefaultBehavior|0|1|intGoodLocationSpawner|0|0|intSpawnCount|0|1|intSpawnSystem|0|1|registerWithController|0|1|strName|4|rebel_detainment_commando|strSpawnerType|4|area|strSpawns|4|rebel_detainment_commando|$|
-1885032280	-1826738138	object/tangible/ground_spawning/area_spawner.iff	5	-39.7454	-8.99	24.4513	0.792695	0	0.609618	0	systems.spawning.spawner_area	fltMaxSpawnTime|2|120.000000|fltMinSpawnTime|2|90.000000|fltRadius|2|0.000000|intDefaultBehavior|0|1|intGoodLocationSpawner|0|0|intSpawnCount|0|1|intSpawnSystem|0|1|registerWithController|0|1|strName|4|rebel_detainment_commando|strSpawnerType|4|area|strSpawns|4|rebel_detainment_commando|$|
-1381989700	-1826738138	object/tangible/ground_spawning/area_spawner.iff	5	-39.7255	-8.99	30.3942	0.637935	0	0.770091	0	systems.spawning.spawner_area	fltMaxSpawnTime|2|120.000000|fltMinSpawnTime|2|90.000000|fltRadius|2|0.000000|intDefaultBehavior|0|1|intGoodLocationSpawner|0|0|intSpawnCount|0|1|intSpawnSystem|0|1|registerWithController|0|1|strName|4|rebel_detainment_commando|strSpawnerType|4|area|strSpawns|4|rebel_detainment_commando|$|
-1889108070	-1088977967	object/tangible/ground_spawning/area_spawner.iff	6	-49.1201	-8.99	-2.08578	0.962523	0	0.2712	0	systems.spawning.spawner_area	fltMaxSpawnTime|2|120.000000|fltMinSpawnTime|2|90.000000|fltRadius|2|0.000000|intDefaultBehavior|0|1|intGoodLocationSpawner|0|0|intSpawnCount|0|1|intSpawnSystem|0|1|registerWithController|0|1|strName|4|rebel_detainment_pilot|strSpawnerType|4|area|strSpawns|4|rebel_detainment_pilot|$|
-1723044448	-1088977967	object/tangible/ground_spawning/area_spawner.iff	6	-56.7799	-8.99	11.541	0.708985	0	-0.705224	0	systems.spawning.spawner_area	fltMaxSpawnTime|2|120.000000|fltMinSpawnTime|2|90.000000|fltRadius|2|0.000000|intDefaultBehavior|0|1|intGoodLocationSpawner|0|0|intSpawnCount|0|1|intSpawnSystem|0|1|registerWithController|0|1|strName|4|rebel_detainment_pilot|strSpawnerType|4|area|strSpawns|4|rebel_detainment_pilot|$|
-1698489132	-1088977967	object/tangible/ground_spawning/area_spawner.iff	6	-50.3435	-8.99	7.02825	0.0225083	0	0.999747	0	systems.spawning.spawner_area	fltMaxSpawnTime|2|120.000000|fltMinSpawnTime|2|90.000000|fltRadius|2|0.000000|intDefaultBehavior|0|1|intGoodLocationSpawner|0|0|intSpawnCount|0|1|intSpawnSystem|0|1|registerWithController|0|1|strName|4|rebel_detainment_pilot|strSpawnerType|4|area|strSpawns|4|rebel_detainment_pilot|$|
-1559872529	-1088977967	object/tangible/ground_spawning/area_spawner.iff	6	-51.7272	-8.99	37.95	0.998482	0	-0.0550726	0	systems.spawning.spawner_area	fltMaxSpawnTime|2|120.000000|fltMinSpawnTime|2|90.000000|fltRadius|2|0.000000|intDefaultBehavior|0|1|intGoodLocationSpawner|0|0|intSpawnCount|0|1|intSpawnSystem|0|1|registerWithController|0|1|strName|4|rebel_detainment_commando|strSpawnerType|4|area|strSpawns|4|rebel_detainment_commando|$|
-1383579013	-1088977967	object/tangible/ground_spawning/area_spawner.iff	6	-58.5898	-8.99	37.95	1	0	0	0	systems.spawning.spawner_area	fltMaxSpawnTime|2|120.000000|fltMinSpawnTime|2|90.000000|fltRadius|2|0.000000|intDefaultBehavior|0|1|intGoodLocationSpawner|0|0|intSpawnCount|0|1|intSpawnSystem|0|1|registerWithController|0|1|strName|4|rebel_detainment_commando|strSpawnerType|4|area|strSpawns|4|rebel_detainment_commando|$|
-1327756413	-1088977967	object/tangible/ground_spawning/area_spawner.iff	6	-57.0452	-8.99	16.75	0.0105383	0	0.999944	0	systems.spawning.spawner_area	fltMaxSpawnTime|2|120.000000|fltMinSpawnTime|2|90.000000|fltRadius|2|0.000000|intDefaultBehavior|0|1|intGoodLocationSpawner|0|0|intSpawnCount|0|1|intSpawnSystem|0|1|registerWithController|0|1|strName|4|rebel_detainment_commando|strSpawnerType|4|area|strSpawns|4|rebel_detainment_commando|$|
-1288687797	-1088977967	object/tangible/ground_spawning/area_spawner.iff	6	-47.1	-8.99	53.2688	-0.705336	0	0.708873	0	systems.spawning.spawner_area	fltMaxSpawnTime|2|120.000000|fltMinSpawnTime|2|90.000000|fltRadius|2|0.000000|intDefaultBehavior|0|1|intGoodLocationSpawner|0|0|intSpawnCount|0|1|intSpawnSystem|0|1|registerWithController|0|1|strName|4|rebel_detainment_trooper|strSpawnerType|4|area|strSpawns|4|rebel_detainment_trooper|$|
-1265229367	-1088977967	object/tangible/ground_spawning/area_spawner.iff	6	-48.7561	-8.99	11.4333	-0.669882	0	0.742468	0	systems.spawning.spawner_area	fltMaxSpawnTime|2|120.000000|fltMinSpawnTime|2|90.000000|fltRadius|2|0.000000|intDefaultBehavior|0|1|intGoodLocationSpawner|0|0|intSpawnCount|0|1|intSpawnSystem|0|1|registerWithController|0|1|strName|4|rebel_detainment_pilot|strSpawnerType|4|area|strSpawns|4|rebel_detainment_pilot|$|
-1242158519	-1088977967	object/tangible/ground_spawning/area_spawner.iff	6	-90.3729	-8.99	22.3202	0.860795	0	0.508952	0	systems.spawning.spawner_area	fltMaxSpawnTime|2|120.000000|fltMinSpawnTime|2|90.000000|fltRadius|2|0.000000|intDefaultBehavior|0|1|intGoodLocationSpawner|0|0|intSpawnCount|0|1|intSpawnSystem|0|1|registerWithController|0|1|strName|4|rebel_detainment_trooper|strSpawnerType|4|area|strSpawns|4|rebel_detainment_trooper|$|
-1235505174	-1088977967	object/tangible/ground_spawning/area_spawner.iff	6	-50.8483	-8.99	16.75	0.0532262	0	0.998582	0	systems.spawning.spawner_area	fltMaxSpawnTime|2|120.000000|fltMinSpawnTime|2|90.000000|fltRadius|2|0.000000|intDefaultBehavior|0|1|intGoodLocationSpawner|0|0|intSpawnCount|0|1|intSpawnSystem|0|1|registerWithController|0|1|strName|4|rebel_detainment_commando|strSpawnerType|4|area|strSpawns|4|rebel_detainment_commando|$|
-1111726043	-1088977967	object/tangible/ground_spawning/area_spawner.iff	6	-47.1	-8.99	9.27139	-0.703449	0	0.710746	0	systems.spawning.spawner_area	fltMaxSpawnTime|2|120.000000|fltMinSpawnTime|2|90.000000|fltRadius|2|0.000000|intDefaultBehavior|0|1|intGoodLocationSpawner|0|0|intSpawnCount|0|1|intSpawnSystem|0|1|registerWithController|0|1|strName|4|rebel_detainment_trooper|strSpawnerType|4|area|strSpawns|4|rebel_detainment_trooper|$|
-1000797732	-1088977967	object/tangible/ground_spawning/area_spawner.iff	6	-50.3341	-8.99	3.60251	0.99804	0	-0.0625834	0	systems.spawning.spawner_area	fltMaxSpawnTime|2|120.000000|fltMinSpawnTime|2|90.000000|fltRadius|2|0.000000|intDefaultBehavior|0|1|intGoodLocationSpawner|0|0|intSpawnCount|0|1|intSpawnSystem|0|1|registerWithController|0|1|strName|4|rebel_detainment_pilot|strSpawnerType|4|area|strSpawns|4|rebel_detainment_pilot|$|
-884239144	-1088977967	object/tangible/ground_spawning/area_spawner.iff	6	-58.5	-8.99	7.08558	0.041457	0	0.99914	0	systems.spawning.spawner_area	fltMaxSpawnTime|2|120.000000|fltMinSpawnTime|2|90.000000|fltRadius|2|0.000000|intDefaultBehavior|0|1|intGoodLocationSpawner|0|0|intSpawnCount|0|1|intSpawnSystem|0|1|registerWithController|0|1|strName|4|rebel_detainment_pilot|strSpawnerType|4|area|strSpawns|4|rebel_detainment_pilot|$|
-796667075	-1088977967	object/tangible/ground_spawning/area_spawner.iff	6	-57.0334	-8.99	49.4749	-0.629396	0	0.777085	0	systems.spawning.spawner_area	fltMaxSpawnTime|2|120.000000|fltMinSpawnTime|2|90.000000|fltRadius|2|0.000000|intDefaultBehavior|0|1|intGoodLocationSpawner|0|0|intSpawnCount|0|1|intSpawnSystem|0|1|registerWithController|0|1|strName|4|rebel_detainment_pilot|strSpawnerType|4|area|strSpawns|4|rebel_detainment_pilot|$|
-687931064	-1088977967	object/tangible/ground_spawning/area_spawner.iff	6	-65.1	-8.99	23.5022	-0.660829	0	0.750536	0	systems.spawning.spawner_area	fltMaxSpawnTime|2|120.000000|fltMinSpawnTime|2|90.000000|fltRadius|2|0.000000|intDefaultBehavior|0|1|intGoodLocationSpawner|0|0|intSpawnCount|0|1|intSpawnSystem|0|1|registerWithController|0|1|strName|4|rebel_detainment_commando|strSpawnerType|4|area|strSpawns|4|rebel_detainment_commando|$|
-642357674	-1088977967	object/tangible/ground_spawning/area_spawner.iff	6	-78.6006	-8.99	27.4397	0.695054	0	0.718958	0	systems.spawning.spawner_area	fltMaxSpawnTime|2|120.000000|fltMinSpawnTime|2|90.000000|fltRadius|2|0.000000|intDefaultBehavior|0|1|intGoodLocationSpawner|0|0|intSpawnCount|0|1|intSpawnSystem|0|1|registerWithController|0|1|strName|4|rebel_detainment_blastromech|strSpawnerType|4|area|strSpawns|4|rebel_detainment_blastromech|$|
-568238006	-1088977967	object/tangible/ground_spawning/area_spawner.iff	6	-65.1	-8.99	30.038	-0.683274	0	0.730162	0	systems.spawning.spawner_area	fltMaxSpawnTime|2|120.000000|fltMinSpawnTime|2|90.000000|fltRadius|2|0.000000|intDefaultBehavior|0|1|intGoodLocationSpawner|0|0|intSpawnCount|0|1|intSpawnSystem|0|1|registerWithController|0|1|strName|4|rebel_detainment_commando|strSpawnerType|4|area|strSpawns|4|rebel_detainment_commando|$|
-308185013	-1088977967	object/tangible/ground_spawning/area_spawner.iff	6	-54.4651	-8.99	67.0376	0.0167198	0	0.99986	0	systems.spawning.spawner_area	fltMaxSpawnTime|2|120.000000|fltMinSpawnTime|2|90.000000|fltRadius|2|0.000000|intDefaultBehavior|0|1|intGoodLocationSpawner|0|0|intSpawnCount|0|1|intSpawnSystem|0|1|registerWithController|0|1|strName|4|rebel_detainment_trooper|strSpawnerType|4|area|strSpawns|4|rebel_detainment_trooper|$|
-121531791	-1088977967	object/tangible/ground_spawning/area_spawner.iff	6	-51.9651	-8.99	61.2074	0.761787	0	0.647828	0	systems.spawning.spawner_area	fltMaxSpawnTime|2|120.000000|fltMinSpawnTime|2|90.000000|fltRadius|2|0.000000|intDefaultBehavior|0|1|intGoodLocationSpawner|0|0|intSpawnCount|0|1|intSpawnSystem|0|1|registerWithController|0|1|strName|4|rebel_detainment_trooper|strSpawnerType|4|area|strSpawns|4|rebel_detainment_trooper|$|
-91420327	-1088977967	object/tangible/ground_spawning/area_spawner.iff	6	-61.9	-8.99	53.4746	0.758107	0	0.65213	0	systems.spawning.spawner_area	fltMaxSpawnTime|2|120.000000|fltMinSpawnTime|2|90.000000|fltRadius|2|0.000000|intDefaultBehavior|0|1|intGoodLocationSpawner|0|0|intSpawnCount|0|1|intSpawnSystem|0|1|registerWithController|0|1|strName|4|rebel_detainment_trooper|strSpawnerType|4|area|strSpawns|4|rebel_detainment_trooper|$|
-41478827	-1088977967	object/tangible/ground_spawning/area_spawner.iff	6	-57.0205	-8.99	62.3684	-0.66392	0	0.747803	0	systems.spawning.spawner_area	fltMaxSpawnTime|2|120.000000|fltMinSpawnTime|2|90.000000|fltRadius|2|0.000000|intDefaultBehavior|0|1|intGoodLocationSpawner|0|0|intSpawnCount|0|1|intSpawnSystem|0|1|registerWithController|0|1|strName|4|rebel_detainment_pilot|strSpawnerType|4|area|strSpawns|4|rebel_detainment_pilot|$|
-6705147	-1088977967	object/tangible/ground_spawning/area_spawner.iff	6	-50.6905	-8.99	-11.704	0.99859	0	-0.053084	0	systems.spawning.spawner_area	fltMaxSpawnTime|2|120.000000|fltMinSpawnTime|2|90.000000|fltRadius|2|0.000000|intDefaultBehavior|0|1|intGoodLocationSpawner|0|0|intSpawnCount|0|1|intSpawnSystem|0|1|registerWithController|0|1|strName|4|reb_empireday_detentionboss_pilot|strSpawnerType|4|area|strSpawns|4|reb_empireday_detentionboss_pilot|$|
-295641541	-1088977967	object/tangible/ground_spawning/area_spawner.iff	6	-77.9707	-8.99	21.3307	-0.0220245	0	0.999758	0	systems.spawning.spawner_area	fltMaxSpawnTime|2|230.000000|fltMinSpawnTime|2|120.000000|fltRadius|2|0.000000|intDefaultBehavior|0|1|intGoodLocationSpawner|0|0|intSpawnCount|0|1|intSpawnSystem|0|1|registerWithController|0|1|strName|4|rebel_trooper|strSpawnerType|4|area|strSpawns|4|rebel_detainment_trooper|$|
-314263136	-1088977967	object/tangible/ground_spawning/area_spawner.iff	6	-88.9859	-8.99	21.5686	0.829734	0	-0.558159	0	systems.spawning.spawner_area	fltMaxSpawnTime|2|230.000000|fltMinSpawnTime|2|120.000000|fltRadius|2|0.000000|intDefaultBehavior|0|1|intGoodLocationSpawner|0|0|intSpawnCount|0|1|intSpawnSystem|0|1|registerWithController|0|1|strName|4|rebel_trooper|strSpawnerType|4|area|strSpawns|4|rebel_detainment_trooper|$|
-1819501267	-448591721	object/tangible/ground_spawning/area_spawner.iff	7	32.7149	-16.99	63.5846	0.70899	0	-0.705219	0	systems.spawning.spawner_area	fltMaxSpawnTime|2|300.000000|fltMinSpawnTime|2|120.000000|fltRadius|2|0.000000|intDefaultBehavior|0|1|intGoodLocationSpawner|0|0|intSpawnCount|0|1|intSpawnSystem|0|1|registerWithController|0|1|strName|4|reb_empireday_detentionboss_officer|strSpawnerType|4|area|strSpawns|4|reb_empireday_detentionboss_officer|$|
-1450110370	-448591721	object/tangible/ground_spawning/area_spawner.iff	7	13.1709	-16.99	66.7455	-0.0785263	0	0.996912	0	systems.spawning.spawner_area	fltMaxSpawnTime|2|230.000000|fltMinSpawnTime|2|120.000000|fltRadius|2|0.000000|intDefaultBehavior|0|1|intGoodLocationSpawner|0|0|intSpawnCount|0|1|intSpawnSystem|0|1|registerWithController|0|1|strName|4|rebel_detainment_desert_trooper|strSpawnerType|4|area|strSpawns|4|rebel_detainment_desert_trooper|$|
-960109113	-448591721	object/tangible/ground_spawning/area_spawner.iff	7	13.33	-16.99	60.6856	0.996797	0	-0.0799732	0	systems.spawning.spawner_area	fltMaxSpawnTime|2|230.000000|fltMinSpawnTime|2|120.000000|fltRadius|2|0.000000|intDefaultBehavior|0|1|intGoodLocationSpawner|0|0|intSpawnCount|0|1|intSpawnSystem|0|1|registerWithController|0|1|strName|4|rebel_detainment_desert_trooper|strSpawnerType|4|area|strSpawns|4|rebel_detainment_desert_trooper|$|
-459667156	-759651764	object/tangible/ground_spawning/area_spawner.iff	8	-39.7999	-18.99	74.0502	0.959552	0	0.281533	0	systems.spawning.spawner_area	fltMaxSpawnTime|2|230.000000|fltMinSpawnTime|2|120.000000|fltRadius|2|0.000000|intDefaultBehavior|0|1|intGoodLocationSpawner|0|0|intSpawnCount|0|1|intSpawnSystem|0|1|registerWithController|0|1|strName|4|rebel_detainment_desert_trooper|strSpawnerType|4|area|strSpawns|4|rebel_detainment_desert_trooper|$|
-2034321399	-759651764	object/tangible/ground_spawning/area_spawner.iff	8	10.7994	-18.99	74.0623	0.908905	0	-0.417003	0	systems.spawning.spawner_area	fltMaxSpawnTime|2|230.000000|fltMinSpawnTime|2|120.000000|fltRadius|2|0.000000|intDefaultBehavior|0|1|intGoodLocationSpawner|0|0|intSpawnCount|0|1|intSpawnSystem|0|1|registerWithController|0|1|strName|4|rebel_detainment_desert_trooper|strSpawnerType|4|area|strSpawns|4|rebel_detainment_desert_trooper|$|
-1218473166	-1601803071	object/tangible/ground_spawning/area_spawner.iff	9	2.61956	-22.99	110.775	0.999706	0	-0.024252	0	systems.spawning.spawner_area	fltMaxSpawnTime|2|230.000000|fltMinSpawnTime|2|200.000000|fltRadius|2|0.000000|intDefaultBehavior|0|1|intGoodLocationSpawner|0|0|intSpawnCount|0|1|intSpawnSystem|0|1|registerWithController|0|1|strName|4|rebel_detainment_cww89_battle_droid|strSpawnerType|4|area|strSpawns|4|rebel_detainment_cww89_battle_droid|$|
-614292675	-1601803071	object/tangible/ground_spawning/area_spawner.iff	9	-32.9552	-22.99	110.691	0.999538	0	-0.0303916	0	systems.spawning.spawner_area	fltMaxSpawnTime|2|230.000000|fltMinSpawnTime|2|200.000000|fltRadius|2|0.000000|intDefaultBehavior|0|1|intGoodLocationSpawner|0|0|intSpawnCount|0|1|intSpawnSystem|0|1|registerWithController|0|1|strName|4|rebel_detainment_cww89_battle_droid|strSpawnerType|4|area|strSpawns|4|rebel_detainment_cww89_battle_droid|$|
-592475176	-1601803071	object/tangible/ground_spawning/area_spawner.iff	9	16.4621	-22.99	119.703	-0.666366	0	0.745625	0	systems.spawning.spawner_area	fltMaxSpawnTime|2|230.000000|fltMinSpawnTime|2|200.000000|fltRadius|2|0.000000|intDefaultBehavior|0|1|intGoodLocationSpawner|0|0|intSpawnCount|0|1|intSpawnSystem|0|1|registerWithController|0|1|strName|4|rebel_detainment_cww89_battle_droid|strSpawnerType|4|area|strSpawns|4|rebel_detainment_cww89_battle_droid|$|
-255693757	-1601803071	object/tangible/ground_spawning/area_spawner.iff	9	-44.8455	-22.99	119.262	0.795838	0	0.60551	0	systems.spawning.spawner_area	fltMaxSpawnTime|2|230.000000|fltMinSpawnTime|2|200.000000|fltRadius|2|0.000000|intDefaultBehavior|0|1|intGoodLocationSpawner|0|0|intSpawnCount|0|1|intSpawnSystem|0|1|registerWithController|0|1|strName|4|rebel_detainment_cww89_battle_droid|strSpawnerType|4|area|strSpawns|4|rebel_detainment_cww89_battle_droid|$|
-945485026	-1601803071	object/tangible/ground_spawning/area_spawner.iff	9	13.7262	-22.99	202.128	0.864	0	-0.503492	0	systems.spawning.spawner_area	fltMaxSpawnTime|2|230.000000|fltMinSpawnTime|2|200.000000|fltRadius|2|0.000000|intDefaultBehavior|0|1|intGoodLocationSpawner|0|0|intSpawnCount|0|1|intSpawnSystem|0|1|registerWithController|0|1|strName|4|rebel_detainment_mandalorian|strSpawnerType|4|area|strSpawns|4|rebel_detainment_mandalorian|$|
-893986161	-1601803071	object/tangible/ground_spawning/area_spawner.iff	9	13.9209	-22.99	112.608	-0.681585	0	0.731739	0	systems.spawning.spawner_area	fltMaxSpawnTime|2|230.000000|fltMinSpawnTime|2|200.000000|fltRadius|2|0.000000|intDefaultBehavior|0|1|intGoodLocationSpawner|0|0|intSpawnCount|0|1|intSpawnSystem|0|1|registerWithController|0|1|strName|4|rebel_detainment_mandalorian|strSpawnerType|4|area|strSpawns|4|rebel_detainment_mandalorian|$|
-1046907800	-1601803071	object/tangible/ground_spawning/area_spawner.iff	9	-42.8283	-22.99	112.513	0.715358	0	0.698758	0	systems.spawning.spawner_area	fltMaxSpawnTime|2|230.000000|fltMinSpawnTime|2|200.000000|fltRadius|2|0.000000|intDefaultBehavior|0|1|intGoodLocationSpawner|0|0|intSpawnCount|0|1|intSpawnSystem|0|1|registerWithController|0|1|strName|4|rebel_detainment_mandalorian|strSpawnerType|4|area|strSpawns|4|rebel_detainment_mandalorian|$|
-1995021189	-1601803071	object/tangible/ground_spawning/area_spawner.iff	9	-43.066	-22.99	202.088	0.690228	0	0.723592	0	systems.spawning.spawner_area	fltMaxSpawnTime|2|230.000000|fltMinSpawnTime|2|200.000000|fltRadius|2|0.000000|intDefaultBehavior|0|1|intGoodLocationSpawner|0|0|intSpawnCount|0|1|intSpawnSystem|0|1|registerWithController|0|1|strName|4|rebel_detainment_mandalorian|strSpawnerType|4|area|strSpawns|4|rebel_detainment_mandalorian|$|
-1183395289	-1601803071	object/tangible/ground_spawning/area_spawner.iff	9	-33.5818	-22.99	204.75	-0.00725267	0	0.999974	0	systems.spawning.spawner_area	fltMaxSpawnTime|2|230.000000|fltMinSpawnTime|2|200.000000|fltRadius|2|0.000000|intDefaultBehavior|0|1|intGoodLocationSpawner|0|0|intSpawnCount|0|1|intSpawnSystem|0|1|registerWithController|0|1|strName|4|rebel_detainment_mandalorian|strSpawnerType|4|area|strSpawns|4|rebel_detainment_mandalorian|$|
-393002452	-1601803071	object/tangible/ground_spawning/area_spawner.iff	9	-23.9564	-22.99	187.59	0.71425	0	-0.699891	0	systems.spawning.spawner_area	fltMaxSpawnTime|2|300.000000|fltMinSpawnTime|2|200.000000|fltRadius|2|0.000000|intDefaultBehavior|0|1|intGoodLocationSpawner|0|0|intSpawnCount|0|1|intSpawnSystem|0|1|registerWithController|0|1|strName|4|rebel_detainment_cww89_battle_droid|strSpawnerType|4|area|strSpawns|4|rebel_detainment_cww89_battle_droid|$|
-1521453343	-1601803071	object/tangible/ground_spawning/area_spawner.iff	9	-28.9049	-22.99	187.652	0.769156	0	0.639061	0	systems.spawning.spawner_area	fltMaxSpawnTime|2|300.000000|fltMinSpawnTime|2|200.000000|fltRadius|2|0.000000|intDefaultBehavior|0|1|intGoodLocationSpawner|0|0|intSpawnCount|0|1|intSpawnSystem|0|1|registerWithController|0|1|strName|4|rebel_detainment_cww89_battle_droid|strSpawnerType|4|area|strSpawns|4|rebel_detainment_cww89_battle_droid|$|
-1237569391	-1601803071	object/tangible/ground_spawning/area_spawner.iff	9	-4.72779	-22.99	186.966	0.750187	0	0.661225	0	systems.spawning.spawner_area	fltMaxSpawnTime|2|300.000000|fltMinSpawnTime|2|200.000000|fltRadius|2|0.000000|intDefaultBehavior|0|1|intGoodLocationSpawner|0|0|intSpawnCount|0|1|intSpawnSystem|0|1|registerWithController|0|1|strName|4|rebel_detainment_cww89_battle_droid|strSpawnerType|4|area|strSpawns|4|rebel_detainment_cww89_battle_droid|$|
-1978696271	-1601803071	object/tangible/ground_spawning/area_spawner.iff	9	0.00373125	-22.99	187.678	-0.652839	0	0.757497	0	systems.spawning.spawner_area	fltMaxSpawnTime|2|300.000000|fltMinSpawnTime|2|200.000000|fltRadius|2|0.000000|intDefaultBehavior|0|1|intGoodLocationSpawner|0|0|intSpawnCount|0|1|intSpawnSystem|0|1|registerWithController|0|1|strName|4|rebel_detainment_cww89_battle_droid|strSpawnerType|4|area|strSpawns|4|rebel_detainment_cww89_battle_droid|$|
-2071949454	-1601803071	object/tangible/ground_spawning/area_spawner.iff	9	-5.12592	-22.99	123.523	0.755615	0	0.655016	0	systems.spawning.spawner_area	fltMaxSpawnTime|2|300.000000|fltMinSpawnTime|2|200.000000|fltRadius|2|0.000000|intDefaultBehavior|0|1|intGoodLocationSpawner|0|0|intSpawnCount|0|1|intSpawnSystem|0|1|registerWithController|0|1|strName|4|rebel_detainment_cww89_battle_droid|strSpawnerType|4|area|strSpawns|4|rebel_detainment_cww89_battle_droid|$|
-438941398	-1601803071	object/tangible/ground_spawning/area_spawner.iff	9	-0.166734	-22.99	123.274	-0.66843	0	0.743775	0	systems.spawning.spawner_area	fltMaxSpawnTime|2|300.000000|fltMinSpawnTime|2|200.000000|fltRadius|2|0.000000|intDefaultBehavior|0|1|intGoodLocationSpawner|0|0|intSpawnCount|0|1|intSpawnSystem|0|1|registerWithController|0|1|strName|4|rebel_detainment_cww89_battle_droid|strSpawnerType|4|area|strSpawns|4|rebel_detainment_cww89_battle_droid|$|
-449452339	-1601803071	object/tangible/ground_spawning/area_spawner.iff	9	-24.063	-22.99	123.717	-0.670717	0	0.741714	0	systems.spawning.spawner_area	fltMaxSpawnTime|2|300.000000|fltMinSpawnTime|2|200.000000|fltRadius|2|0.000000|intDefaultBehavior|0|1|intGoodLocationSpawner|0|0|intSpawnCount|0|1|intSpawnSystem|0|1|registerWithController|0|1|strName|4|rebel_detainment_cww89_battle_droid|strSpawnerType|4|area|strSpawns|4|rebel_detainment_cww89_battle_droid|$|
-733930147	-1601803071	object/tangible/ground_spawning/area_spawner.iff	9	-28.9232	-22.99	123.593	0.688454	0	0.72528	0	systems.spawning.spawner_area	fltMaxSpawnTime|2|300.000000|fltMinSpawnTime|2|200.000000|fltRadius|2|0.000000|intDefaultBehavior|0|1|intGoodLocationSpawner|0|0|intSpawnCount|0|1|intSpawnSystem|0|1|registerWithController|0|1|strName|4|rebel_detainment_cww89_battle_droid|strSpawnerType|4|area|strSpawns|4|rebel_detainment_cww89_battle_droid|$|
-1491240713	-1601803071	object/tangible/ground_spawning/area_spawner.iff	9	-14.5416	-22.99	110.678	0.99999	0	0.00438979	0	systems.spawning.spawner_area	fltMaxSpawnTime|2|300.000000|fltMinSpawnTime|2|200.000000|fltRadius|2|0.000000|intDefaultBehavior|0|1|intGoodLocationSpawner|0|0|intSpawnCount|0|1|intSpawnSystem|0|1|registerWithController|0|1|strName|4|rebel_detainment_d270_droid|strSpawnerType|4|area|strSpawns|4|rebel_detainment_d270_droid|$|
-1928629382	-1601803071	object/tangible/ground_spawning/area_spawner.iff	9	-45.7236	-22.99	141.169	0.738429	0	0.674331	0	systems.spawning.spawner_area	fltMaxSpawnTime|2|300.000000|fltMinSpawnTime|2|200.000000|fltRadius|2|0.000000|intDefaultBehavior|0|1|intGoodLocationSpawner|0|0|intSpawnCount|0|1|intSpawnSystem|0|1|registerWithController|0|1|strName|4|rebel_detainment_d270_droid|strSpawnerType|4|area|strSpawns|4|rebel_detainment_d270_droid|$|
-1138336679	-1601803071	object/tangible/ground_spawning/area_spawner.iff	9	16.8979	-22.99	156.421	-0.577136	0	0.816648	0	systems.spawning.spawner_area	fltMaxSpawnTime|2|300.000000|fltMinSpawnTime|2|200.000000|fltRadius|2|0.000000|intDefaultBehavior|0|1|intGoodLocationSpawner|0|0|intSpawnCount|0|1|intSpawnSystem|0|1|registerWithController|0|1|strName|4|rebel_detainment_d270_droid|strSpawnerType|4|area|strSpawns|4|rebel_detainment_d270_droid|$|
-1795832373	-2034178253	object/tangible/ground_spawning/area_spawner.iff	10	40.6441	-22.99	112.525	0.798448	0	-0.602064	0	systems.spawning.spawner_area	fltMaxSpawnTime|2|230.000000|fltMinSpawnTime|2|120.000000|fltRadius|2|0.000000|intDefaultBehavior|0|1|intGoodLocationSpawner|0|0|intSpawnCount|0|1|intSpawnSystem|0|1|registerWithController|0|1|strName|4|rebel_detainment_desert_trooper|strSpawnerType|4|area|strSpawns|4|rebel_detainment_desert_trooper|$|
-1055108078	-2034178253	object/tangible/ground_spawning/area_spawner.iff	10	33.7705	-20.99	129.899	0.962796	0	0.270229	0	systems.spawning.spawner_area	fltMaxSpawnTime|2|230.000000|fltMinSpawnTime|2|200.000000|fltRadius|2|0.000000|intDefaultBehavior|0|1|intGoodLocationSpawner|0|0|intSpawnCount|0|1|intSpawnSystem|0|1|registerWithController|0|1|strName|4|rebel_detainment_cww89_battle_droid|strSpawnerType|4|area|strSpawns|4|rebel_detainment_cww89_battle_droid|$|
-1127195827	-1458422990	object/tangible/ground_spawning/area_spawner.iff	11	-63.7114	-22.99	113.697	-0.221491	0	0.975162	0	systems.spawning.spawner_area	fltMaxSpawnTime|2|230.000000|fltMinSpawnTime|2|120.000000|fltRadius|2|0.000000|intDefaultBehavior|0|1|intGoodLocationSpawner|0|0|intSpawnCount|0|1|intSpawnSystem|0|1|registerWithController|0|1|strName|4|rebel_detainment_desert_trooper|strSpawnerType|4|area|strSpawns|4|rebel_detainment_desert_trooper|$|
-893238664	-1086875810	object/tangible/ground_spawning/area_spawner.iff	13	-64.2821	-20.99	215.084	0.770367	0	-0.637601	0	systems.spawning.spawner_area	fltMaxSpawnTime|2|230.000000|fltMinSpawnTime|2|200.000000|fltRadius|2|0.000000|intDefaultBehavior|0|1|intGoodLocationSpawner|0|0|intSpawnCount|0|1|intSpawnSystem|0|1|registerWithController|0|1|strName|4|rebel_detainment_mandalorian|strSpawnerType|4|area|strSpawns|4|rebel_detainment_mandalorian|$|
-1524760859	-1086875810	object/tangible/ground_spawning/area_spawner.iff	13	-64.324	-20.99	223.683	-0.570927	0	0.821001	0	systems.spawning.spawner_area	fltMaxSpawnTime|2|230.000000|fltMinSpawnTime|2|200.000000|fltRadius|2|0.000000|intDefaultBehavior|0|1|intGoodLocationSpawner|0|0|intSpawnCount|0|1|intSpawnSystem|0|1|registerWithController|0|1|strName|4|rebel_detainment_mandalorian|strSpawnerType|4|area|strSpawns|4|rebel_detainment_mandalorian|$|
-1826997396	-1282636132	object/tangible/ground_spawning/area_spawner.iff	14	-21.5312	-22.99	232.801	0.683925	0	0.729552	0	systems.spawning.spawner_area	fltMaxSpawnTime|2|230.000000|fltMinSpawnTime|2|200.000000|fltRadius|2|0.000000|intDefaultBehavior|0|1|intGoodLocationSpawner|0|0|intSpawnCount|0|1|intSpawnSystem|0|1|registerWithController|0|1|strName|4|reb_empireday_detentionboss_deserttrooper|strSpawnerType|4|area|strSpawns|4|reb_empireday_detentionboss_deserttrooper|$|
-583980326	-1282636132	object/tangible/ground_spawning/area_spawner.iff	14	-12.4982	-22.99	228.445	-0.348166	0	0.937433	0	systems.spawning.spawner_area	fltMaxSpawnTime|2|230.000000|fltMinSpawnTime|2|200.000000|fltRadius|2|0.000000|intDefaultBehavior|0|1|intGoodLocationSpawner|0|0|intSpawnCount|0|1|intSpawnSystem|0|1|registerWithController|0|1|strName|4|rebel_detainment_mandalorian|strSpawnerType|4|area|strSpawns|4|rebel_detainment_mandalorian|$|
-1682445497	-1282636132	object/tangible/ground_spawning/area_spawner.iff	14	-13.9836	-22.99	226.838	0.981463	0	0.191653	0	systems.spawning.spawner_area	fltMaxSpawnTime|2|230.000000|fltMinSpawnTime|2|200.000000|fltRadius|2|0.000000|intDefaultBehavior|0|1|intGoodLocationSpawner|0|0|intSpawnCount|0|1|intSpawnSystem|0|1|registerWithController|0|1|strName|4|rebel_detainment_mandalorian|strSpawnerType|4|area|strSpawns|4|rebel_detainment_mandalorian|$|
-424265674	-1607150644	object/tangible/ground_spawning/area_spawner.iff	15	-81.1	-22.99	259.129	0.710342	0	0.703857	0	systems.spawning.spawner_area	fltMaxSpawnTime|2|300.000000|fltMinSpawnTime|2|200.000000|fltRadius|2|0.000000|intDefaultBehavior|0|1|intGoodLocationSpawner|0|0|intSpawnCount|0|1|intSpawnSystem|0|1|registerWithController|0|1|strName|4|reb_empireday_detentionboss_specforce|strSpawnerType|4|area|strSpawns|4|reb_empireday_detentionboss_specforce|$|
-310684235	-1607150644	object/tangible/ground_spawning/area_spawner.iff	15	-79.83	-22.99	259.975	-0.426411	0	0.904529	0	systems.spawning.spawner_area	fltMaxSpawnTime|2|400.000000|fltMinSpawnTime|2|300.000000|fltRadius|2|0.000000|intDefaultBehavior|0|1|intGoodLocationSpawner|0|0|intSpawnCount|0|1|intSpawnSystem|0|1|registerWithController|0|1|strName|4|rebel_detainment_specforce_high|strSpawnerType|4|area|strSpawns|4|rebel_detainment_specforce_high|$|
-1964782836	-1607150644	object/tangible/ground_spawning/area_spawner.iff	15	-69.7234	-22.99	272.405	-0.0160334	0	0.999871	0	systems.spawning.spawner_area	fltMaxSpawnTime|2|400.000000|fltMinSpawnTime|2|300.000000|fltRadius|2|0.000000|intDefaultBehavior|0|1|intGoodLocationSpawner|0|0|intSpawnCount|0|1|intSpawnSystem|0|1|registerWithController|0|1|strName|4|rebel_detainment_specforce_high|strSpawnerType|4|area|strSpawns|4|rebel_detainment_specforce_high|$|
-36892890	-1607150644	object/tangible/ground_spawning/area_spawner.iff	15	-70.0304	-22.99	270.579	0.955175	0	0.296043	0	systems.spawning.spawner_area	fltMaxSpawnTime|2|400.000000|fltMinSpawnTime|2|300.000000|fltRadius|2|0.000000|intDefaultBehavior|0|1|intGoodLocationSpawner|0|0|intSpawnCount|0|1|intSpawnSystem|0|1|registerWithController|0|1|strName|4|rebel_detainment_specforce_high|strSpawnerType|4|area|strSpawns|4|rebel_detainment_specforce_high|$|
-1681700080	-1607150644	object/tangible/ground_spawning/area_spawner.iff	15	-79.6353	-22.99	257.732	0.888908	0	-0.458086	0	systems.spawning.spawner_area	fltMaxSpawnTime|2|400.000000|fltMinSpawnTime|2|300.000000|fltRadius|2|0.000000|intDefaultBehavior|0|1|intGoodLocationSpawner|0|0|intSpawnCount|0|1|intSpawnSystem|0|1|registerWithController|0|1|strName|4|rebel_detainment_specforce_normal|strSpawnerType|4|area|strSpawns|4|rebel_detainment_specforce_normal|$|
-216945910	-1607150644	object/tangible/ground_spawning/area_spawner.iff	15	-50.8413	-22.99	272.384	-0.625239	0	0.780433	0	systems.spawning.spawner_area	fltMaxSpawnTime|2|400.000000|fltMinSpawnTime|2|300.000000|fltRadius|2|0.000000|intDefaultBehavior|0|1|intGoodLocationSpawner|0|0|intSpawnCount|0|1|intSpawnSystem|0|1|registerWithController|0|1|strName|4|rebel_detainment_specforce_normal|strSpawnerType|4|area|strSpawns|4|rebel_detainment_specforce_normal|$|
-1766053070	-1607150644	object/tangible/ground_spawning/area_spawner.iff	15	-53.577	-22.99	272.438	0.82978	0	0.55809	0	systems.spawning.spawner_area	fltMaxSpawnTime|2|400.000000|fltMinSpawnTime|2|300.000000|fltRadius|2|0.000000|intDefaultBehavior|0|1|intGoodLocationSpawner|0|0|intSpawnCount|0|1|intSpawnSystem|0|1|registerWithController|0|1|strName|4|rebel_detainment_specforce_normal|strSpawnerType|4|area|strSpawns|4|rebel_detainment_specforce_normal|$|
-1062867083	-1607150644	object/tangible/ground_spawning/area_spawner.iff	15	-58.5266	-22.99	272.665	0.543881	0	0.839162	0	systems.spawning.spawner_area	fltMaxSpawnTime|2|300.000000|fltMinSpawnTime|2|200.000000|fltRadius|2|0.000000|intDefaultBehavior|0|1|intGoodLocationSpawner|0|0|intSpawnCount|0|1|intSpawnSystem|0|1|registerWithController|0|1|strName|4|rebel_detainment_specforce_normal|strSpawnerType|4|area|strSpawns|4|rebel_detainment_specforce_normal|$|
-1196334142	-1607150644	object/tangible/ground_spawning/area_spawner.iff	15	-57.8722	-22.99	270.493	0.986152	0	-0.165846	0	systems.spawning.spawner_area	fltMaxSpawnTime|2|300.000000|fltMinSpawnTime|2|200.000000|fltRadius|2|0.000000|intDefaultBehavior|0|1|intGoodLocationSpawner|0|0|intSpawnCount|0|1|intSpawnSystem|0|1|registerWithController|0|1|strName|4|rebel_detainment_specforce_normal|strSpawnerType|4|area|strSpawns|4|rebel_detainment_specforce_normal|$|
-1153681953	-82159257	object/tangible/ground_spawning/area_spawner.iff	16	14.8897	-22.99	279.31	-0.64818	0	0.761487	0	systems.spawning.spawner_area	fltMaxSpawnTime|2|400.000000|fltMinSpawnTime|2|300.000000|fltRadius|2|0.000000|intDefaultBehavior|0|1|intGoodLocationSpawner|0|0|intSpawnCount|0|1|intSpawnSystem|0|1|registerWithController|0|1|strName|4|reb_empireday_detentionboss_jedi|strSpawnerType|4|area|strSpawns|4|reb_empireday_detentionboss_jedi|$|
-2104919997	-82159257	object/tangible/ground_spawning/area_spawner.iff	16	5.54327	-22.99	253.962	0.998131	0	0.0611088	0	systems.spawning.spawner_area	fltMaxSpawnTime|2|400.000000|fltMinSpawnTime|2|300.000000|fltRadius|2|0.000000|intDefaultBehavior|0|1|intGoodLocationSpawner|0|0|intSpawnCount|0|1|intSpawnSystem|0|1|registerWithController|0|1|strName|4|rebel_detainment_specforce_high|strSpawnerType|4|area|strSpawns|4|rebel_detainment_specforce_high|$|
-37089939	-82159257	object/tangible/ground_spawning/area_spawner.iff	16	13.5811	-22.99	254.304	0.987477	0	-0.157763	0	systems.spawning.spawner_area	fltMaxSpawnTime|2|400.000000|fltMinSpawnTime|2|300.000000|fltRadius|2|0.000000|intDefaultBehavior|0|1|intGoodLocationSpawner|0|0|intSpawnCount|0|1|intSpawnSystem|0|1|registerWithController|0|1|strName|4|rebel_detainment_specforce_high|strSpawnerType|4|area|strSpawns|4|rebel_detainment_specforce_high|$|
-60575858	-82159257	object/tangible/ground_spawning/area_spawner.iff	16	16.8994	-22.99	277.547	-0.658132	0	0.752903	0	systems.spawning.spawner_area	fltMaxSpawnTime|2|400.000000|fltMinSpawnTime|2|300.000000|fltRadius|2|0.000000|intDefaultBehavior|0|1|intGoodLocationSpawner|0|0|intSpawnCount|0|1|intSpawnSystem|0|1|registerWithController|0|1|strName|4|rebel_detainment_specforce_high|strSpawnerType|4|area|strSpawns|4|rebel_detainment_specforce_high|$|
-246967190	-82159257	object/tangible/ground_spawning/area_spawner.iff	16	16.2073	-22.99	282.07	-0.539201	0	0.842177	0	systems.spawning.spawner_area	fltMaxSpawnTime|2|400.000000|fltMinSpawnTime|2|300.000000|fltRadius|2|0.000000|intDefaultBehavior|0|1|intGoodLocationSpawner|0|0|intSpawnCount|0|1|intSpawnSystem|0|1|registerWithController|0|1|strName|4|rebel_detainment_specforce_high|strSpawnerType|4|area|strSpawns|4|rebel_detainment_specforce_high|$|
-1192647921	-1593698500	object/tangible/ground_spawning/area_spawner.iff	17	41.7966	-22.99	280.753	0.551043	0	0.834477	0	systems.spawning.spawner_area	fltMaxSpawnTime|2|400.000000|fltMinSpawnTime|2|300.000000|fltRadius|2|0.000000|intDefaultBehavior|0|1|intGoodLocationSpawner|0|0|intSpawnCount|0|1|intSpawnSystem|0|1|registerWithController|0|1|strName|4|rebel_detainment_load_lifter|strSpawnerType|4|area|strSpawns|4|rebel_detainment_load_lifter|$|
-1180694700	-1593698500	object/tangible/ground_spawning/area_spawner.iff	17	48.2298	-22.99	254.301	0.783982	0	-0.620784	0	systems.spawning.spawner_area	fltMaxSpawnTime|2|400.000000|fltMinSpawnTime|2|300.000000|fltRadius|2|0.000000|intDefaultBehavior|0|1|intGoodLocationSpawner|0|0|intSpawnCount|0|1|intSpawnSystem|0|1|registerWithController|0|1|strName|4|rebel_detainment_load_lifter|strSpawnerType|4|area|strSpawns|4|rebel_detainment_load_lifter|$|
-1277601479	-1593698500	object/tangible/ground_spawning/area_spawner.iff	17	39.4035	-22.99	268.901	-0.662742	0	0.748848	0	systems.spawning.spawner_area	fltMaxSpawnTime|2|400.000000|fltMinSpawnTime|2|300.000000|fltRadius|2|0.000000|intDefaultBehavior|0|1|intGoodLocationSpawner|0|0|intSpawnCount|0|1|intSpawnSystem|0|1|registerWithController|0|1|strName|4|rebel_detainment_load_lifter|strSpawnerType|4|area|strSpawns|4|rebel_detainment_load_lifter|$|
-78756468	-949702823	object/tangible/ground_spawning/patrol_spawner.iff	4	0.841134	-8.99	30.1118	1	0	0	0	systems.spawning.spawner_patrol	fltMaxSpawnTime|2|300.000000|fltMinSpawnTime|2|200.000000|fltRadius|2|0.000000|intDefaultBehavior|0|3|intGoodLocationSpawner|0|0|intSpawnCount|0|1|intSpawnSystem|0|1|patrolPathType|4|oscillate|registerWithController|0|1|strName|4|astromechPatrol|strPatrolPointNames|5|astromechPatrol_89669259_1:astromechPatrol_89669259_2:astromechPatrol_89669259_3:astromechPatrol_89669259_4:astromechPatrol_89669259_5:astromechPatrol_89669259_6:astromechPatrol_89669259_7:astromechPatrol_89669259_8:astromechPatrol_89669259_9:astromechPatrol_89669259_10:astromechPatrol_89669259_11:|strSpawnerType|4|patrol|strSpawns|4|rebel_detainment_astromech|$|
-503439202	-1088977967	object/tangible/ground_spawning/patrol_spawner.iff	6	-48.5517	-8.99	-9.54065	1	0	0	0	systems.spawning.spawner_patrol	fltMaxSpawnTime|2|300.000000|fltMinSpawnTime|2|200.000000|fltRadius|2|0.000000|intDefaultBehavior|0|3|intGoodLocationSpawner|0|0|intSpawnCount|0|1|intSpawnSystem|0|1|patrolPathType|4|oscillate|registerWithController|0|1|strName|4|astromechPatrol|strPatrolPointNames|5|astromechPatrol_89669216_1:astromechPatrol_89669216_2:astromechPatrol_89669216_3:astromechPatrol_89669216_4:astromechPatrol_89669216_5:astromechPatrol_89669216_6:astromechPatrol_89669216_7:astromechPatrol_89669216_8:astromechPatrol_89669216_9:astromechPatrol_89669216_10:astromechPatrol_89669216_11:astromechPatrol_89669216_12:astromechPatrol_89669216_13:astromechPatrol_89669216_14:astromechPatrol_89669216_15:astromechPatrol_89669216_16:astromechPatrol_89669216_17:astromechPatrol_89669216_18:|strSpawnerType|4|patrol|strSpawns|4|rebel_detainment_astromech|$|
-1289386226	-448591721	object/tangible/ground_spawning/patrol_spawner.iff	7	23.2385	-16.99	68.6387	1	0	0	0	systems.spawning.spawner_patrol	fltMaxSpawnTime|2|400.000000|fltMinSpawnTime|2|300.000000|fltRadius|2|0.000000|intDefaultBehavior|0|3|intGoodLocationSpawner|0|0|intSpawnCount|0|1|intSpawnSystem|0|1|patrolPathType|4|oscillate|registerWithController|0|1|strName|4|patrolOfficer|strPatrolPointNames|5|patrolOfficer_89669741_1:patrolOfficer_89669741_2:patrolOfficer_89669741_3:patrolOfficer_89669741_4:patrolOfficer_89669741_5:patrolOfficer_89669741_6:patrolOfficer_89669741_7:patrolOfficer_89669741_8:patrolOfficer_89669741_9:|strSpawnerType|4|patrol|strSpawns|4|rebel_detainment_officer|$|
-684092860	-1601803071	object/tangible/ground_spawning/patrol_spawner.iff	9	-27.9503	-22.99	120.429	1	0	0	0	systems.spawning.spawner_patrol	fltMaxSpawnTime|2|500.000000|fltMinSpawnTime|2|400.000000|fltRadius|2|0.000000|intDefaultBehavior|0|3|intGoodLocationSpawner|0|0|intSpawnCount|0|1|intSpawnSystem|0|1|patrolPathType|4|cycle|registerWithController|0|1|strName|4|patrolDroid|strPatrolPointNames|5|patrolDroid_89670504_1:patrolDroid_89670504_2:patrolDroid_89670504_3:patrolDroid_89670504_4:|strSpawnerType|4|patrol|strSpawns|4|rebel_detainment_cww89a_battle_droid|$|
-1513810597	-1601803071	object/tangible/ground_spawning/patrol_spawner.iff	9	13.3188	-22.99	199.48	1	0	0	0	systems.spawning.spawner_patrol	fltMaxSpawnTime|2|400.000000|fltMinSpawnTime|2|300.000000|fltRadius|2|0.000000|intDefaultBehavior|0|3|intGoodLocationSpawner|0|0|intSpawnCount|0|1|intSpawnSystem|0|1|patrolPathType|4|oscillate|registerWithController|0|1|strName|4|patrolprotocolDroid|strPatrolPointNames|5|patrolprotocolDroid_89670800_1:patrolprotocolDroid_89670800_2:patrolprotocolDroid_89670800_3:patrolprotocolDroid_89670800_4:patrolprotocolDroid_89670800_5:patrolprotocolDroid_89670800_6:patrolprotocolDroid_89670800_7:patrolprotocolDroid_89670800_8:patrolprotocolDroid_89670800_9:|strSpawnerType|4|patrol|strSpawns|4|rebel_detainment_protocol_droid|$|
-790857735	-1601803071	object/tangible/ground_spawning/patrol_spawner.iff	9	-37.6771	-22.99	113.554	1	0	0	0	systems.spawning.spawner_patrol	fltMaxSpawnTime|2|400.000000|fltMinSpawnTime|2|300.000000|fltRadius|2|0.000000|intDefaultBehavior|0|3|intGoodLocationSpawner|0|0|intSpawnCount|0|1|intSpawnSystem|0|1|patrolPathType|4|oscillate|registerWithController|0|1|strName|4|rebel_detainment_d270_droid|strPatrolPointNames|5|patrollingD270_89671396_1:|strSpawnerType|4|patrol|strSpawns|4|rebel_detainment_d270_droid|$|
-1207834590	-1601803071	object/tangible/ground_spawning/patrol_spawner.iff	9	9.67595	-22.99	197.808	1	0	0	0	systems.spawning.spawner_patrol	fltMaxSpawnTime|2|400.000000|fltMinSpawnTime|2|300.000000|fltRadius|2|0.000000|intDefaultBehavior|0|3|intGoodLocationSpawner|0|0|intSpawnCount|0|1|intSpawnSystem|0|1|patrolPathType|4|oscillate|registerWithController|0|1|strName|4|rebel_detainment_d270_droid|strPatrolPointNames|5|patrollingD270_89671415_1:|strSpawnerType|4|patrol|strSpawns|4|rebel_detainment_d270_droid|$|
-2041747095	-1601803071	object/tangible/ground_spawning/patrol_spawner.iff	9	-18.1848	-22.99	159.734	1	0	0	0	systems.spawning.spawner_patrol	fltMaxSpawnTime|2|400.000000|fltMinSpawnTime|2|300.000000|fltRadius|2|0.000000|intDefaultBehavior|0|3|intGoodLocationSpawner|0|0|intSpawnCount|0|1|intSpawnSystem|0|1|patrolPathType|4|cycle|registerWithController|0|1|strName|4|patrold270|strPatrolPointNames|5|patrold270_89671511_1:patrold270_89671511_2:patrold270_89671511_3:patrold270_89671511_4:patrold270_89671511_5:patrold270_89671511_6:patrold270_89671511_7:patrold270_89671511_8:patrold270_89671511_9:patrold270_89671511_10:patrold270_89671511_11:patrold270_89671511_12:patrold270_89671511_13:patrold270_89671511_14:patrold270_89671511_15:patrold270_89671511_16:patrold270_89671511_17:patrold270_89671511_18:patrold270_89671511_19:|strSpawnerType|4|patrol|strSpawns|4|rebel_detainment_d270_droid|$|
-1924903925	-1458422990	object/tangible/ground_spawning/patrol_spawner.iff	11	-64.0782	-22.99	118.802	1	0	0	0	systems.spawning.spawner_patrol	fltMaxSpawnTime|2|400.000000|fltMinSpawnTime|2|300.000000|fltRadius|2|0.000000|intDefaultBehavior|0|3|intGoodLocationSpawner|0|0|intSpawnCount|0|1|intSpawnSystem|0|1|patrolPathType|4|oscillate|registerWithController|0|1|strName|4|patrolOfficer|strPatrolPointNames|5|patrolOfficer_89669780_1:patrolOfficer_89669780_2:patrolOfficer_89669780_3:patrolOfficer_89669780_4:patrolOfficer_89669780_5:patrolOfficer_89669780_6:patrolOfficer_89669780_7:patrolOfficer_89669780_8:patrolOfficer_89669780_9:patrolOfficer_89669780_10:patrolOfficer_89669780_11:patrolOfficer_89669780_12:patrolOfficer_89669780_13:|strSpawnerType|4|patrol|strSpawns|4|rebel_detainment_officer|$|
-209850138	-644670235	object/tangible/ground_spawning/patrol_spawner.iff	12	59.8719	-20.99	216.44	1	0	0	0	systems.spawning.spawner_patrol	fltMaxSpawnTime|2|500.000000|fltMinSpawnTime|2|400.000000|fltRadius|2|0.000000|intDefaultBehavior|0|3|intGoodLocationSpawner|0|0|intSpawnCount|0|1|intSpawnSystem|0|1|patrolPathType|4|oscillate|registerWithController|0|1|strName|4|patrolDroid|strPatrolPointNames|5|patrolDroid_89670609_1:patrolDroid_89670609_2:patrolDroid_89670609_3:patrolDroid_89670609_4:patrolDroid_89670609_5:patrolDroid_89670609_6:patrolDroid_89670609_7:patrolDroid_89670609_8:patrolDroid_89670609_9:patrolDroid_89670609_10:|strSpawnerType|4|patrol|strSpawns|4|rebel_detainment_cww89a_battle_droid|$|
-2130751640	-644670235	object/tangible/ground_spawning/patrol_spawner.iff	12	24.3924	-22.99	222.186	1	0	0	0	systems.spawning.spawner_patrol	fltMaxSpawnTime|2|400.000000|fltMinSpawnTime|2|300.000000|fltRadius|2|0.000000|intDefaultBehavior|0|3|intGoodLocationSpawner|0|0|intSpawnCount|0|1|intSpawnSystem|0|1|patrolPathType|4|oscillate|registerWithController|0|1|strName|4|patrolprotocolDroid|strPatrolPointNames|5|patrolprotocolDroid_89670764_1:patrolprotocolDroid_89670764_2:patrolprotocolDroid_89670764_3:patrolprotocolDroid_89670764_4:patrolprotocolDroid_89670764_5:patrolprotocolDroid_89670764_6:patrolprotocolDroid_89670764_7:patrolprotocolDroid_89670764_8:patrolprotocolDroid_89670764_9:patrolprotocolDroid_89670764_10:patrolprotocolDroid_89670764_11:patrolprotocolDroid_89670764_12:patrolprotocolDroid_89670764_13:|strSpawnerType|4|patrol|strSpawns|4|rebel_detainment_protocol_droid|$|
-1002448	-1282636132	object/tangible/ground_spawning/patrol_spawner.iff	14	-19.7496	-22.99	234.804	1	0	0	0	systems.spawning.spawner_patrol	fltMaxSpawnTime|2|300.000000|fltMinSpawnTime|2|200.000000|fltRadius|2|0.000000|intDefaultBehavior|0|3|intGoodLocationSpawner|0|0|intSpawnCount|0|1|intSpawnSystem|0|1|patrolPathType|4|oscillate|registerWithController|0|1|strName|4|astromechPatrol|strPatrolPointNames|5|astromechPatrol_89669338_1:astromechPatrol_89669338_2:astromechPatrol_89669338_3:astromechPatrol_89669338_4:astromechPatrol_89669338_5:astromechPatrol_89669338_6:astromechPatrol_89669338_7:astromechPatrol_89669338_8:astromechPatrol_89669338_9:astromechPatrol_89669338_10:astromechPatrol_89669338_11:astromechPatrol_89669338_12:astromechPatrol_89669338_13:astromechPatrol_89669338_14:astromechPatrol_89669338_15:|strSpawnerType|4|patrol|strSpawns|4|rebel_detainment_astromech|$|
-526536453	-1282636132	object/tangible/ground_spawning/patrol_spawner.iff	14	1.1465	-22.99	230.915	1	0	0	0	systems.spawning.spawner_patrol	fltMaxSpawnTime|2|300.000000|fltMinSpawnTime|2|200.000000|fltRadius|2|0.000000|intDefaultBehavior|0|3|intGoodLocationSpawner|0|0|intSpawnCount|0|1|intSpawnSystem|0|1|patrolPathType|4|oscillate|registerWithController|0|1|strName|4|astromechPatrol|strPatrolPointNames|5|astromechPatrol_89669376_1:astromechPatrol_89669376_2:astromechPatrol_89669376_3:astromechPatrol_89669376_4:astromechPatrol_89669376_5:astromechPatrol_89669376_6:astromechPatrol_89669376_7:astromechPatrol_89669376_8:astromechPatrol_89669376_9:astromechPatrol_89669376_10:astromechPatrol_89669376_11:astromechPatrol_89669376_12:astromechPatrol_89669376_13:astromechPatrol_89669376_14:astromechPatrol_89669376_15:astromechPatrol_89669376_16:astromechPatrol_89669376_17:astromechPatrol_89669376_18:astromechPatrol_89669376_19:astromechPatrol_89669376_20:astromechPatrol_89669376_21:astromechPatrol_89669376_22:astromechPatrol_89669376_23:astromechPatrol_89669376_24:astromechPatrol_89669376_25:astromechPatrol_89669376_26:|strSpawnerType|4|patrol|strSpawns|4|rebel_detainment_astromech|$|
-1563590221	-82159257	object/tangible/ground_spawning/patrol_spawner.iff	16	7.81433	-22.99	266.867	1	0	0	0	systems.spawning.spawner_patrol	fltMaxSpawnTime|2|300.000000|fltMinSpawnTime|2|200.000000|fltRadius|2|0.000000|intDefaultBehavior|0|3|intGoodLocationSpawner|0|0|intSpawnCount|0|1|intSpawnSystem|0|1|patrolPathType|4|oscillate|registerWithController|0|1|strName|4|astromechPatrol|strPatrolPointNames|5|astromechPatrol_89669293_1:astromechPatrol_89669293_2:astromechPatrol_89669293_3:astromechPatrol_89669293_4:astromechPatrol_89669293_5:astromechPatrol_89669293_6:astromechPatrol_89669293_7:astromechPatrol_89669293_8:astromechPatrol_89669293_9:astromechPatrol_89669293_10:astromechPatrol_89669293_11:astromechPatrol_89669293_12:|strSpawnerType|4|patrol|strSpawns|4|rebel_detainment_astromech|$|
-1134852978	-82159257	object/tangible/ground_spawning/patrol_spawner.iff	16	6.22554	-22.99	269.849	1	0	0	0	systems.spawning.spawner_patrol	fltMaxSpawnTime|2|500.000000|fltMinSpawnTime|2|400.000000|fltRadius|2|0.000000|intDefaultBehavior|0|3|intGoodLocationSpawner|0|0|intSpawnCount|0|1|intSpawnSystem|0|1|patrolPathType|4|oscillate|registerWithController|0|1|strName|4|patrolmedicDroid|strPatrolPointNames|5|patrolmedicDroid_89670666_1:patrolmedicDroid_89670666_2:patrolmedicDroid_89670666_3:patrolmedicDroid_89670666_4:patrolmedicDroid_89670666_5:patrolmedicDroid_89670666_6:patrolmedicDroid_89670666_7:patrolmedicDroid_89670666_8:patrolmedicDroid_89670666_9:patrolmedicDroid_89670666_10:patrolmedicDroid_89670666_11:patrolmedicDroid_89670666_12:patrolmedicDroid_89670666_13:|strSpawnerType|4|patrol|strSpawns|4|rebel_detainment_medical_droid|$|
-1445013889	-82159257	object/tangible/ground_spawning/patrol_spawner.iff	16	-4.99212	-22.99	270.351	1	0	0	0	systems.spawning.spawner_patrol	fltMaxSpawnTime|2|500.000000|fltMinSpawnTime|2|400.000000|fltRadius|2|0.000000|intDefaultBehavior|0|3|intGoodLocationSpawner|0|0|intSpawnCount|0|1|intSpawnSystem|0|1|patrolPathType|4|oscillate|registerWithController|0|1|strName|4|patrolmedicDroid|strPatrolPointNames|5|patrolmedicDroid_89670700_1:patrolmedicDroid_89670700_2:patrolmedicDroid_89670700_3:patrolmedicDroid_89670700_4:patrolmedicDroid_89670700_5:patrolmedicDroid_89670700_6:patrolmedicDroid_89670700_7:patrolmedicDroid_89670700_8:patrolmedicDroid_89670700_9:patrolmedicDroid_89670700_10:patrolmedicDroid_89670700_11:|strSpawnerType|4|patrol|strSpawns|4|rebel_detainment_medical_droid|$|
-1180816545	-82159257	object/tangible/ground_spawning/patrol_spawner.iff	16	-1.29246	-22.99	263.421	1	0	0	0	systems.spawning.spawner_patrol	fltMaxSpawnTime|2|500.000000|fltMinSpawnTime|2|400.000000|fltRadius|2|0.000000|intDefaultBehavior|0|3|intGoodLocationSpawner|0|0|intSpawnCount|0|1|intSpawnSystem|0|1|patrolPathType|4|oscillate|registerWithController|0|1|strName|4|patrolmedicDroid|strPatrolPointNames|5|patrolmedicDroid_89670731_1:patrolmedicDroid_89670731_2:patrolmedicDroid_89670731_3:patrolmedicDroid_89670731_4:patrolmedicDroid_89670731_5:patrolmedicDroid_89670731_6:patrolmedicDroid_89670731_7:|strSpawnerType|4|patrol|strSpawns|4|rebel_detainment_medical_droid|$|
-914456270	-1593698500	object/tangible/ground_spawning/patrol_spawner.iff	17	37.736	-22.99	259.338	1	0	0	0	systems.spawning.spawner_patrol	fltMaxSpawnTime|2|500.000000|fltMinSpawnTime|2|400.000000|fltRadius|2|0.000000|intDefaultBehavior|0|3|intGoodLocationSpawner|0|0|intSpawnCount|0|1|intSpawnSystem|0|1|patrolPathType|4|oscillate|registerWithController|0|1|strName|4|patrolDroid|strPatrolPointNames|5|patrolDroid_89670531_1:patrolDroid_89670531_2:patrolDroid_89670531_3:patrolDroid_89670531_4:patrolDroid_89670531_5:patrolDroid_89670531_6:patrolDroid_89670531_7:patrolDroid_89670531_8:patrolDroid_89670531_9:patrolDroid_89670531_10:|strSpawnerType|4|patrol|strSpawns|4|rebel_detainment_cww89a_battle_droid|$|
-472523469	-949702823	object/tangible/ground_spawning/patrol_waypoint.iff	4	9.74502	-8.99	27.462	1	0	0	0		ignoreInBuildoutArray|0|1|pointName|4|astromechPatrol_89669216_10|registerWithController|0|1|$|
-759442079	-949702823	object/tangible/ground_spawning/patrol_waypoint.iff	4	6.99818	-8.99	32.2988	1	0	0	0		ignoreInBuildoutArray|0|1|pointName|4|astromechPatrol_89669216_11|registerWithController|0|1|$|
-97895318	-949702823	object/tangible/ground_spawning/patrol_waypoint.iff	4	6.37697	-8.99	26.0561	1	0	0	0		ignoreInBuildoutArray|0|1|pointName|4|astromechPatrol_89669216_12|registerWithController|0|1|$|
-504382306	-949702823	object/tangible/ground_spawning/patrol_waypoint.iff	4	3.86366	-8.99	28.6343	1	0	0	0		ignoreInBuildoutArray|0|1|pointName|4|astromechPatrol_89669216_13|registerWithController|0|1|$|
-509914755	-949702823	object/tangible/ground_spawning/patrol_waypoint.iff	4	-2.01651	-8.99	26.9211	1	0	0	0		ignoreInBuildoutArray|0|1|pointName|4|astromechPatrol_89669216_14|registerWithController|0|1|$|
-1042693766	-949702823	object/tangible/ground_spawning/patrol_waypoint.iff	4	-4.02541	-8.99	27.5169	1	0	0	0		ignoreInBuildoutArray|0|1|pointName|4|astromechPatrol_89669259_1|registerWithController|0|1|$|
-1259721474	-1826738138	object/tangible/ground_spawning/patrol_waypoint.iff	5	-10.2547	-8.99	27.7286	1	0	0	0		ignoreInBuildoutArray|0|1|pointName|4|astromechPatrol_89669216_15|registerWithController|0|1|$|
-734035415	-1826738138	object/tangible/ground_spawning/patrol_waypoint.iff	5	-9.90381	-8.99	27.9495	1	0	0	0		ignoreInBuildoutArray|0|1|pointName|4|astromechPatrol_89669259_2|registerWithController|0|1|$|
-1939578224	-1826738138	object/tangible/ground_spawning/patrol_waypoint.iff	5	-9.99243	-8.99	27.3165	1	0	0	0		ignoreInBuildoutArray|0|1|pointName|4|astromechPatrol_89669293_10|registerWithController|0|1|$|
-761403906	-1826738138	object/tangible/ground_spawning/patrol_waypoint.iff	5	-10.9573	-8.99	33.1108	1	0	0	0		ignoreInBuildoutArray|0|1|pointName|4|patrolOfficer_89669741_3|registerWithController|0|1|$|
-564613102	-1826738138	object/tangible/ground_spawning/patrol_waypoint.iff	5	-10.5265	-8.99	27.811	1	0	0	0		ignoreInBuildoutArray|0|1|pointName|4|patrolprotocolDroid_89670800_6|registerWithController|0|1|$|
-1525973956	-1088977967	object/tangible/ground_spawning/patrol_waypoint.iff	6	-53.4525	-8.99	0.344718	1	0	0	0		ignoreInBuildoutArray|0|1|pointName|4|astromechPatrol_89669216_1|registerWithController|0|1|$|
-752592300	-1088977967	object/tangible/ground_spawning/patrol_waypoint.iff	6	-54.6825	-8.99	26.7014	1	0	0	0		ignoreInBuildoutArray|0|1|pointName|4|astromechPatrol_89669216_2|registerWithController|0|1|$|
-1641047736	-1088977967	object/tangible/ground_spawning/patrol_waypoint.iff	6	-54.3868	-8.99	46.2168	1	0	0	0		ignoreInBuildoutArray|0|1|pointName|4|astromechPatrol_89669216_3|registerWithController|0|1|$|
-299322869	-1088977967	object/tangible/ground_spawning/patrol_waypoint.iff	6	-52.9637	-8.99	58.925	1	0	0	0		ignoreInBuildoutArray|0|1|pointName|4|astromechPatrol_89669216_4|registerWithController|0|1|$|
-68247385	-1088977967	object/tangible/ground_spawning/patrol_waypoint.iff	6	-53.8445	-8.99	40.514	1	0	0	0		ignoreInBuildoutArray|0|1|pointName|4|astromechPatrol_89669216_5|registerWithController|0|1|$|
-957055486	-1088977967	object/tangible/ground_spawning/patrol_waypoint.iff	6	-54.2554	-8.99	27.1267	1	0	0	0		ignoreInBuildoutArray|0|1|pointName|4|astromechPatrol_89669216_6|registerWithController|0|1|$|
-1671283142	-1088977967	object/tangible/ground_spawning/patrol_waypoint.iff	6	-71.7308	-8.99	27.5997	1	0	0	0		ignoreInBuildoutArray|0|1|pointName|4|astromechPatrol_89669216_7|registerWithController|0|1|$|
-29147497	-1088977967	object/tangible/ground_spawning/patrol_waypoint.iff	6	-73.7432	-8.99	21.4419	1	0	0	0		ignoreInBuildoutArray|0|1|pointName|4|astromechPatrol_89669216_8|registerWithController|0|1|$|
-961848794	-1088977967	object/tangible/ground_spawning/patrol_waypoint.iff	6	-68.4124	-8.99	28.2764	1	0	0	0		ignoreInBuildoutArray|0|1|pointName|4|astromechPatrol_89669216_9|registerWithController|0|1|$|
-1633680219	-1088977967	object/tangible/ground_spawning/patrol_waypoint.iff	6	-70.9481	-8.99	27.5795	1	0	0	0		ignoreInBuildoutArray|0|1|pointName|4|astromechPatrol_89669293_11|registerWithController|0|1|$|
-1312741203	-1088977967	object/tangible/ground_spawning/patrol_waypoint.iff	6	-76.8044	-8.99	22.9155	1	0	0	0		ignoreInBuildoutArray|0|1|pointName|4|astromechPatrol_89669293_12|registerWithController|0|1|$|
-1167066330	-1088977967	object/tangible/ground_spawning/patrol_waypoint.iff	6	-54.11	-8.99	27.1513	1	0	0	0		ignoreInBuildoutArray|0|1|pointName|4|patrolprotocolDroid_89670800_7|registerWithController|0|1|$|
-520881364	-1088977967	object/tangible/ground_spawning/patrol_waypoint.iff	6	-55.1924	-8.99	42.5078	1	0	0	0		ignoreInBuildoutArray|0|1|pointName|4|patrolprotocolDroid_89670800_8|registerWithController|0|1|$|
-1004494283	-1088977967	object/tangible/ground_spawning/patrol_waypoint.iff	6	-57.0834	-8.99	41.8659	1	0	0	0		ignoreInBuildoutArray|0|1|pointName|4|patrolprotocolDroid_89670800_9|registerWithController|0|1|$|
-474426364	-448591721	object/tangible/ground_spawning/patrol_waypoint.iff	7	14.8474	-16.99	63.2322	1	0	0	0		ignoreInBuildoutArray|0|1|pointName|4|astromechPatrol_89669216_17|registerWithController|0|1|$|
-150865134	-448591721	object/tangible/ground_spawning/patrol_waypoint.iff	7	29.8663	-16.99	63.2849	1	0	0	0		ignoreInBuildoutArray|0|1|pointName|4|astromechPatrol_89669216_18|registerWithController|0|1|$|
-1472707764	-448591721	object/tangible/ground_spawning/patrol_waypoint.iff	7	30.0799	-16.99	63.2285	1	0	0	0		ignoreInBuildoutArray|0|1|pointName|4|astromechPatrol_89669293_8|registerWithController|0|1|$|
-1839139520	-448591721	object/tangible/ground_spawning/patrol_waypoint.iff	7	23.3383	-16.99	63.5439	1	0	0	0		ignoreInBuildoutArray|0|1|pointName|4|patrolOfficer_89669741_1|registerWithController|0|1|$|
-2122081296	-448591721	object/tangible/ground_spawning/patrol_waypoint.iff	7	30.6509	-16.99	63.3291	1	0	0	0		ignoreInBuildoutArray|0|1|pointName|4|patrolOfficer_89669780_11|registerWithController|0|1|$|
-1428976861	-448591721	object/tangible/ground_spawning/patrol_waypoint.iff	7	23.7187	-16.99	63.5337	1	0	0	0		ignoreInBuildoutArray|0|1|pointName|4|patrolOfficer_89669780_12|registerWithController|0|1|$|
-1390018309	-448591721	object/tangible/ground_spawning/patrol_waypoint.iff	7	22.5367	-16.99	58.1103	1	0	0	0		ignoreInBuildoutArray|0|1|pointName|4|patrolOfficer_89669780_13|registerWithController|0|1|$|
-34710726	-759651764	object/tangible/ground_spawning/patrol_waypoint.iff	8	-10.5717	-16.99	63.1066	1	0	0	0		ignoreInBuildoutArray|0|1|pointName|4|astromechPatrol_89669216_16|registerWithController|0|1|$|
-1386847442	-759651764	object/tangible/ground_spawning/patrol_waypoint.iff	8	-10.8343	-16.99	75.8414	1	0	0	0		ignoreInBuildoutArray|0|1|pointName|4|astromechPatrol_89669259_3|registerWithController|0|1|$|
-1317754168	-759651764	object/tangible/ground_spawning/patrol_waypoint.iff	8	-37.9788	-18.99	75.39	1	0	0	0		ignoreInBuildoutArray|0|1|pointName|4|astromechPatrol_89669259_4|registerWithController|0|1|$|
-1703360334	-759651764	object/tangible/ground_spawning/patrol_waypoint.iff	8	9.95823	-18.99	76.1238	1	0	0	0		ignoreInBuildoutArray|0|1|pointName|4|astromechPatrol_89669293_5|registerWithController|0|1|$|
-2136338144	-759651764	object/tangible/ground_spawning/patrol_waypoint.iff	8	-10.7706	-16.99	75.4724	1	0	0	0		ignoreInBuildoutArray|0|1|pointName|4|astromechPatrol_89669293_6|registerWithController|0|1|$|
-400633522	-759651764	object/tangible/ground_spawning/patrol_waypoint.iff	8	-9.63367	-16.99	62.9551	1	0	0	0		ignoreInBuildoutArray|0|1|pointName|4|astromechPatrol_89669293_7|registerWithController|0|1|$|
-1840091415	-759651764	object/tangible/ground_spawning/patrol_waypoint.iff	8	-10.5599	-16.99	63.5396	1	0	0	0		ignoreInBuildoutArray|0|1|pointName|4|astromechPatrol_89669293_9|registerWithController|0|1|$|
-45501570	-759651764	object/tangible/ground_spawning/patrol_waypoint.iff	8	9.97618	-18.99	75.0363	1	0	0	0		ignoreInBuildoutArray|0|1|pointName|4|astromechPatrol_89669376_8|registerWithController|0|1|$|
-482078952	-759651764	object/tangible/ground_spawning/patrol_waypoint.iff	8	-38.2117	-18.99	75.4036	1	0	0	0		ignoreInBuildoutArray|0|1|pointName|4|astromechPatrol_89669376_9|registerWithController|0|1|$|
-1252013944	-759651764	object/tangible/ground_spawning/patrol_waypoint.iff	8	-10.9321	-16.99	63.4436	1	0	0	0		ignoreInBuildoutArray|0|1|pointName|4|patrolOfficer_89669741_2|registerWithController|0|1|$|
-1829219431	-759651764	object/tangible/ground_spawning/patrol_waypoint.iff	8	-10.6399	-16.99	75.8942	1	0	0	0		ignoreInBuildoutArray|0|1|pointName|4|patrolOfficer_89669741_4|registerWithController|0|1|$|
-1727190743	-759651764	object/tangible/ground_spawning/patrol_waypoint.iff	8	9.57231	-18.99	75.1845	1	0	0	0		ignoreInBuildoutArray|0|1|pointName|4|patrolOfficer_89669741_5|registerWithController|0|1|$|
-1996907725	-759651764	object/tangible/ground_spawning/patrol_waypoint.iff	8	10.0659	-18.99	75.348	1	0	0	0		ignoreInBuildoutArray|0|1|pointName|4|patrolOfficer_89669780_8|registerWithController|0|1|$|
-814895542	-759651764	object/tangible/ground_spawning/patrol_waypoint.iff	8	-10.5867	-16.99	75.4146	1	0	0	0		ignoreInBuildoutArray|0|1|pointName|4|patrolOfficer_89669780_9|registerWithController|0|1|$|
-957838602	-759651764	object/tangible/ground_spawning/patrol_waypoint.iff	8	-10.5133	-16.99	62.9485	1	0	0	0		ignoreInBuildoutArray|0|1|pointName|4|patrolOfficer_89669780_10|registerWithController|0|1|$|
-1309722770	-759651764	object/tangible/ground_spawning/patrol_waypoint.iff	8	-38.561	-18.99	75.7619	1	0	0	0		ignoreInBuildoutArray|0|1|pointName|4|patrolprotocolDroid_89670800_4|registerWithController|0|1|$|
-143502412	-759651764	object/tangible/ground_spawning/patrol_waypoint.iff	8	-10.5782	-16.99	75.5166	1	0	0	0		ignoreInBuildoutArray|0|1|pointName|4|patrolprotocolDroid_89670800_5|registerWithController|0|1|$|
-298692195	-1601803071	object/tangible/ground_spawning/patrol_waypoint.iff	9	-38.4272	-22.99	188.844	1	0	0	0		ignoreInBuildoutArray|0|1|pointName|4|astromechPatrol_89669259_5|registerWithController|0|1|$|
-1438085472	-1601803071	object/tangible/ground_spawning/patrol_waypoint.iff	9	9.60303	-22.99	202.864	1	0	0	0		ignoreInBuildoutArray|0|1|pointName|4|astromechPatrol_89669259_6|registerWithController|0|1|$|
-216735266	-1601803071	object/tangible/ground_spawning/patrol_waypoint.iff	9	9.37986	-22.99	203.361	1	0	0	0		ignoreInBuildoutArray|0|1|pointName|4|astromechPatrol_89669376_4|registerWithController|0|1|$|
-580444360	-1601803071	object/tangible/ground_spawning/patrol_waypoint.iff	9	11.7631	-22.99	201.843	1	0	0	0		ignoreInBuildoutArray|0|1|pointName|4|astromechPatrol_89669376_5|registerWithController|0|1|$|
-1679990070	-1601803071	object/tangible/ground_spawning/patrol_waypoint.iff	9	12.4919	-22.99	114.956	1	0	0	0		ignoreInBuildoutArray|0|1|pointName|4|astromechPatrol_89669376_6|registerWithController|0|1|$|
-1690702648	-1601803071	object/tangible/ground_spawning/patrol_waypoint.iff	9	9.12164	-22.99	108.637	1	0	0	0		ignoreInBuildoutArray|0|1|pointName|4|astromechPatrol_89669376_7|registerWithController|0|1|$|
-762359921	-1601803071	object/tangible/ground_spawning/patrol_waypoint.iff	9	-38.1547	-22.99	103.45	1	0	0	0		ignoreInBuildoutArray|0|1|pointName|4|astromechPatrol_89669376_10|registerWithController|0|1|$|
-142327748	-1601803071	object/tangible/ground_spawning/patrol_waypoint.iff	9	-66.3716	-22.99	102.818	1	0	0	0		ignoreInBuildoutArray|0|1|pointName|4|astromechPatrol_89669376_11|registerWithController|0|1|$|
-783780294	-1601803071	object/tangible/ground_spawning/patrol_waypoint.iff	9	-66.2862	-22.99	103.045	1	0	0	0		ignoreInBuildoutArray|0|1|pointName|4|astromechPatrol_89669376_18|registerWithController|0|1|$|
-535333128	-1601803071	object/tangible/ground_spawning/patrol_waypoint.iff	9	-37.5581	-22.99	103.573	1	0	0	0		ignoreInBuildoutArray|0|1|pointName|4|astromechPatrol_89669376_19|registerWithController|0|1|$|
-1826871452	-1601803071	object/tangible/ground_spawning/patrol_waypoint.iff	9	-38.5946	-22.99	111.872	1	0	0	0		ignoreInBuildoutArray|0|1|pointName|4|astromechPatrol_89669376_20|registerWithController|0|1|$|
-1559696501	-1601803071	object/tangible/ground_spawning/patrol_waypoint.iff	9	-40.7695	-22.99	112.8	1	0	0	0		ignoreInBuildoutArray|0|1|pointName|4|astromechPatrol_89669376_21|registerWithController|0|1|$|
-1246187741	-1601803071	object/tangible/ground_spawning/patrol_waypoint.iff	9	-41.5809	-22.99	200.504	1	0	0	0		ignoreInBuildoutArray|0|1|pointName|4|astromechPatrol_89669376_22|registerWithController|0|1|$|
-345596290	-1601803071	object/tangible/ground_spawning/patrol_waypoint.iff	9	-38.4638	-22.99	205.685	1	0	0	0		ignoreInBuildoutArray|0|1|pointName|4|astromechPatrol_89669376_23|registerWithController|0|1|$|
-76569723	-1601803071	object/tangible/ground_spawning/patrol_waypoint.iff	9	-38.4836	-22.99	219.129	1	0	0	0		ignoreInBuildoutArray|0|1|pointName|4|astromechPatrol_89669376_24|registerWithController|0|1|$|
-1728250810	-1601803071	object/tangible/ground_spawning/patrol_waypoint.iff	9	9.0796	-22.99	103.681	1	0	0	0		ignoreInBuildoutArray|0|1|pointName|4|patrolOfficer_89669741_6|registerWithController|0|1|$|
-579020366	-1601803071	object/tangible/ground_spawning/patrol_waypoint.iff	9	38.0922	-22.99	103.268	1	0	0	0		ignoreInBuildoutArray|0|1|pointName|4|patrolOfficer_89669741_7|registerWithController|0|1|$|
-1244680051	-1601803071	object/tangible/ground_spawning/patrol_waypoint.iff	9	-66.2203	-22.99	102.767	1	0	0	0		ignoreInBuildoutArray|0|1|pointName|4|patrolOfficer_89669780_2|registerWithController|0|1|$|
-963782643	-1601803071	object/tangible/ground_spawning/patrol_waypoint.iff	9	-37.7512	-22.99	103.359	1	0	0	0		ignoreInBuildoutArray|0|1|pointName|4|patrolOfficer_89669780_3|registerWithController|0|1|$|
-1175206550	-1601803071	object/tangible/ground_spawning/patrol_waypoint.iff	9	-37.7919	-22.99	115.215	1	0	0	0		ignoreInBuildoutArray|0|1|pointName|4|patrolOfficer_89669780_4|registerWithController|0|1|$|
-1175546365	-1601803071	object/tangible/ground_spawning/patrol_waypoint.iff	9	-42.7215	-22.99	114.531	1	0	0	0		ignoreInBuildoutArray|0|1|pointName|4|patrolOfficer_89669780_5|registerWithController|0|1|$|
-1088932001	-1601803071	object/tangible/ground_spawning/patrol_waypoint.iff	9	11.2716	-22.99	114.191	1	0	0	0		ignoreInBuildoutArray|0|1|pointName|4|patrolOfficer_89669780_6|registerWithController|0|1|$|
-392140195	-1601803071	object/tangible/ground_spawning/patrol_waypoint.iff	9	11.6925	-22.99	201.7	1	0	0	0		ignoreInBuildoutArray|0|1|pointName|4|patrolOfficer_89669780_7|registerWithController|0|1|$|
-7865345	-1601803071	object/tangible/ground_spawning/patrol_waypoint.iff	9	6.54208	-22.99	120.917	1	0	0	0		ignoreInBuildoutArray|0|1|pointName|4|patrolDroid_89670504_1|registerWithController|0|1|$|
-595428792	-1601803071	object/tangible/ground_spawning/patrol_waypoint.iff	9	4.64563	-22.99	191.559	1	0	0	0		ignoreInBuildoutArray|0|1|pointName|4|patrolDroid_89670504_2|registerWithController|0|1|$|
-97520939	-1601803071	object/tangible/ground_spawning/patrol_waypoint.iff	9	-34.3103	-22.99	191.541	1	0	0	0		ignoreInBuildoutArray|0|1|pointName|4|patrolDroid_89670504_3|registerWithController|0|1|$|
-1359341764	-1601803071	object/tangible/ground_spawning/patrol_waypoint.iff	9	-33.5477	-22.99	119.824	1	0	0	0		ignoreInBuildoutArray|0|1|pointName|4|patrolDroid_89670504_4|registerWithController|0|1|$|
-980115477	-1601803071	object/tangible/ground_spawning/patrol_waypoint.iff	9	9.76067	-22.99	202.301	1	0	0	0		ignoreInBuildoutArray|0|1|pointName|4|patrolDroid_89670531_6|registerWithController|0|1|$|
-92736024	-1601803071	object/tangible/ground_spawning/patrol_waypoint.iff	9	-38.3154	-22.99	202.565	1	0	0	0		ignoreInBuildoutArray|0|1|pointName|4|patrolDroid_89670531_7|registerWithController|0|1|$|
-1895641221	-1601803071	object/tangible/ground_spawning/patrol_waypoint.iff	9	-38.2023	-22.99	219.448	1	0	0	0		ignoreInBuildoutArray|0|1|pointName|4|patrolDroid_89670531_8|registerWithController|0|1|$|
-2093716255	-1601803071	object/tangible/ground_spawning/patrol_waypoint.iff	9	-40.7394	-22.99	201.368	1	0	0	0		ignoreInBuildoutArray|0|1|pointName|4|patrolprotocolDroid_89670800_1|registerWithController|0|1|$|
-411915690	-1601803071	object/tangible/ground_spawning/patrol_waypoint.iff	9	-41.912	-22.99	114.416	1	0	0	0		ignoreInBuildoutArray|0|1|pointName|4|patrolprotocolDroid_89670800_2|registerWithController|0|1|$|
-1373587489	-1601803071	object/tangible/ground_spawning/patrol_waypoint.iff	9	-38.1646	-22.99	112.713	1	0	0	0		ignoreInBuildoutArray|0|1|pointName|4|patrolprotocolDroid_89670800_3|registerWithController|0|1|$|
-1667120169	-1601803071	object/tangible/ground_spawning/patrol_waypoint.iff	9	-37.2039	-22.99	197.925	1	0	0	0		ignoreInBuildoutArray|0|1|pointName|4|patrollingD270_89671396_1|registerWithController|0|1|$|
-141846294	-1601803071	object/tangible/ground_spawning/patrol_waypoint.iff	9	8.91457	-22.99	113.936	1	0	0	0		ignoreInBuildoutArray|0|1|pointName|4|patrollingD270_89671415_1|registerWithController|0|1|$|
-449124001	-1601803071	object/tangible/ground_spawning/patrol_waypoint.iff	9	-27.4044	-22.99	194.89	1	0	0	0		ignoreInBuildoutArray|0|1|pointName|4|patrold270_89671511_1|registerWithController|0|1|$|
-1260067147	-1601803071	object/tangible/ground_spawning/patrol_waypoint.iff	9	-1.81814	-22.99	192.923	1	0	0	0		ignoreInBuildoutArray|0|1|pointName|4|patrold270_89671511_2|registerWithController|0|1|$|
-1658926106	-1601803071	object/tangible/ground_spawning/patrol_waypoint.iff	9	-9.02465	-22.99	163.54	1	0	0	0		ignoreInBuildoutArray|0|1|pointName|4|patrold270_89671511_3|registerWithController|0|1|$|
-1657617040	-1601803071	object/tangible/ground_spawning/patrol_waypoint.iff	9	-1.76423	-22.99	169.2	1	0	0	0		ignoreInBuildoutArray|0|1|pointName|4|patrold270_89671511_4|registerWithController|0|1|$|
-1153932356	-1601803071	object/tangible/ground_spawning/patrol_waypoint.iff	9	-2.78169	-22.99	193.044	1	0	0	0		ignoreInBuildoutArray|0|1|pointName|4|patrold270_89671511_5|registerWithController|0|1|$|
-412452542	-1601803071	object/tangible/ground_spawning/patrol_waypoint.iff	9	5.16568	-22.99	192.595	1	0	0	0		ignoreInBuildoutArray|0|1|pointName|4|patrold270_89671511_6|registerWithController|0|1|$|
-659872754	-1601803071	object/tangible/ground_spawning/patrol_waypoint.iff	9	4.492	-22.99	119.872	1	0	0	0		ignoreInBuildoutArray|0|1|pointName|4|patrold270_89671511_7|registerWithController|0|1|$|
-2059820365	-1601803071	object/tangible/ground_spawning/patrol_waypoint.iff	9	-2.84398	-22.99	119.572	1	0	0	0		ignoreInBuildoutArray|0|1|pointName|4|patrold270_89671511_8|registerWithController|0|1|$|
-1147592737	-1601803071	object/tangible/ground_spawning/patrol_waypoint.iff	9	-1.9615	-22.99	149.801	1	0	0	0		ignoreInBuildoutArray|0|1|pointName|4|patrold270_89671511_9|registerWithController|0|1|$|
-1164160562	-1601803071	object/tangible/ground_spawning/patrol_waypoint.iff	9	-11.3442	-22.99	145.025	1	0	0	0		ignoreInBuildoutArray|0|1|pointName|4|patrold270_89671511_10|registerWithController|0|1|$|
-220886097	-1601803071	object/tangible/ground_spawning/patrol_waypoint.iff	9	-0.848916	-22.99	118.06	1	0	0	0		ignoreInBuildoutArray|0|1|pointName|4|patrold270_89671511_11|registerWithController|0|1|$|
-454175282	-1601803071	object/tangible/ground_spawning/patrol_waypoint.iff	9	-26.7477	-22.99	119.997	1	0	0	0		ignoreInBuildoutArray|0|1|pointName|4|patrold270_89671511_12|registerWithController|0|1|$|
-1875449306	-1601803071	object/tangible/ground_spawning/patrol_waypoint.iff	9	-25.962	-22.99	149.531	1	0	0	0		ignoreInBuildoutArray|0|1|pointName|4|patrold270_89671511_13|registerWithController|0|1|$|
-2046004574	-1601803071	object/tangible/ground_spawning/patrol_waypoint.iff	9	-18.7008	-22.99	149.857	1	0	0	0		ignoreInBuildoutArray|0|1|pointName|4|patrold270_89671511_14|registerWithController|0|1|$|
-838802058	-1601803071	object/tangible/ground_spawning/patrol_waypoint.iff	9	-28.9895	-22.99	118.037	1	0	0	0		ignoreInBuildoutArray|0|1|pointName|4|patrold270_89671511_15|registerWithController|0|1|$|
-843092814	-1601803071	object/tangible/ground_spawning/patrol_waypoint.iff	9	-38.2302	-22.99	118.485	1	0	0	0		ignoreInBuildoutArray|0|1|pointName|4|patrold270_89671511_16|registerWithController|0|1|$|
-284466749	-1601803071	object/tangible/ground_spawning/patrol_waypoint.iff	9	-38.3643	-22.99	194.764	1	0	0	0		ignoreInBuildoutArray|0|1|pointName|4|patrold270_89671511_17|registerWithController|0|1|$|
-924165038	-1601803071	object/tangible/ground_spawning/patrol_waypoint.iff	9	-27.67	-22.99	193.274	1	0	0	0		ignoreInBuildoutArray|0|1|pointName|4|patrold270_89671511_18|registerWithController|0|1|$|
-556966628	-1601803071	object/tangible/ground_spawning/patrol_waypoint.iff	9	-27.1622	-22.99	174.97	1	0	0	0		ignoreInBuildoutArray|0|1|pointName|4|patrold270_89671511_19|registerWithController|0|1|$|
-1145194229	-2034178253	object/tangible/ground_spawning/patrol_waypoint.iff	10	37.5575	-22.99	112.043	1	0	0	0		ignoreInBuildoutArray|0|1|pointName|4|patrolOfficer_89669741_8|registerWithController|0|1|$|
-1542366989	-2034178253	object/tangible/ground_spawning/patrol_waypoint.iff	10	33.2018	-22.99	114.606	1	0	0	0		ignoreInBuildoutArray|0|1|pointName|4|patrolOfficer_89669741_9|registerWithController|0|1|$|
-950067496	-1458422990	object/tangible/ground_spawning/patrol_waypoint.iff	11	-66.5353	-20.99	135.5	1	0	0	0		ignoreInBuildoutArray|0|1|pointName|4|astromechPatrol_89669376_12|registerWithController|0|1|$|
-612564101	-1458422990	object/tangible/ground_spawning/patrol_waypoint.iff	11	-62.732	-20.99	140.094	1	0	0	0		ignoreInBuildoutArray|0|1|pointName|4|astromechPatrol_89669376_13|registerWithController|0|1|$|
-1753686534	-1458422990	object/tangible/ground_spawning/patrol_waypoint.iff	11	-63.1307	-20.99	144.725	1	0	0	0		ignoreInBuildoutArray|0|1|pointName|4|astromechPatrol_89669376_14|registerWithController|0|1|$|
-730594905	-1458422990	object/tangible/ground_spawning/patrol_waypoint.iff	11	-67.1503	-20.99	146.972	1	0	0	0		ignoreInBuildoutArray|0|1|pointName|4|astromechPatrol_89669376_15|registerWithController|0|1|$|
-797148299	-1458422990	object/tangible/ground_spawning/patrol_waypoint.iff	11	-70.0961	-20.99	140.446	1	0	0	0		ignoreInBuildoutArray|0|1|pointName|4|astromechPatrol_89669376_16|registerWithController|0|1|$|
-1833320418	-1458422990	object/tangible/ground_spawning/patrol_waypoint.iff	11	-66.5807	-20.99	136.639	1	0	0	0		ignoreInBuildoutArray|0|1|pointName|4|astromechPatrol_89669376_17|registerWithController|0|1|$|
-33729951	-1458422990	object/tangible/ground_spawning/patrol_waypoint.iff	11	-66.5629	-22.99	108.768	1	0	0	0		ignoreInBuildoutArray|0|1|pointName|4|patrolOfficer_89669780_1|registerWithController|0|1|$|
-1375920964	-644670235	object/tangible/ground_spawning/patrol_waypoint.iff	12	36.7024	-20.99	219.408	1	0	0	0		ignoreInBuildoutArray|0|1|pointName|4|patrolDroid_89670609_1|registerWithController|0|1|$|
-1672342663	-644670235	object/tangible/ground_spawning/patrol_waypoint.iff	12	17.0606	-22.99	219.281	1	0	0	0		ignoreInBuildoutArray|0|1|pointName|4|patrolprotocolDroid_89670764_1|registerWithController|0|1|$|
-1415086739	-1086875810	object/tangible/ground_spawning/patrol_waypoint.iff	13	-48.9819	-22.99	219.424	1	0	0	0		ignoreInBuildoutArray|0|1|pointName|4|astromechPatrol_89669376_25|registerWithController|0|1|$|
-1274915012	-1086875810	object/tangible/ground_spawning/patrol_waypoint.iff	13	-49.9036	-22.99	224.952	1	0	0	0		ignoreInBuildoutArray|0|1|pointName|4|astromechPatrol_89669376_26|registerWithController|0|1|$|
-2041201615	-1086875810	object/tangible/ground_spawning/patrol_waypoint.iff	13	-82.3412	-20.99	219.21	1	0	0	0		ignoreInBuildoutArray|0|1|pointName|4|patrolDroid_89670531_9|registerWithController|0|1|$|
-913251816	-1086875810	object/tangible/ground_spawning/patrol_waypoint.iff	13	-88.8775	-20.99	219.477	1	0	0	0		ignoreInBuildoutArray|0|1|pointName|4|patrolDroid_89670531_10|registerWithController|0|1|$|
-1362499272	-1282636132	object/tangible/ground_spawning/patrol_waypoint.iff	14	9.0598	-22.99	219.336	1	0	0	0		ignoreInBuildoutArray|0|1|pointName|4|astromechPatrol_89669259_7|registerWithController|0|1|$|
-1592038953	-1282636132	object/tangible/ground_spawning/patrol_waypoint.iff	14	-1.9976	-22.99	218.952	1	0	0	0		ignoreInBuildoutArray|0|1|pointName|4|astromechPatrol_89669259_8|registerWithController|0|1|$|
-110713216	-1282636132	object/tangible/ground_spawning/patrol_waypoint.iff	14	-2.25157	-22.99	229.5	1	0	0	0		ignoreInBuildoutArray|0|1|pointName|4|astromechPatrol_89669259_9|registerWithController|0|1|$|
-1459167728	-1282636132	object/tangible/ground_spawning/patrol_waypoint.iff	14	-20.146	-22.99	229.67	1	0	0	0		ignoreInBuildoutArray|0|1|pointName|4|astromechPatrol_89669259_10|registerWithController|0|1|$|
-1809916112	-1282636132	object/tangible/ground_spawning/patrol_waypoint.iff	14	-22.475	-22.99	227.618	1	0	0	0		ignoreInBuildoutArray|0|1|pointName|4|astromechPatrol_89669259_11|registerWithController|0|1|$|
-624754250	-1282636132	object/tangible/ground_spawning/patrol_waypoint.iff	14	-2.50478	-22.99	219.281	1	0	0	0		ignoreInBuildoutArray|0|1|pointName|4|astromechPatrol_89669293_3|registerWithController|0|1|$|
-783104186	-1282636132	object/tangible/ground_spawning/patrol_waypoint.iff	14	9.8049	-22.99	219.629	1	0	0	0		ignoreInBuildoutArray|0|1|pointName|4|astromechPatrol_89669293_4|registerWithController|0|1|$|
-1175252251	-1282636132	object/tangible/ground_spawning/patrol_waypoint.iff	14	-1.75449	-22.99	237.25	1	0	0	0		ignoreInBuildoutArray|0|1|pointName|4|astromechPatrol_89669338_1|registerWithController|0|1|$|
-824484267	-1282636132	object/tangible/ground_spawning/patrol_waypoint.iff	14	-2.67332	-22.99	237.83	1	0	0	0		ignoreInBuildoutArray|0|1|pointName|4|astromechPatrol_89669338_9|registerWithController|0|1|$|
-98701367	-1282636132	object/tangible/ground_spawning/patrol_waypoint.iff	14	-18.3752	-22.99	238.162	1	0	0	0		ignoreInBuildoutArray|0|1|pointName|4|astromechPatrol_89669338_10|registerWithController|0|1|$|
-1580873457	-1282636132	object/tangible/ground_spawning/patrol_waypoint.iff	14	-3.04947	-22.99	225.379	1	0	0	0		ignoreInBuildoutArray|0|1|pointName|4|astromechPatrol_89669376_1|registerWithController|0|1|$|
-1156425571	-1282636132	object/tangible/ground_spawning/patrol_waypoint.iff	14	-2.03715	-22.99	218.635	1	0	0	0		ignoreInBuildoutArray|0|1|pointName|4|astromechPatrol_89669376_2|registerWithController|0|1|$|
-1381980673	-1282636132	object/tangible/ground_spawning/patrol_waypoint.iff	14	9.8387	-22.99	219.27	1	0	0	0		ignoreInBuildoutArray|0|1|pointName|4|astromechPatrol_89669376_3|registerWithController|0|1|$|
-1419724531	-1282636132	object/tangible/ground_spawning/patrol_waypoint.iff	14	-2.39137	-22.99	218.767	1	0	0	0		ignoreInBuildoutArray|0|1|pointName|4|patrolDroid_89670531_4|registerWithController|0|1|$|
-175247600	-1282636132	object/tangible/ground_spawning/patrol_waypoint.iff	14	9.57098	-22.99	219.243	1	0	0	0		ignoreInBuildoutArray|0|1|pointName|4|patrolDroid_89670531_5|registerWithController|0|1|$|
-325645109	-1282636132	object/tangible/ground_spawning/patrol_waypoint.iff	14	-2.70105	-22.99	218.999	1	0	0	0		ignoreInBuildoutArray|0|1|pointName|4|patrolDroid_89670609_2|registerWithController|0|1|$|
-307400071	-1282636132	object/tangible/ground_spawning/patrol_waypoint.iff	14	-2.50534	-22.99	237.764	1	0	0	0		ignoreInBuildoutArray|0|1|pointName|4|patrolDroid_89670609_3|registerWithController|0|1|$|
-1945967992	-1282636132	object/tangible/ground_spawning/patrol_waypoint.iff	14	-18.3585	-22.99	239.019	1	0	0	0		ignoreInBuildoutArray|0|1|pointName|4|patrolDroid_89670609_4|registerWithController|0|1|$|
-264221943	-1282636132	object/tangible/ground_spawning/patrol_waypoint.iff	14	-2.07193	-22.99	219.073	1	0	0	0		ignoreInBuildoutArray|0|1|pointName|4|patrolprotocolDroid_89670764_2|registerWithController|0|1|$|
-1807120467	-1282636132	object/tangible/ground_spawning/patrol_waypoint.iff	14	-2.40519	-22.99	228.574	1	0	0	0		ignoreInBuildoutArray|0|1|pointName|4|patrolprotocolDroid_89670764_3|registerWithController|0|1|$|
-992554324	-1282636132	object/tangible/ground_spawning/patrol_waypoint.iff	14	-18.092	-22.99	230.639	1	0	0	0		ignoreInBuildoutArray|0|1|pointName|4|patrolprotocolDroid_89670764_4|registerWithController|0|1|$|
-1923941761	-1607150644	object/tangible/ground_spawning/patrol_waypoint.iff	15	-18.7987	-22.99	247.834	1	0	0	0		ignoreInBuildoutArray|0|1|pointName|4|astromechPatrol_89669338_11|registerWithController|0|1|$|
-2081315632	-1607150644	object/tangible/ground_spawning/patrol_waypoint.iff	15	-30.6703	-22.99	246.752	1	0	0	0		ignoreInBuildoutArray|0|1|pointName|4|astromechPatrol_89669338_12|registerWithController|0|1|$|
-1583495088	-1607150644	object/tangible/ground_spawning/patrol_waypoint.iff	15	-30.6393	-22.99	259.673	1	0	0	0		ignoreInBuildoutArray|0|1|pointName|4|astromechPatrol_89669338_13|registerWithController|0|1|$|
-1396204736	-1607150644	object/tangible/ground_spawning/patrol_waypoint.iff	15	-74.6886	-22.99	259.171	1	0	0	0		ignoreInBuildoutArray|0|1|pointName|4|astromechPatrol_89669338_14|registerWithController|0|1|$|
-1322651032	-1607150644	object/tangible/ground_spawning/patrol_waypoint.iff	15	-77.1567	-22.99	262.673	1	0	0	0		ignoreInBuildoutArray|0|1|pointName|4|astromechPatrol_89669338_15|registerWithController|0|1|$|
-1929480846	-1607150644	object/tangible/ground_spawning/patrol_waypoint.iff	15	-18.4875	-22.99	247.281	1	0	0	0		ignoreInBuildoutArray|0|1|pointName|4|patrolDroid_89670609_5|registerWithController|0|1|$|
-618588800	-1607150644	object/tangible/ground_spawning/patrol_waypoint.iff	15	-31.0035	-22.99	247.886	1	0	0	0		ignoreInBuildoutArray|0|1|pointName|4|patrolDroid_89670609_6|registerWithController|0|1|$|
-793942430	-1607150644	object/tangible/ground_spawning/patrol_waypoint.iff	15	-30.7169	-22.99	259.062	1	0	0	0		ignoreInBuildoutArray|0|1|pointName|4|patrolDroid_89670609_7|registerWithController|0|1|$|
-1476577057	-1607150644	object/tangible/ground_spawning/patrol_waypoint.iff	15	-42.6609	-22.99	259.161	1	0	0	0		ignoreInBuildoutArray|0|1|pointName|4|patrolDroid_89670609_8|registerWithController|0|1|$|
-681731935	-1607150644	object/tangible/ground_spawning/patrol_waypoint.iff	15	-42.0124	-22.99	266.558	1	0	0	0		ignoreInBuildoutArray|0|1|pointName|4|patrolDroid_89670609_9|registerWithController|0|1|$|
-1865846090	-1607150644	object/tangible/ground_spawning/patrol_waypoint.iff	15	-45.7978	-22.99	270.445	1	0	0	0		ignoreInBuildoutArray|0|1|pointName|4|patrolDroid_89670609_10|registerWithController|0|1|$|
-1534868207	-1607150644	object/tangible/ground_spawning/patrol_waypoint.iff	15	-18.1442	-22.99	247.22	1	0	0	0		ignoreInBuildoutArray|0|1|pointName|4|patrolprotocolDroid_89670764_5|registerWithController|0|1|$|
-1627137807	-1607150644	object/tangible/ground_spawning/patrol_waypoint.iff	15	-31.0277	-22.99	247.375	1	0	0	0		ignoreInBuildoutArray|0|1|pointName|4|patrolprotocolDroid_89670764_6|registerWithController|0|1|$|
-198526360	-1607150644	object/tangible/ground_spawning/patrol_waypoint.iff	15	-31.3264	-22.99	259.956	1	0	0	0		ignoreInBuildoutArray|0|1|pointName|4|patrolprotocolDroid_89670764_7|registerWithController|0|1|$|
-397584898	-1607150644	object/tangible/ground_spawning/patrol_waypoint.iff	15	-55.2044	-22.99	259.327	1	0	0	0		ignoreInBuildoutArray|0|1|pointName|4|patrolprotocolDroid_89670764_8|registerWithController|0|1|$|
-1685764563	-1607150644	object/tangible/ground_spawning/patrol_waypoint.iff	15	-51.2619	-22.99	269.37	1	0	0	0		ignoreInBuildoutArray|0|1|pointName|4|patrolprotocolDroid_89670764_9|registerWithController|0|1|$|
-1853275371	-1607150644	object/tangible/ground_spawning/patrol_waypoint.iff	15	-54.6877	-22.99	266.776	1	0	0	0		ignoreInBuildoutArray|0|1|pointName|4|patrolprotocolDroid_89670764_10|registerWithController|0|1|$|
-925696019	-1607150644	object/tangible/ground_spawning/patrol_waypoint.iff	15	-54.9922	-22.99	258.93	1	0	0	0		ignoreInBuildoutArray|0|1|pointName|4|patrolprotocolDroid_89670764_11|registerWithController|0|1|$|
-921441216	-1607150644	object/tangible/ground_spawning/patrol_waypoint.iff	15	-75.0548	-22.99	259.174	1	0	0	0		ignoreInBuildoutArray|0|1|pointName|4|patrolprotocolDroid_89670764_12|registerWithController|0|1|$|
-35580847	-1607150644	object/tangible/ground_spawning/patrol_waypoint.iff	15	-78.4766	-22.99	256.774	1	0	0	0		ignoreInBuildoutArray|0|1|pointName|4|patrolprotocolDroid_89670764_13|registerWithController|0|1|$|
-653609667	-82159257	object/tangible/ground_spawning/patrol_waypoint.iff	16	8.08755	-22.99	282.546	1	0	0	0		ignoreInBuildoutArray|0|1|pointName|4|patrolmedicDroid_89670666_1|registerWithController|0|1|$|
-1828553369	-82159257	object/tangible/ground_spawning/patrol_waypoint.iff	16	-5.60687	-22.99	280.587	1	0	0	0		ignoreInBuildoutArray|0|1|pointName|4|patrolmedicDroid_89670666_2|registerWithController|0|1|$|
-509555461	-82159257	object/tangible/ground_spawning/patrol_waypoint.iff	16	-6.17396	-22.99	282.87	1	0	0	0		ignoreInBuildoutArray|0|1|pointName|4|patrolmedicDroid_89670666_3|registerWithController|0|1|$|
-1794549212	-82159257	object/tangible/ground_spawning/patrol_waypoint.iff	16	-12.021	-22.99	281.77	1	0	0	0		ignoreInBuildoutArray|0|1|pointName|4|patrolmedicDroid_89670666_4|registerWithController|0|1|$|
-1759762773	-82159257	object/tangible/ground_spawning/patrol_waypoint.iff	16	-9.63762	-22.99	272.724	1	0	0	0		ignoreInBuildoutArray|0|1|pointName|4|patrolmedicDroid_89670666_5|registerWithController|0|1|$|
-837137944	-82159257	object/tangible/ground_spawning/patrol_waypoint.iff	16	-5.81125	-22.99	274.284	1	0	0	0		ignoreInBuildoutArray|0|1|pointName|4|patrolmedicDroid_89670666_6|registerWithController|0|1|$|
-957629597	-82159257	object/tangible/ground_spawning/patrol_waypoint.iff	16	-3.75924	-22.99	266.876	1	0	0	0		ignoreInBuildoutArray|0|1|pointName|4|patrolmedicDroid_89670666_7|registerWithController|0|1|$|
-1465797607	-82159257	object/tangible/ground_spawning/patrol_waypoint.iff	16	-6.38304	-22.99	268.354	1	0	0	0		ignoreInBuildoutArray|0|1|pointName|4|patrolmedicDroid_89670666_8|registerWithController|0|1|$|
-1861738045	-82159257	object/tangible/ground_spawning/patrol_waypoint.iff	16	-7.8808	-22.99	261.645	1	0	0	0		ignoreInBuildoutArray|0|1|pointName|4|patrolmedicDroid_89670666_9|registerWithController|0|1|$|
-275513908	-82159257	object/tangible/ground_spawning/patrol_waypoint.iff	16	-12.0298	-22.99	260.882	1	0	0	0		ignoreInBuildoutArray|0|1|pointName|4|patrolmedicDroid_89670666_10|registerWithController|0|1|$|
-1693830718	-82159257	object/tangible/ground_spawning/patrol_waypoint.iff	16	-11.0247	-22.99	255.916	1	0	0	0		ignoreInBuildoutArray|0|1|pointName|4|patrolmedicDroid_89670666_11|registerWithController|0|1|$|
-462293632	-82159257	object/tangible/ground_spawning/patrol_waypoint.iff	16	-4.36738	-22.99	258.34	1	0	0	0		ignoreInBuildoutArray|0|1|pointName|4|patrolmedicDroid_89670666_12|registerWithController|0|1|$|
-2060941678	-82159257	object/tangible/ground_spawning/patrol_waypoint.iff	16	6.24279	-22.99	269.614	1	0	0	0		ignoreInBuildoutArray|0|1|pointName|4|patrolmedicDroid_89670666_13|registerWithController|0|1|$|
-600330337	-82159257	object/tangible/ground_spawning/patrol_waypoint.iff	16	5.11435	-22.99	275.324	1	0	0	0		ignoreInBuildoutArray|0|1|pointName|4|patrolmedicDroid_89670700_1|registerWithController|0|1|$|
-1704272569	-82159257	object/tangible/ground_spawning/patrol_waypoint.iff	16	9.78138	-22.99	270.551	1	0	0	0		ignoreInBuildoutArray|0|1|pointName|4|patrolmedicDroid_89670700_2|registerWithController|0|1|$|
-604788544	-82159257	object/tangible/ground_spawning/patrol_waypoint.iff	16	13.2939	-22.99	271.273	1	0	0	0		ignoreInBuildoutArray|0|1|pointName|4|patrolmedicDroid_89670700_3|registerWithController|0|1|$|
-1919926306	-82159257	object/tangible/ground_spawning/patrol_waypoint.iff	16	14.2428	-22.99	266.78	1	0	0	0		ignoreInBuildoutArray|0|1|pointName|4|patrolmedicDroid_89670700_4|registerWithController|0|1|$|
-1056910565	-82159257	object/tangible/ground_spawning/patrol_waypoint.iff	16	14.2118	-22.99	258.666	1	0	0	0		ignoreInBuildoutArray|0|1|pointName|4|patrolmedicDroid_89670700_5|registerWithController|0|1|$|
-1188122521	-82159257	object/tangible/ground_spawning/patrol_waypoint.iff	16	-5.50216	-22.99	258.989	1	0	0	0		ignoreInBuildoutArray|0|1|pointName|4|patrolmedicDroid_89670700_6|registerWithController|0|1|$|
-820308848	-82159257	object/tangible/ground_spawning/patrol_waypoint.iff	16	-4.07548	-22.99	261.874	1	0	0	0		ignoreInBuildoutArray|0|1|pointName|4|patrolmedicDroid_89670700_7|registerWithController|0|1|$|
-1478550550	-82159257	object/tangible/ground_spawning/patrol_waypoint.iff	16	-9.29033	-22.99	263.308	1	0	0	0		ignoreInBuildoutArray|0|1|pointName|4|patrolmedicDroid_89670700_8|registerWithController|0|1|$|
-1204971997	-82159257	object/tangible/ground_spawning/patrol_waypoint.iff	16	-9.01362	-22.99	267.096	1	0	0	0		ignoreInBuildoutArray|0|1|pointName|4|patrolmedicDroid_89670700_9|registerWithController|0|1|$|
-213061981	-82159257	object/tangible/ground_spawning/patrol_waypoint.iff	16	-12.1535	-22.99	268.006	1	0	0	0		ignoreInBuildoutArray|0|1|pointName|4|patrolmedicDroid_89670700_10|registerWithController|0|1|$|
-2042931015	-82159257	object/tangible/ground_spawning/patrol_waypoint.iff	16	-9.26495	-22.99	277.093	1	0	0	0		ignoreInBuildoutArray|0|1|pointName|4|patrolmedicDroid_89670700_11|registerWithController|0|1|$|
-165263770	-82159257	object/tangible/ground_spawning/patrol_waypoint.iff	16	15.1304	-22.99	256.975	1	0	0	0		ignoreInBuildoutArray|0|1|pointName|4|patrolmedicDroid_89670731_1|registerWithController|0|1|$|
-1414691612	-82159257	object/tangible/ground_spawning/patrol_waypoint.iff	16	-1.84574	-22.99	272.512	1	0	0	0		ignoreInBuildoutArray|0|1|pointName|4|patrolmedicDroid_89670731_2|registerWithController|0|1|$|
-1932508836	-82159257	object/tangible/ground_spawning/patrol_waypoint.iff	16	6.21295	-22.99	270.61	1	0	0	0		ignoreInBuildoutArray|0|1|pointName|4|patrolmedicDroid_89670731_3|registerWithController|0|1|$|
-1119718965	-82159257	object/tangible/ground_spawning/patrol_waypoint.iff	16	-5.40065	-22.99	279.391	1	0	0	0		ignoreInBuildoutArray|0|1|pointName|4|patrolmedicDroid_89670731_4|registerWithController|0|1|$|
-510226947	-82159257	object/tangible/ground_spawning/patrol_waypoint.iff	16	-7.44245	-22.99	272.301	1	0	0	0		ignoreInBuildoutArray|0|1|pointName|4|patrolmedicDroid_89670731_5|registerWithController|0|1|$|
-11228432	-82159257	object/tangible/ground_spawning/patrol_waypoint.iff	16	-12.4688	-22.99	270.148	1	0	0	0		ignoreInBuildoutArray|0|1|pointName|4|patrolmedicDroid_89670731_6|registerWithController|0|1|$|
-1719004330	-82159257	object/tangible/ground_spawning/patrol_waypoint.iff	16	-10.4688	-22.99	261.702	1	0	0	0		ignoreInBuildoutArray|0|1|pointName|4|patrolmedicDroid_89670731_7|registerWithController|0|1|$|
-653561766	-1593698500	object/tangible/ground_spawning/patrol_waypoint.iff	17	9.78854	-22.99	248.166	1	0	0	0		ignoreInBuildoutArray|0|1|pointName|4|astromechPatrol_89669293_1|registerWithController|0|1|$|
-1535311023	-1593698500	object/tangible/ground_spawning/patrol_waypoint.iff	17	-2.55412	-22.99	247.103	1	0	0	0		ignoreInBuildoutArray|0|1|pointName|4|astromechPatrol_89669293_2|registerWithController|0|1|$|
-587492018	-1593698500	object/tangible/ground_spawning/patrol_waypoint.iff	17	-2.33269	-22.99	247.575	1	0	0	0		ignoreInBuildoutArray|0|1|pointName|4|astromechPatrol_89669338_2|registerWithController|0|1|$|
-1474505393	-1593698500	object/tangible/ground_spawning/patrol_waypoint.iff	17	29.3729	-22.99	247.03	1	0	0	0		ignoreInBuildoutArray|0|1|pointName|4|astromechPatrol_89669338_3|registerWithController|0|1|$|
-384016109	-1593698500	object/tangible/ground_spawning/patrol_waypoint.iff	17	29.4169	-22.99	259.238	1	0	0	0		ignoreInBuildoutArray|0|1|pointName|4|astromechPatrol_89669338_4|registerWithController|0|1|$|
-478098928	-1593698500	object/tangible/ground_spawning/patrol_waypoint.iff	17	49.6083	-22.99	259.369	1	0	0	0		ignoreInBuildoutArray|0|1|pointName|4|astromechPatrol_89669338_5|registerWithController|0|1|$|
-1581585286	-1593698500	object/tangible/ground_spawning/patrol_waypoint.iff	17	29.3135	-22.99	259.35	1	0	0	0		ignoreInBuildoutArray|0|1|pointName|4|astromechPatrol_89669338_6|registerWithController|0|1|$|
-139520760	-1593698500	object/tangible/ground_spawning/patrol_waypoint.iff	17	30.0453	-22.99	247.423	1	0	0	0		ignoreInBuildoutArray|0|1|pointName|4|astromechPatrol_89669338_7|registerWithController|0|1|$|
-1605139067	-1593698500	object/tangible/ground_spawning/patrol_waypoint.iff	17	-2.48893	-22.99	247.395	1	0	0	0		ignoreInBuildoutArray|0|1|pointName|4|astromechPatrol_89669338_8|registerWithController|0|1|$|
-1002213446	-1593698500	object/tangible/ground_spawning/patrol_waypoint.iff	17	29.0547	-22.99	258.83	1	0	0	0		ignoreInBuildoutArray|0|1|pointName|4|patrolDroid_89670531_1|registerWithController|0|1|$|
-1072494309	-1593698500	object/tangible/ground_spawning/patrol_waypoint.iff	17	29.8761	-22.99	246.865	1	0	0	0		ignoreInBuildoutArray|0|1|pointName|4|patrolDroid_89670531_2|registerWithController|0|1|$|
-1017194381	-1593698500	object/tangible/ground_spawning/patrol_waypoint.iff	17	-2.75548	-22.99	247.061	1	0	0	0		ignoreInBuildoutArray|0|1|pointName|4|patrolDroid_89670531_3|registerWithController|0|1|$|
-2113934971	-1601803071	object/tangible/spawning/spawn_egg.iff	9	-26.9836	-22.99	123.173	1	0	0	0		disguise_exit|4|reb_prisoner_officer_exit|$|
-562468425	-1601803071	object/tangible/spawning/spawn_egg.iff	9	-2.0105	-22.99	186.399	1	0	0	0		disguise_exit|4|reb_prisoner_deserttrooper_exit|$|
-1913160511	-2034178253	object/tangible/spawning/spawn_egg.iff	10	37.4487	-20.99	127.669	1	0	0	0		disguise_exit|4|reb_prisoner_pilot_exit|$|
-1864215117	-1458422990	object/tangible/spawning/spawn_egg.iff	11	-66.4137	-20.99	127.385	1	0	0	0		disguise_exit|4|reb_prisoner_rebtrooper_exit|$|
-1377478618	-644670235	object/tangible/spawning/spawn_egg.iff	12	33.3172	-20.99	219.464	1	0	0	0		disguise_exit|4|reb_prisoner_jedi_exit|$|
-82299902	-1086875810	object/tangible/spawning/spawn_egg.iff	13	-62.0557	-20.99	219.233	1	0	0	0		disguise_exit|4|reb_prisoner_specforce_exit|$|
-1943430547	-1458422990	object/tangible/spawning/static_npc/emp_day_reb_detainment_imp_officer_01.iff	11	-66.2986	-20.99	150.656	0.982936	0	-0.183946	0	event.emp_day.rescue_faction_npc_trigger_volume	active_quest|4|recovery_quest_imperial_02|active_task|4|recoverImpOfficer01|signal_to_send|4|hasRecoveredImpOfficer01|spawn_creature|4|reb_prisoner_imp_officer_disguise_rebtrooper|$|
-1606273427	-2034178253	object/tangible/spawning/static_npc/emp_day_reb_detainment_imp_officer_02.iff	10	37.5977	-20.99	150.657	1	0	0	0	event.emp_day.rescue_faction_npc_trigger_volume	active_quest|4|recovery_quest_imperial_03|active_task|4|recoverImpOfficer02|signal_to_send|4|hasRecoveredImpOfficer02|spawn_creature|4|reb_prisoner_imp_officer_disguise_pilot|$|
-1106264706	-1601803071	object/tangible/spawning/static_npc/emp_day_reb_detainment_imp_officer_03.iff	9	-18.6297	-22.99	149.133	1	0	0	0	event.emp_day.rescue_faction_npc_trigger_volume	active_quest|4|recovery_quest_imperial_04|active_task|4|recoverImpOfficer03|signal_to_send|4|hasRecoveredImpOfficer03|spawn_creature|4|reb_prisoner_imp_officer_disguise_officer|$|
-1523046603	-1601803071	object/tangible/spawning/static_npc/emp_day_reb_detainment_imp_officer_04.iff	9	-10.3289	-22.99	161.738	1	0	0	0	event.emp_day.rescue_faction_npc_trigger_volume	active_quest|4|recovery_quest_imperial_05|active_task|4|recoverImpOfficer04|signal_to_send|4|hasRecoveredImpOfficer04|spawn_creature|4|reb_prisoner_imp_officer_disguise_deserttrooper|$|
-1247431545	-1086875810	object/tangible/spawning/static_npc/emp_day_reb_detainment_imp_officer_05.iff	13	-86.1136	-20.99	219.311	1	0	0	0	event.emp_day.rescue_faction_npc_trigger_volume	active_quest|4|recovery_quest_imperial_06|active_task|4|recoverImpOfficer05|signal_to_send|4|hasRecoveredImpOfficer05|spawn_creature|4|reb_prisoner_imp_officer_disguise_specforce|$|
-1330600704	-644670235	object/tangible/spawning/static_npc/emp_day_reb_detainment_imp_officer_06.iff	12	57.2113	-20.99	219.579	1	0	0	0	event.emp_day.rescue_faction_npc_trigger_volume	active_quest|4|recovery_quest_imperial_07|active_task|4|recoverImpOfficer06|signal_to_send|4|hasRecoveredImpOfficer06|spawn_creature|4|reb_prisoner_imp_officer_disguise_jedi|$|
-1497404608	0	object/tangible/ground_spawning/area_spawner.iff	0	1637.89	398	1891.25	0.663096	0	0.748535	0	systems.spawning.spawner_area	fltMaxSpawnTime|2|120.000000|fltMinSpawnTime|2|90.000000|fltRadius|2|0.000000|intDefaultBehavior|0|1|intGoodLocationSpawner|0|0|intSpawnCount|0|1|intSpawnSystem|0|1|registerWithController|0|1|strName|4|rebel_detainment_commando|strSpawnerType|4|area|strSpawns|4|rebel_detainment_commando|$|
-873997189	0	object/tangible/ground_spawning/area_spawner.iff	0	1638.53	398	1897.72	0.716974	0	0.697099	0	systems.spawning.spawner_area	fltMaxSpawnTime|2|120.000000|fltMinSpawnTime|2|90.000000|fltRadius|2|0.000000|intDefaultBehavior|0|1|intGoodLocationSpawner|0|0|intSpawnCount|0|1|intSpawnSystem|0|1|registerWithController|0|1|strName|4|rebel_detainment_commando|strSpawnerType|4|area|strSpawns|4|rebel_detainment_commando|$|
-672915758	0	object/building/military/military_rebel_tactical_center.iff	0	1716.44	398	1908.29	0.380925	0	0.924606	0	theme_park.dungeon.empire_day_interior_npc_spawner	portalProperty.crc|0|655023661|empire_day_spawn_table|4|datatables/spawning/building_spawns/empire_day_rebel_rebel_hideout.iff|$|
-108507695	-672915758	object/cell/cell.iff	1	0	0	0	1	0	0	0		$|
-1836148791	-672915758	object/cell/cell.iff	2	0	0	0	1	0	0	0		$|
-294014067	-672915758	object/cell/cell.iff	3	0	0	0	1	0	0	0		$|
-398648336	-672915758	object/cell/cell.iff	4	0	0	0	1	0	0	0		$|
-53376818	-672915758	object/cell/cell.iff	5	0	0	0	1	0	0	0		$|
-2081071353	-672915758	object/cell/cell.iff	6	0	0	0	1	0	0	0		$|
-1074446880	-672915758	object/cell/cell.iff	7	0	0	0	1	0	0	0		$|
-1603482521	-672915758	object/cell/cell.iff	8	0	0	0	1	0	0	0		$|
-120168188	-672915758	object/cell/cell.iff	9	0	0	0	1	0	0	0		$|
-1865189772	-672915758	object/cell/cell.iff	10	0	0	0	1	0	0	0		$|
