objid	container	server_template_crc	cell_index	px	py	pz	qw	qx	qy	qz	scripts	objvars
i	i	h	i	f	f	f	f	f	f	f	s	p
-115123512	0	object/tangible/planet_map_location/city.iff	0	-2521	27	-195	1	0	0	0	planet_map.map_loc	$|
-221512512	0	object/tangible/planet_map_location/city.iff	0	332	36	-10910	1	0	0	0	planet_map.map_loc	$|
-356125125	0	object/building/player/city/garden_tatooine_lrg_01.iff	0	-2520	27	90	0	0	0	0		$|
-421512512	0	object/building/player/city/garden_tatooine_lrg_01.iff	0	-2521	26	-422	0	0	0	0		$|
-512512512	0	object/building/player/city/garden_tatooine_lrg_01.iff	0	-3040	27	284	0	0	0	0		$|
-612512351	0	object/ship/star_destroyer.iff	0	-3905	965	4336	180	0	0	0		$|
-712421125	0	object/building/mustafar/structures/must_grounded_yt2400.iff	0	616	37	-10980	0	0	0	0		$|
