objid	container	server_template_crc	cell_index	px	py	pz	qw	qx	qy	qz	scripts	objvars
i	i	h	i	f	f	f	f	f	f	f	s	p
-2133633190	0	object/building/mustafar/particle/must_lightning.iff	0	1363.77	78.5477	1978.74	1	0	0	0		$|
-2122756672	0	object/static/structure/military/bunker_crate_style_01.iff	0	1357.5	78.5	1951.01	1	0	0	0		$|
-2120570314	0	object/static/structure/corellia/corl_power_bubble_node.iff	0	1259.13	78.5	1923.66	1	0	0	0		$|
-2111052314	0	object/tangible/ground_spawning/patrol_waypoint.iff	0	1175.18	78.5	1975.12	1	0	0	0		ignoreInBuildoutArray|0|1|pointName|4|fs_villager_generic_11802869_3|registerWithController|0|1|$|
-2100686529	0	object/static/structure/tatooine/debris_tatt_drum_storage_1.iff	0	1136.05	78.5	1939.99	0.900936	0	0.433953	0		$|
-2091142912	0	object/static/structure/tatooine/debris_tatt_drum_dented_1.iff	0	1139.14	78.5	1947.6	0.958761	0	-0.284212	0		$|
-2084619251	0	object/tangible/ground_spawning/patrol_waypoint.iff	0	1132.47	78.5	1978.67	1	0	0	0		ignoreInBuildoutArray|0|1|pointName|4|fs_villager_generic_13352510_4|registerWithController|0|1|$|
-2077996849	0	object/building/content/aurilia/aurilia_ship.iff	0	1347.38	78.5141	1966.21	1	0	0	0		$|
-2048500756	0	object/static/structure/corellia/corl_imprv_wall_4x16_s04.iff	0	1284.79	78.5	2004.5	0.707127	0	0.707086	0		$|
-2046770443	0	object/static/structure/military/bunker_crate_style_01.iff	0	1135.52	78.5	1935.46	1	0	0	0		$|
-2039717687	0	object/static/structure/military/bunker_crate_style_01.iff	0	1309.99	78.93	1956	1	0	0	0		$|
-2016378958	0	object/building/mustafar/structures/must_smuggler_bunker.iff	0	1317.19	78.5	1956.63	1	0	0	0		$|
-2012334340	0	object/static/installation/mockup_mining_liquid_moisture_harvester.iff	0	1389.9	79.1188	2004.38	1	0	0	0		$|
-1997547139	0	object/tangible/ground_spawning/patrol_waypoint.iff	0	1255.84	88.3076	1925.09	1	0	0	0		ignoreInBuildoutArray|0|1|pointName|4|fs_villager_militia_13352030_4|registerWithController|0|1|$|
-1993115448	0	object/static/structure/tatooine/palette_supply_02.iff	0	1308.4	79.9982	1981.84	0.707108	0	0.707106	0		$|
-1983021885	0	object/building/content/aurilia/aurilia_adventure_guildhall.iff	0	1107.78	78.5	1978.86	0.707141	0	0.707072	0		portalProperty.crc|0|-1064564048|$|
-167793263	-1983021885	object/cell/cell.iff	1	0	0	0	1	0	0	0		$|
-550130148	-167793263	object/tangible/ground_spawning/patrol_waypoint.iff	1	-0.0917776	2.15798	16.0841	1	0	0	0		ignoreInBuildoutArray|0|1|pointName|4|fs_villager_generic_13352510_6|registerWithController|0|1|$|
-1995817042	-1983021885	object/cell/cell.iff	2	0	0	0	1	0	0	0		$|
-1499188321	-1983021885	object/cell/cell.iff	3	0	0	0	1	0	0	0		$|
-1833379547	-1983021885	object/cell/cell.iff	4	0	0	0	1	0	0	0		$|
-1419875954	-1983021885	object/cell/cell.iff	5	0	0	0	1	0	0	0		$|
-365637284	-1983021885	object/cell/cell.iff	6	0	0	0	1	0	0	0		$|
-1614331829	-1983021885	object/cell/cell.iff	7	0	0	0	1	0	0	0		$|
-413590331	-1614331829	object/tangible/quest/township/axkva_nightsister_headdress.iff	7	22.0832	1.73768	11.525	0.707109	0	-0.707104	0	quest.task.ground.util.quest_giver_object	$|
-1982433960	-1983021885	object/cell/cell.iff	8	0	0	0	1	0	0	0		$|
-1869097941	-1982433960	object/tangible/ground_spawning/area_spawner.iff	8	-20.9477	2.25	11.5185	0.806383	0	0.591394	0	systems.spawning.spawner_area	fltMaxSpawnTime|2|9.000000|fltMinSpawnTime|2|3.000000|fltRadius|2|0.000000|intDefaultBehavior|0|1|intGoodLocationSpawner|0|0|intSpawnCount|0|1|intSpawnSystem|0|1|registerWithController|0|1|strName|4|nexus_ig88_starter|strSpawnerType|4|area|strSpawns|4|nexus_ig88_starter|$|
-1777594200	-1983021885	object/cell/cell.iff	9	0	0	0	1	0	0	0		$|
-1108839355	-1983021885	object/cell/cell.iff	10	0	0	0	1	0	0	0		$|
-1429465487	-1108839355	object/tangible/quest/township/rohak_figurine_spawner_06.iff	10	9.38665	1.75	-2.12277	0.204347	0	0.978899	0	theme_park.dathomir.aurilia.rohak_figurine_spawner	figurineToSpawn|4|rohak_figurine_06|$|
-1346518568	-1108839355	object/tangible/ground_spawning/area_spawner.iff	10	-10.2789	1.75	-5.95999	0.743104	0	0.669176	0	systems.spawning.spawner_area	fltMaxSpawnTime|2|9.000000|fltMinSpawnTime|2|3.000000|fltRadius|2|0.000000|intDefaultBehavior|0|1|intGoodLocationSpawner|0|0|intSpawnCount|0|1|intSpawnSystem|0|1|registerWithController|0|1|strName|4|heroic_echo_launch_rebel|strSpawnerType|4|area|strSpawns|4|heroic_echo_launch_rebel|$|
-1154878988	-1108839355	object/tangible/ground_spawning/area_spawner.iff	10	11.2484	1.75	-6.75395	-0.664601	0	0.747199	0	systems.spawning.spawner_area	fltMaxSpawnTime|2|9.000000|fltMinSpawnTime|2|3.000000|fltRadius|2|0.000000|intDefaultBehavior|0|1|intGoodLocationSpawner|0|0|intSpawnCount|0|1|intSpawnSystem|0|1|registerWithController|0|1|strName|4|heroic_echo_launch_imperial|strSpawnerType|4|area|strSpawns|4|heroic_echo_launch_imperial|$|
-965750310	-1108839355	object/tangible/ground_spawning/area_spawner.iff	10	-12	1.75	-11.8319	0.764645	0	0.644451	0	systems.spawning.spawner_area	fltMaxSpawnTime|2|9.000000|fltMinSpawnTime|2|3.000000|fltRadius|2|0.000000|intDefaultBehavior|0|1|intGoodLocationSpawner|0|0|intSpawnCount|0|1|intSpawnSystem|0|1|registerWithController|0|1|strName|4|rebel_recruiter|strSpawnerType|4|area|strSpawns|4|rebel_recruiter|$|
-443958101	-1108839355	object/tangible/ground_spawning/area_spawner.iff	10	11.4296	1.75	-10.8487	-0.620556	0	0.784162	0	systems.spawning.spawner_area	fltMaxSpawnTime|2|9.000000|fltMinSpawnTime|2|3.000000|fltRadius|2|0.000000|intDefaultBehavior|0|1|intGoodLocationSpawner|0|0|intSpawnCount|0|1|intSpawnSystem|0|1|registerWithController|0|1|strName|4|imperial_recruiter|strSpawnerType|4|area|strSpawns|4|imperial_recruiter|$|
-217002675	-1108839355	object/tangible/furniture/city/statue_the_freeman.iff	10	0.0589147	1.697	-15.4375	1	0	0	0		$|
-863530504	-1983021885	object/cell/cell.iff	11	0	0	0	1	0	0	0		$|
-1932092707	-863530504	object/static/worldbuilding/art/star_destroyer_hologram.iff	11	6.21871	2.19959	-17.7815	1	0	0	0		$|
-1803552852	-863530504	object/tangible/ground_spawning/area_spawner.iff	11	-2.74469	1.75	-16.7214	0.0867283	0	0.996232	0	systems.spawning.spawner_area	fltMaxSpawnTime|2|9.000000|fltMinSpawnTime|2|3.000000|fltRadius|2|0.000000|intDefaultBehavior|0|1|intGoodLocationSpawner|0|0|intSpawnCount|0|1|intSpawnSystem|0|1|registerWithController|0|1|strName|4|heroic_sd_intro_neutral|strSpawnerType|4|area|strSpawns|4|heroic_sd_intro_neutral|$|
-1329413764	-863530504	object/tangible/ground_spawning/area_spawner.iff	11	-8.85688	1.75	-20.8595	0.999944	0	-0.0105807	0	systems.spawning.spawner_area	fltMaxSpawnTime|2|9.000000|fltMinSpawnTime|2|3.000000|fltRadius|2|0.000000|intDefaultBehavior|0|1|intGoodLocationSpawner|0|0|intSpawnCount|0|1|intSpawnSystem|0|1|registerWithController|0|1|strName|4|exar_kun_intro_giver|strSpawnerType|4|area|strSpawns|4|exar_kun_intro_giver|$|
-267062639	-863530504	object/tangible/ground_spawning/area_spawner.iff	11	8.59132	1.75	-22.0841	0.994154	0	-0.107974	0	systems.spawning.spawner_area	fltMaxSpawnTime|2|9.000000|fltMinSpawnTime|2|3.000000|fltRadius|2|0.000000|intDefaultBehavior|0|1|intGoodLocationSpawner|0|0|intSpawnCount|0|1|intSpawnSystem|0|1|registerWithController|0|1|strName|4|nexus_tusken_starter|strSpawnerType|4|area|strSpawns|4|nexus_tusken_starter|$|
-174908503	-863530504	object/tangible/ground_spawning/area_spawner.iff	11	3.01014	1.75	-17.2537	0.144676	0	0.989479	0	systems.spawning.spawner_area	fltMaxSpawnTime|2|9.000000|fltMinSpawnTime|2|3.000000|fltRadius|2|0.000000|intDefaultBehavior|0|1|intGoodLocationSpawner|0|0|intSpawnCount|0|1|intSpawnSystem|0|1|registerWithController|0|1|strName|4|heroic_sd_intro_imperial|strSpawnerType|4|area|strSpawns|4|heroic_sd_intro_imperial|$|
-1258494752	-1983021885	object/cell/cell.iff	12	0	0	0	1	0	0	0		$|
-1842087537	-1983021885	object/cell/cell.iff	13	0	0	0	1	0	0	0		$|
-93329136	-1983021885	object/cell/cell.iff	14	0	0	0	1	0	0	0		$|
-1594867034	-1983021885	object/cell/cell.iff	15	0	0	0	1	0	0	0		$|
-1822440218	-1983021885	object/cell/cell.iff	16	0	0	0	1	0	0	0		$|
-1851161316	-1983021885	object/cell/cell.iff	17	0	0	0	1	0	0	0		$|
-1976659469	0	object/tangible/ground_spawning/area_spawner.iff	0	1284.88	78.5	2014.81	0.995748	0	-0.0921212	0	systems.spawning.spawner_area	fltMaxSpawnTime|2|119.000000|fltMinSpawnTime|2|99.000000|fltRadius|2|0.000000|intDefaultBehavior|0|1|intGoodLocationSpawner|0|0|intSpawnCount|0|1|intSpawnSystem|0|1|registerWithController|0|1|strName|4|fs_villager_militia|strSpawnerType|4|area|strSpawns|4|fs_villager_militia|$|
-1974231774	0	object/building/mustafar/items/must_energy_coil.iff	0	1266.77	78.5	1999.6	0.707127	0	0.707086	0		$|
-1968514006	0	object/building/content/aurilia/aurilia_launch_terminals_sign.iff	0	1340.48	78.5	1958.76	1	0	0	0		$|
-1968413511	0	object/tangible/ground_spawning/patrol_waypoint.iff	0	1140.46	78.5	1982.31	1	0	0	0		ignoreInBuildoutArray|0|1|pointName|4|fs_villager_generic_13352510_3|registerWithController|0|1|$|
-1962091426	0	object/building/content/aurilia/aurilia_shere.iff	0	1217	83.91	1967	1	0	0	0		$|
-1949144041	0	object/static/structure/general/allum_mine_device_s01.iff	0	1366.61	79.0029	1982.03	0.707108	0	0.707106	0		$|
-1947618156	0	object/tangible/ground_spawning/patrol_spawner.iff	0	1315	78.5	1963.17	1	0	0	0	systems.spawning.spawner_patrol	fltMaxSpawnTime|2|9.000000|fltMinSpawnTime|2|3.000000|fltRadius|2|0.000000|intDefaultBehavior|0|3|intGoodLocationSpawner|0|0|intSpawnCount|0|1|intSpawnSystem|0|1|patrolPathType|4|oscillate|registerWithController|0|1|strName|4|cll8_binary_load_lifter|strPatrolPointNames|5|cll8_binary_load_lifter_13352008_1:cll8_binary_load_lifter_13352008_2:cll8_binary_load_lifter_13352008_3:cll8_binary_load_lifter_13352008_4:cll8_binary_load_lifter_13352008_5:cll8_binary_load_lifter_13352008_6:|strSpawnerType|4|patrol|strSpawns|4|cll8_binary_load_lifter|$|
-1945240201	0	object/tangible/ground_spawning/patrol_waypoint.iff	0	1145.69	78.5	2010.79	1	0	0	0		ignoreInBuildoutArray|0|1|pointName|4|fs_villager_generic_13352510_2|registerWithController|0|1|$|
-1939771877	0	object/tangible/ground_spawning/area_spawner.iff	0	1145.83	98.4005	1932.74	-0.395964	0	0.918266	0	systems.spawning.spawner_area	fltMaxSpawnTime|2|119.000000|fltMinSpawnTime|2|99.000000|fltRadius|2|0.000000|intDefaultBehavior|0|1|intGoodLocationSpawner|0|0|intSpawnCount|0|1|intSpawnSystem|0|1|registerWithController|0|1|strName|4|fs_villager_militia|strSpawnerType|4|area|strSpawns|4|fs_villager_militia|$|
-1914828004	0	object/static/structure/tatooine/debris_tatt_drum_dented_1.iff	0	1137.81	78.5	1946.28	-0.530503	0	0.847683	0		$|
-1897921931	0	object/building/mustafar/structures/must_miner_tower.iff	0	1354	78.5068	2024	1	0	0	0		$|
-1893572568	0	object/static/structure/general/prp_junk_s8.iff	0	1366.34	79.51	1964.41	0.707108	0	0	0.707106		$|
-1890660968	0	object/static/structure/tatooine/debris_tatt_drum_dented_1.iff	0	1136.74	78.5	1938.8	0.988191	0	0.15323	0		$|
-1887054315	0	object/tangible/ground_spawning/patrol_waypoint.iff	0	1267.04	98.4005	1932.23	1	0	0	0		ignoreInBuildoutArray|0|1|pointName|4|fs_villager_militia_13352030_1|registerWithController|0|1|$|
-1884863932	0	object/building/content/aurilia/aurilia_obelisk.iff	0	1199.49	78.5	1984	0.707108	0	0.707106	0		$|
-1871091828	0	object/tangible/ground_spawning/patrol_waypoint.iff	0	1376.94	78.7063	1996.71	1	0	0	0		ignoreInBuildoutArray|0|1|pointName|4|fs_villager_militia_13352161_6|registerWithController|0|1|$|
-1866602398	0	object/tangible/ground_spawning/patrol_waypoint.iff	0	1146.7	78.5	2030.34	1	0	0	0		ignoreInBuildoutArray|0|1|pointName|4|fs_villager_generic_13352510_1|registerWithController|0|1|$|
-1860912891	0	object/tangible/ground_spawning/patrol_waypoint.iff	0	1354.57	78.4996	2000.22	1	0	0	0		ignoreInBuildoutArray|0|1|pointName|4|cll8_binary_load_lifter_13351956_2|registerWithController|0|1|$|
-1854735859	0	object/tangible/ground_spawning/patrol_spawner.iff	0	1271.74	78.5	2036.86	1	0	0	0	systems.spawning.spawner_patrol	fltMaxSpawnTime|2|9.000000|fltMinSpawnTime|2|3.000000|fltRadius|2|0.000000|intDefaultBehavior|0|3|intGoodLocationSpawner|0|0|intSpawnCount|0|1|intSpawnSystem|0|1|patrolPathType|4|oscillate|registerWithController|0|1|strName|4|new_fs_villager_generic|strPatrolPointNames|5|new_fs_villager_generic_11802893_1:new_fs_villager_generic_11802893_2:new_fs_villager_generic_11802893_3:new_fs_villager_generic_11802893_4:new_fs_villager_generic_11802893_5:|strSpawnerType|4|patrol|strSpawns|4|fs_villager_generic|$|
-1840807773	0	object/static/structure/general/prp_engine.iff	0	1367.13	79.0029	1965.6	0.955337	0	0.29552	0		$|
-1829263919	0	object/static/structure/corellia/corl_imprv_column_s04.iff	0	1284.8	78.5	1995.66	0.707127	0	0.707086	0		$|
-1809840660	0	object/building/content/aurilia/aurilia_shere.iff	0	1240	83.91	2010	1	0	0	0		$|
-1807817566	0	object/building/content/aurilia/aurilia_bannerpole.iff	0	1160.54	78.5	2025.79	1	0	0	0		$|
-1806805323	0	object/tangible/ground_spawning/area_spawner.iff	0	1146.03	78.5	1961.28	0.988181	0	-0.15329	0	systems.spawning.spawner_area	fltMaxSpawnTime|2|9.000000|fltMinSpawnTime|2|3.000000|fltRadius|2|3.000000|intDefaultBehavior|0|2|intGoodLocationSpawner|0|0|intSpawnCount|0|2|intSpawnSystem|0|1|registerWithController|0|1|strName|4|fs_villager_generic|strSpawnerType|4|area|strSpawns|4|fs_villager_generic|$|
-1796660902	0	object/tangible/ground_spawning/patrol_spawner.iff	0	1166.29	78.5	2034.77	1	0	0	0	systems.spawning.spawner_patrol	fltMaxSpawnTime|2|9.000000|fltMinSpawnTime|2|3.000000|fltRadius|2|0.000000|intDefaultBehavior|0|3|intGoodLocationSpawner|0|0|intSpawnCount|0|1|intSpawnSystem|0|1|patrolPathType|4|oscillate|registerWithController|0|1|strName|4|new_fs_villager_generic|strPatrolPointNames|5|new_fs_villager_generic_11802869_1:new_fs_villager_generic_11802869_2:new_fs_villager_generic_11802869_3:new_fs_villager_generic_11802869_4:new_fs_villager_generic_11802869_5:new_fs_villager_generic_11802869_6:new_fs_villager_generic_11802869_7:|strSpawnerType|4|patrol|strSpawns|4|fs_villager_generic|$|
-1793420225	0	object/tangible/ground_spawning/patrol_waypoint.iff	0	1390.02	88.3076	1998.61	1	0	0	0		ignoreInBuildoutArray|0|1|pointName|4|fs_villager_militia_13352161_4|registerWithController|0|1|$|
-1791130364	0	object/building/content/aurilia/aurilia_obelisk.iff	0	1199.49	78.5	2008	0.707108	0	0.707106	0		$|
-1781343384	0	object/static/structure/general/banner_rebel_style_01.iff	0	1109.14	78.5	1994.22	1	0	0	0		$|
-1764059984	0	object/tangible/ground_spawning/patrol_waypoint.iff	0	1349.82	78.5027	1963.5	1	0	0	0		ignoreInBuildoutArray|0|1|pointName|4|cll8_binary_load_lifter_13351956_4|registerWithController|0|1|$|
-1761273343	0	object/building/content/aurilia/aurilia_pyramid_hut.iff	0	1342.63	78.5	1952.04	1	0	0	0		portalProperty.crc|0|-1244451387|travel.point_name|4|The Township of Aurilia|$|
-1717103763	-1761273343	object/cell/cell.iff	1	0	0	0	1	0	0	0		$|
-2089381536	-1717103763	object/tangible/terminal/terminal_space.iff	1	1.44213	1.20562	-3.5926	1	0	0	0	space.terminal.terminal_space	$|
-1749801329	-1717103763	object/building/mustafar/structures/must_miner_tower.iff	1	4.34	-3.51	-0.54	0.707108	0	-0.707106	0		$|
-18532871	-1717103763	object/building/mustafar/structures/must_miner_tower.iff	1	-4.34	-3.51	-0.54	-0.707107	0	0.707107	0		$|
-6751904	-1717103763	object/tangible/terminal/terminal_space.iff	1	-1.24435	1.20562	-3.51137	1	0	0	0	space.terminal.terminal_space	$|
-1761020861	0	object/static/item/item_tool_instrument_calibrator.iff	0	1255.82	78.5	1923.02	-0.655918	0	0.754832	0		$|
-1756385125	0	object/building/mustafar/structures/must_bandit_fence_8m.iff	0	1211.37	78.5	1936.7	-0.382682	0	0.92388	0		$|
-1744868577	0	object/static/structure/corellia/corl_imprv_column_s04.iff	0	1284.78	78.5	2013.33	0.707127	0	0.707086	0		$|
-1730091563	0	object/tangible/ground_spawning/patrol_spawner.iff	0	1162.94	78.5	2033.67	1	0	0	0	systems.spawning.spawner_patrol	fltMaxSpawnTime|2|9.000000|fltMinSpawnTime|2|3.000000|fltRadius|2|3.000000|intDefaultBehavior|0|2|intGoodLocationSpawner|0|0|intSpawnCount|0|1|intSpawnSystem|0|1|patrolPathType|4|oscillate|registerWithController|0|1|strName|4|fs_villager_generic|strPatrolPointNames|5|fs_villager_generic_13352510_1:fs_villager_generic_13352510_2:fs_villager_generic_13352510_3:fs_villager_generic_13352510_4:fs_villager_generic_13352510_5:fs_villager_generic_13352510_6:|strSpawnerType|4|patrol|strSpawns|4|fs_villager_generic|$|
-1716573764	0	object/static/structure/tatooine/debris_tatt_drum_dented_1.iff	0	1139.25	78.5	1945.94	0.820979	0	-0.570959	0		$|
-1713968677	0	object/static/structure/general/prp_engine_component.iff	0	1362.11	79.0703	1963.7	0.949235	0	-0.314567	0		$|
-1705177496	0	object/tangible/ground_spawning/area_spawner.iff	0	1150.8	98.4005	1931.33	0.0764843	0	0.997071	0	systems.spawning.spawner_area	fltMaxSpawnTime|2|119.000000|fltMinSpawnTime|2|99.000000|fltRadius|2|0.000000|intDefaultBehavior|0|1|intGoodLocationSpawner|0|0|intSpawnCount|0|1|intSpawnSystem|0|1|registerWithController|0|1|strName|4|fs_villager_militia|strSpawnerType|4|area|strSpawns|4|fs_villager_militia|$|
-1682380209	0	object/tangible/ground_spawning/patrol_waypoint.iff	0	1389.97	93.9784	2008.01	1	0	0	0		ignoreInBuildoutArray|0|1|pointName|4|fs_villager_militia_13352161_3|registerWithController|0|1|$|
-1672583512	0	object/tangible/spawning/kashyyyk/rodian_shuttle_spawner.iff	0	1327.04	83.1568	2018.29	1	0	0	0	theme_park.kashyyyk.rodian_shuttle_spawner	myCreations|7|11202366:|$|
-1669937258	0	object/tangible/ground_spawning/patrol_waypoint.iff	0	1175.01	78.5	2010.22	1	0	0	0		ignoreInBuildoutArray|0|1|pointName|4|new_fs_villager_generic_11802869_2|registerWithController|0|1|$|
-1666129158	0	object/building/content/aurilia/aurilia_pyramid_hut.iff	0	1160.67	78.5	2005.38	0.707107	0	0.707107	0		portalProperty.crc|0|-1244451387|$|
-685847417	-1666129158	object/cell/cell.iff	1	0	0	0	1	0	0	0		$|
-1663940516	0	object/building/corellia/filler_historic_32x16_s01.iff	0	1233.82	78.5	1923.7	0.707128	0	0.707085	0	structure.filler.filler	$|
-1659982605	0	object/static/structure/corellia/corl_imprv_column_s02.iff	0	1182	78.5	2010	1	0	0	0		$|
-1650247530	0	object/tangible/ground_spawning/patrol_waypoint.iff	0	1194.53	78.5	1959.93	1	0	0	0		ignoreInBuildoutArray|0|1|pointName|4|new_fs_villager_generic_11802869_5|registerWithController|0|1|$|
-1643823783	0	object/building/content/aurilia/aurilia_junk_dealer_sign.iff	0	1167.23	78.5	2019.09	-0.707107	0	0.707107	0		$|
-1640789076	0	object/building/mustafar/structures/must_miner_tower.iff	0	1350	78.5031	2028	1	0	0	0		$|
-1623914794	0	object/static/worldbuilding/terminal/floor_console_tableglobe_02.iff	0	1106.48	78.5	1995.54	1	0	0	0		$|
-1621783058	0	object/tangible/ground_spawning/patrol_waypoint.iff	0	1382.19	98.4005	2007.9	1	0	0	0		ignoreInBuildoutArray|0|1|pointName|4|fs_villager_militia_13352161_2|registerWithController|0|1|$|
-1620552079	0	object/static/structure/tatooine/debris_tatt_drum_dented_1.iff	0	1134.51	78.5	1939.42	0.311167	0	0.950355	0		$|
-1612225608	0	object/static/structure/military/bunker_crate_style_01.iff	0	1141.87	78.5	1947.25	1	0	0	0		$|
-1611714625	0	object/static/structure/military/bunker_crate_style_01.iff	0	1384.12	78.854	1996.02	0.807793	0	-0.589466	0		$|
-1606783269	0	object/building/mustafar/structures/must_miner_tower.iff	0	1358	78.5372	2028	1	0	0	0		$|
-1602225321	0	object/tangible/ground_spawning/patrol_waypoint.iff	0	1344.94	78.5	1988.93	1	0	0	0		ignoreInBuildoutArray|0|1|pointName|4|fs_villager_militia_13352161_8|registerWithController|0|1|$|
-1596248190	0	object/building/mustafar/items/must_energy_coil.iff	0	1114.01	78.5	1996	0.382683	0	0.92388	0		$|
-1595571531	0	object/static/structure/tatooine/debris_tatt_drum_dented_1.iff	0	1134.7	78.5	1941.19	-0.00940361	0	0.999956	0		$|
-1578339721	0	object/building/content/aurilia/aurilia_shere.iff	0	1240	83.91	1990	1	0	0	0		$|
-1561768010	0	object/static/item/item_con_barrel_lg_s1.iff	0	1367.54	79.0029	1974.64	0.707127	0	-0.707086	0		$|
-1554728975	0	object/building/content/aurilia/aurilia_adventure_guild_sign.iff	0	1130.47	78.5	1983.45	1	0	0	0		$|
-1548915213	0	object/building/content/aurilia/aurilia_pyramid_hut.iff	0	1160.63	78.5	1993.32	0.707107	0	0.707107	0		portalProperty.crc|0|-1244451387|$|
-158093591	-1548915213	object/cell/cell.iff	1	0	0	0	1	0	0	0		$|
-1972470849	-158093591	object/tangible/furniture/elegant/couch_s01.iff	1	3.33827	1.20562	0.724658	0.707127	0	-0.707086	0		$|
-1648589297	-158093591	object/tangible/furniture/elegant/chest_s01.iff	1	3.18907	1.20562	2.98723	1	0	0	0	name.name	$|
-1479174531	-158093591	object/building/kashyyyk/eqp_static_wookiee_tome_s01.iff	1	1.25625	2.07562	-1.60939	0.877582	0	-0.479427	0		$|
-1473664285	-158093591	object/tangible/furniture/all/frn_all_light_lamp_free_s01.iff	1	-4.19437	1.20562	-0.502663	0.707127	0	-0.707086	0	item.candle.candle_decay	$|
-1344511614	-158093591	object/tangible/ground_spawning/area_spawner.iff	1	-1.24463	1.20562	-1.48731	0.999418	0	0.0341158	0	systems.spawning.spawner_area	fltMaxSpawnTime|2|9.000000|fltMinSpawnTime|2|3.000000|fltRadius|2|0.000000|intDefaultBehavior|0|1|intGoodLocationSpawner|0|0|intSpawnCount|0|1|intSpawnSystem|0|1|registerWithController|0|1|strName|4|fs_villager_sad1|strSpawnerType|4|area|strSpawns|4|fs_villager_sad1|$|
-1195416084	-158093591	object/tangible/furniture/elegant/armoire_elegant_s01.iff	1	-4.12917	1.20562	1.48811	0.707127	0	0.707086	0	name.name	$|
-1178553601	-158093591	object/tangible/furniture/elegant/love_seat_s01.iff	1	1.26258	1.20562	-3.79121	0.999888	0	0.0149987	0		$|
-986620809	-158093591	object/tangible/furniture/elegant/armoire_elegant_s01.iff	1	-4.01924	1.20562	-2.47422	0.707127	0	0.707086	0	name.name	$|
-692147070	-158093591	object/tangible/furniture/elegant/love_seat_s01.iff	1	3.32411	1.20562	-1.85325	0.717664	0	-0.696389	0		$|
-665170996	-158093591	object/tangible/furniture/elegant/bookcase_s01.iff	1	-2.18359	1.20562	-4.49541	1	0	0	0	name.name	$|
-600979110	-158093591	object/tangible/furniture/modern/table_modern_style_01.iff	1	1.32469	1.20562	-1.79246	0.999888	0	0.0149987	0		$|
-61512519	-158093591	object/building/kashyyyk/eqp_static_wookiee_scroll_s01.iff	1	1.36892	2.07562	-2.06265	0.816774	0	0.576958	0		$|
-1545119666	0	object/tangible/ground_spawning/patrol_waypoint.iff	0	1245.82	78.5	1969.92	1	0	0	0		ignoreInBuildoutArray|0|1|pointName|4|new_fs_villager_generic_11802893_3|registerWithController|0|1|$|
-1542131228	0	object/tangible/ground_spawning/patrol_waypoint.iff	0	1376.3	98.4005	2006.97	1	0	0	0		ignoreInBuildoutArray|0|1|pointName|4|fs_villager_militia_13352161_1|registerWithController|0|1|$|
-1538663710	0	object/tangible/ground_spawning/patrol_waypoint.iff	0	1283.74	78.5	1964.52	1	0	0	0		ignoreInBuildoutArray|0|1|pointName|4|cll8_binary_load_lifter_13352008_2|registerWithController|0|1|$|
-1530498924	0	object/building/mustafar/structures/must_bandit_fence_post.iff	0	1197.18	78.5	1915.92	1.52E-06	0	1	0		$|
-1511156217	0	object/tangible/ground_spawning/area_spawner.iff	0	1267.56	78.5	2038.15	0.175669	0	0.984449	0	systems.spawning.spawner_area	fltMaxSpawnTime|2|9.000000|fltMinSpawnTime|2|3.000000|fltRadius|2|5.000000|intDefaultBehavior|0|2|intGoodLocationSpawner|0|0|intSpawnCount|0|3|intSpawnSystem|0|1|registerWithController|0|1|strName|4|fs_villager_generic|strSpawnerType|4|area|strSpawns|4|fs_villager_generic|$|
-1500091605	0	object/building/content/aurilia/aurilia_obelisk.iff	0	1216.49	78.5	1984	0.707108	0	0.707106	0		$|
-1497482042	0	object/building/mustafar/structures/must_bandit_fence_16m.iff	0	1205.56	78.5	1915.96	1.52E-06	0	1	0		$|
-1488357856	0	object/building/mustafar/structures/must_miner_tower.iff	0	1346	78.5031	2028	1	0	0	0		$|
-1484725571	0	object/static/worldbuilding/art/star_destroyer_hologram.iff	0	1106.54	79.4653	1995.49	1	0	0	0		$|
-1478541510	0	object/building/content/aurilia/aurilia_pyramid_hut.iff	0	1259.05	78.5	1993.72	-0.707107	0	0.707107	0		portalProperty.crc|0|-1244451387|$|
-1996080469	-1478541510	object/cell/cell.iff	1	0	0	0	1	0	0	0		$|
-1445391276	0	object/static/structure/military/bunker_crate_style_01.iff	0	1352.47	78.5	1958.32	0.707113	0	0.7071	0		$|
-1440802249	0	object/building/content/aurilia/aurilia_pyramid_hut.iff	0	1259.15	78.5	2017.81	-0.707107	0	0.707107	0		portalProperty.crc|0|-1244451387|$|
-2066923476	-1440802249	object/cell/cell.iff	1	0	0	0	1	0	0	0		$|
-1438331907	0	object/building/content/aurilia/aurilia_crate.iff	0	1331.31	79.4235	1956.92	0.99639	0	0.0848976	0		$|
-1431971165	0	object/static/structure/tatooine/palette_supply_02.iff	0	1312.64	78.8716	1956.76	1	0	0	0		$|
-1412284234	0	object/tangible/furniture/all/frn_all_toolchest_lg_s01.iff	0	1363.2	79.0029	1988.01	0.140332	0	0.990105	0	name.name	$|
-1376811421	0	object/tangible/terminal/terminal_bank.iff	0	1286	78.5	2000.45	0.707108	0	0.707106	0	terminal.bank:planet_map.map_loc	banking_bankid|4|dathomir|$|
-1360718302	0	object/static/structure/general/prp_junk_s6.iff	0	1364.87	81.1045	1961.58	0	0.184729	0	0.982789		$|
-1356973716	0	object/building/content/aurilia/aurilia_flagpole.iff	0	1376.12	107.97	2008.18	1	0	0	0		$|
-1352489650	0	object/tangible/ground_spawning/patrol_waypoint.iff	0	1205.42	78.5	1936.24	1	0	0	0		ignoreInBuildoutArray|0|1|pointName|4|cll8_binary_load_lifter_13352008_6|registerWithController|0|1|$|
-1345134117	0	object/tangible/ground_spawning/patrol_waypoint.iff	0	1310.64	78.5	1967.91	1	0	0	0		ignoreInBuildoutArray|0|1|pointName|4|cll8_binary_load_lifter_13352008_1|registerWithController|0|1|$|
-1328823325	0	object/building/mustafar/structures/must_miner_tower.iff	0	1358	78.5341	2024	1	0	0	0		$|
-1318912986	0	object/tangible/furniture/all/frn_all_toolchest_med_s01.iff	0	1364.74	79.0029	1988.13	-0.0741355	0	0.997248	0	name.name	$|
-1316184372	0	object/static/vehicle/static_swoop_bike.iff	0	1333.13	78.5	2039.99	1	0	0	0		$|
-1315101315	0	object/building/corellia/filler_historic_32x16_s02.iff	0	1291.81	78.5	2034.71	2.93E-06	0	1	0	structure.filler.filler	$|
-1311900369	0	object/static/structure/military/bunker_crate_style_01.iff	0	1352.47	78.5385	1948.32	2.19E-05	0	1	0		$|
-1311432008	0	object/tangible/ground_spawning/patrol_spawner.iff	0	1243.57	78.5	2032.86	1	0	0	0	systems.spawning.spawner_patrol	fltMaxSpawnTime|2|9.000000|fltMinSpawnTime|2|3.000000|fltRadius|2|0.000000|intDefaultBehavior|0|3|intGoodLocationSpawner|0|0|intSpawnCount|0|1|intSpawnSystem|0|1|patrolPathType|4|oscillate|registerWithController|0|1|strName|4|new_fs_villager_generic|strPatrolPointNames|5|new_fs_villager_generic_11802847_1:new_fs_villager_generic_11802847_2:new_fs_villager_generic_11802847_3:new_fs_villager_generic_11802847_4:new_fs_villager_generic_11802847_5:|strSpawnerType|4|patrol|strSpawns|4|fs_villager_generic|$|
-1302952363	0	object/static/structure/corellia/corl_imprv_column_s02.iff	0	1217	78.5	1967	1	0	0	0		$|
-1302233844	0	object/tangible/ground_spawning/area_spawner.iff	0	1380.62	98.4005	2011.74	0.92187	0	0.387499	0	systems.spawning.spawner_area	fltMaxSpawnTime|2|119.000000|fltMinSpawnTime|2|99.000000|fltRadius|2|0.000000|intDefaultBehavior|0|1|intGoodLocationSpawner|0|0|intSpawnCount|0|1|intSpawnSystem|0|1|registerWithController|0|1|strName|4|fs_villager_militia|strSpawnerType|4|area|strSpawns|4|fs_villager_militia|$|
-1291069918	0	object/tangible/ground_spawning/area_spawner.iff	0	1374.03	98.4005	2013.69	0.981091	0	-0.193549	0	systems.spawning.spawner_area	fltMaxSpawnTime|2|119.000000|fltMinSpawnTime|2|99.000000|fltRadius|2|0.000000|intDefaultBehavior|0|1|intGoodLocationSpawner|0|0|intSpawnCount|0|1|intSpawnSystem|0|1|registerWithController|0|1|strName|4|fs_villager_militia|strSpawnerType|4|area|strSpawns|4|fs_villager_militia|$|
-1283556074	0	object/tangible/ground_spawning/patrol_spawner.iff	0	1332.92	78.5	2008.88	1	0	0	0	systems.spawning.spawner_patrol	fltMaxSpawnTime|2|9.000000|fltMinSpawnTime|2|3.000000|fltRadius|2|0.000000|intDefaultBehavior|0|3|intGoodLocationSpawner|0|0|intSpawnCount|0|1|intSpawnSystem|0|1|patrolPathType|4|oscillate|registerWithController|0|1|strName|4|cll8_binary_load_lifter|strPatrolPointNames|5|cll8_binary_load_lifter_13351956_1:cll8_binary_load_lifter_13351956_2:cll8_binary_load_lifter_13351956_3:cll8_binary_load_lifter_13351956_4:|strSpawnerType|4|patrol|strSpawns|4|cll8_binary_load_lifter|$|
-1282810444	0	object/building/mustafar/structures/must_bandit_fence_16m.iff	0	1214.37	78.5	1925.01	0.707108	0	0.707106	0		$|
-1279374930	0	object/static/structure/military/bunker_crate_style_01.iff	0	1136.31	78.5	1943.51	0.707121	0	0.707092	0		$|
-1264330669	0	object/static/installation/mockup_power_generator_wind_style_1.iff	0	1201.93	78.5	1929.07	0.70713	0	-0.707083	0		$|
-1259157440	0	object/building/mustafar/structures/must_miner_tower.iff	0	1350	78.5	2024	1	0	0	0		$|
-1254670380	0	object/tangible/ground_spawning/patrol_waypoint.iff	0	1354.2	78.5113	1969.29	1	0	0	0		ignoreInBuildoutArray|0|1|pointName|4|cll8_binary_load_lifter_13351956_3|registerWithController|0|1|$|
-1248000302	0	object/tangible/ground_spawning/patrol_waypoint.iff	0	1173.48	78.5	2029.27	1	0	0	0		ignoreInBuildoutArray|0|1|pointName|4|new_fs_villager_generic_11802869_1|registerWithController|0|1|$|
-1221453364	0	object/building/mustafar/structures/must_bandit_entrance.iff	0	1205.47	78.5	1938.98	2.02E-06	0	1	0		$|
-1215628039	0	object/static/structure/corellia/corl_imprv_column_s02.iff	0	1182	78.5	1990	1	0	0	0		$|
-1205603699	0	object/tangible/terminal/terminal_bank.iff	0	1283.71	78.5	2008.52	-0.707105	0	0.707108	0	terminal.bank:planet_map.map_loc	banking_bankid|4|dathomir|$|
-1200671332	0	object/static/structure/tatooine/palette_supply_02.iff	0	1328.13	78.8716	1955.44	-2.74E-07	0	1	0		$|
-1186140222	0	object/building/mustafar/structures/must_bandit_fence_post.iff	0	1196.46	78.5	1933.17	0.707108	0	0.707106	0		$|
-1181742760	0	object/building/content/aurilia/aurilia_bannerpole.iff	0	1259.14	78.5	1973.31	1.88E-06	0	1	0		$|
-1150683640	0	object/static/structure/corellia/corl_imprv_column_s02.iff	0	1240	78.5	1967	1	0	0	0		$|
-1146339534	0	object/static/vehicle/static_speeder_bike.iff	0	1310.85	78.5	2038.56	1	0	0	0		$|
-1121885616	0	object/static/structure/general/allum_mine_device_s01.iff	0	1361.84	79.0029	1982.03	0.707135	0	0.707078	0		$|
-1120280295	0	object/tangible/ground_spawning/area_spawner.iff	0	1365.01	79.0029	1974.85	-0.575972	0	0.81747	0	systems.spawning.spawner_area	fltMaxSpawnTime|2|9.000000|fltMinSpawnTime|2|3.000000|fltRadius|2|0.000000|intDefaultBehavior|0|1|intGoodLocationSpawner|0|0|intSpawnCount|0|1|intSpawnSystem|0|1|registerWithController|0|1|strName|4|quharek|strSpawnerType|4|area|strSpawns|4|quharek|$|
-1111211593	0	object/building/mustafar/structures/must_smuggler_watchtower.iff	0	1149.8	96.94	1935.74	0.707128	0	0.707085	0		$|
-1094663788	0	object/building/content/aurilia/aurilia_shere.iff	0	1217	83.91	2033	1	0	0	0		$|
-1089372835	0	object/static/structure/corellia/corl_imprv_column_s02.iff	0	1240	78.5	2010	1	0	0	0		$|
-1082724494	0	object/building/mustafar/structures/must_bandit_fence_post.iff	0	1196.81	78.5	1934.02	0.923879	0	-0.382684	0		$|
-1079941145	0	object/tangible/ground_spawning/patrol_waypoint.iff	0	1241.45	78.5	1962.52	1	0	0	0		ignoreInBuildoutArray|0|1|pointName|4|new_fs_villager_generic_11802847_3|registerWithController|0|1|$|
-1078751199	0	object/building/content/aurilia/aurilia_crate.iff	0	1323.88	79.4228	1954.25	1	0	0	0		$|
-1074148939	0	object/static/structure/corellia/corl_imprv_column_s02.iff	0	1240	78.5	2033	1	0	0	0		$|
-1073142842	0	object/building/content/aurilia/aurilia_token_vendor_sign.iff	0	1167.32	78.5	1994.95	0.707127	0	0.707086	0		$|
-1066475919	0	object/static/structure/corellia/corl_imprv_column_s02.iff	0	1182	78.5	1967	1	0	0	0		$|
-1063470189	0	object/static/structure/tatooine/debris_tatt_drum_storage_1.iff	0	1136.86	78.5	1941	0.670526	0	0.741886	0		$|
-1049782419	0	object/static/installation/mockup_mining_liquid_moisture_harvester.iff	0	1389.9	79.0955	2001.96	1	0	0	0		$|
-1027891789	0	object/tangible/ground_spawning/patrol_waypoint.iff	0	1216.45	78.5	1947.13	1	0	0	0		ignoreInBuildoutArray|0|1|pointName|4|cll8_binary_load_lifter_13352008_4|registerWithController|0|1|$|
-1015210140	0	object/tangible/ground_spawning/patrol_waypoint.iff	0	1272.31	78.5	1970.16	1	0	0	0		ignoreInBuildoutArray|0|1|pointName|4|new_fs_villager_generic_11802893_2|registerWithController|0|1|$|
-1006089475	0	object/building/mustafar/structures/must_miner_tower.iff	0	1354	78.5099	2028	1	0	0	0		$|
-1003770389	0	object/building/content/aurilia/aurilia_pyramid_hut.iff	0	1259.17	78.5	1981.71	-0.707105	0	0.707108	0		portalProperty.crc|0|-1244451387|$|
-2076337365	-1003770389	object/cell/cell.iff	1	0	0	0	1	0	0	0		$|
-1901257589	-2076337365	object/static/item/item_medic_medpack_lg.iff	1	4.06907	1.20562	0.7618	0.791512	0	-0.611153	0		$|
-1517885937	-2076337365	object/static/structure/general/droid_lemedical_powerdown.iff	1	-3.01223	1.20562	-3.8297	1	0	0	0		$|
-1467215034	-2076337365	object/static/item/item_medic_bacta_tank_advanced.iff	1	-0.366811	1.20562	-3.80511	0.842656	0	0.538452	0		$|
-956742619	-2076337365	object/static/item/item_medic_medpack_lg.iff	1	3.99058	1.20562	0.357832	-0.63329	0	0.773915	0		$|
-829599676	-2076337365	object/tangible/ground_spawning/area_spawner.iff	1	-2.06693	1.20562	-2.66076	0.993298	0	0.115583	0	systems.spawning.spawner_area	fltMaxSpawnTime|2|9.000000|fltMinSpawnTime|2|3.000000|fltRadius|2|0.000000|intDefaultBehavior|0|1|intGoodLocationSpawner|0|0|intSpawnCount|0|1|intSpawnSystem|0|1|registerWithController|0|1|strName|4|fs_surgical_droid_21b|strSpawnerType|4|area|strSpawns|4|fs_surgical_droid_21b|$|
-806928865	-2076337365	object/tangible/ground_spawning/area_spawner.iff	1	0.401855	1.20562	0.0170884	0.998853	0	-0.0478916	0	systems.spawning.spawner_area	fltMaxSpawnTime|2|9.000000|fltMinSpawnTime|2|3.000000|fltRadius|2|0.000000|intDefaultBehavior|0|1|intGoodLocationSpawner|0|0|intSpawnCount|0|1|intSpawnSystem|0|1|registerWithController|0|1|strName|4|fs_villager_medic|strSpawnerType|4|area|strSpawns|4|fs_villager_medic|$|
-574399127	-2076337365	object/static/item/item_medic_bacta_tank_advanced.iff	1	0.488881	1.20562	-3.7295	0.914275	0	-0.405093	0		$|
-320297046	-2076337365	object/static/worldbuilding/terminal/floor_cloning_01.iff	1	2.48682	1.20562	-4.75613	1	0	0	0		$|
-163054610	-2076337365	object/static/item/item_medic_bag.iff	1	3.91298	1.20562	1.69416	-0.696707	0	0.717356	0		$|
-18686389	-2076337365	object/static/item/item_medic_bag.iff	1	4.07763	1.20562	2.03121	0.922997	0	-0.384808	0		$|
-1001922106	0	object/static/structure/military/bunker_crate_style_01.iff	0	1388.37	78.9862	1995.25	0	0	1	0		$|
-994639978	0	object/building/mustafar/structures/must_bandit_fence_8m.iff	0	1199.46	78.5	1936.67	0.923879	0	-0.382684	0		$|
-989677253	0	object/building/corellia/filler_block_corellia_64x32_s01.iff	0	1123.48	78.5	2046.98	0.707111	0	0.707103	0	structure.filler.filler	$|
-981945885	0	object/building/content/aurilia/aurilia_shere.iff	0	1205	83.91	1967	1	0	0	0		$|
-969587101	0	object/tangible/ground_spawning/area_spawner.iff	0	1285.02	78.5	1993.97	0.0185468	0	0.999828	0	systems.spawning.spawner_area	fltMaxSpawnTime|2|119.000000|fltMinSpawnTime|2|99.000000|fltRadius|2|0.000000|intDefaultBehavior|0|1|intGoodLocationSpawner|0|0|intSpawnCount|0|1|intSpawnSystem|0|1|registerWithController|0|1|strName|4|fs_villager_militia|strSpawnerType|4|area|strSpawns|4|fs_villager_militia|$|
-952309974	0	object/static/item/item_tool_magnetite_cleaner.iff	0	1255.79	78.5	1923.64	0.771246	0	-0.636537	0		$|
-931257186	0	object/tangible/ground_spawning/patrol_waypoint.iff	0	1175.28	78.5	1960.21	1	0	0	0		ignoreInBuildoutArray|0|1|pointName|4|new_fs_villager_generic_11802869_4|registerWithController|0|1|$|
-904472399	0	object/building/mustafar/structures/must_smuggler_landing_pad.iff	0	1326.77	81.6491	2018.52	1	0	0	0		$|
-901385192	0	object/static/structure/corellia/corl_power_connector.iff	0	1332.93	78.5	2042.92	1	0	0	0		$|
-897954242	0	object/tangible/ground_spawning/patrol_waypoint.iff	0	1272.05	78.5	2013.2	1	0	0	0		ignoreInBuildoutArray|0|1|pointName|4|new_fs_villager_generic_11802893_1|registerWithController|0|1|$|
-885532245	0	object/building/content/aurilia/aurilia_flagpole.iff	0	1149.8	107.97	1935.76	1	0	0	0		$|
-854038566	0	object/tangible/ground_spawning/area_spawner.iff	0	1321.54	78.5	2005.92	0.296212	0	0.955122	0	systems.spawning.spawner_area	fltMaxSpawnTime|2|119.000000|fltMinSpawnTime|2|99.000000|fltRadius|2|0.000000|intDefaultBehavior|0|1|intGoodLocationSpawner|0|0|intSpawnCount|0|1|intSpawnSystem|0|1|registerWithController|0|1|strName|4|fs_villager_militia|strSpawnerType|4|area|strSpawns|4|fs_villager_militia|$|
-847680774	0	object/building/content/aurilia/aurilia_pyramid_hut.iff	0	1160.57	78.5	1981.28	0.707107	0	0.707107	0		portalProperty.crc|0|-1244451387|$|
-966526064	-847680774	object/cell/cell.iff	1	0	0	0	1	0	0	0		$|
-1973189081	-966526064	object/tangible/furniture/modern/bar_piece_curve_s2.iff	1	1.959	1.20562	-1.02723	1	0	0	0		$|
-1882994151	-966526064	object/static/item/item_document.iff	1	1.07471	2.36459	-0.753906	1	0	0	0		$|
-1812174596	-966526064	object/tangible/furniture/all/frn_all_plant_potted_lg_s3.iff	1	-3.74763	1.20562	-4.23983	0.375661	0	0.926757	0		$|
-1492787264	-966526064	object/static/worldbuilding/terminal/wall_monitorscreen_text_01.iff	1	-1.15735	3.61851	-4.99397	0.70713	0	-0.707083	0		$|
-1362235965	-966526064	object/static/item/item_medical_console.iff	1	-2.95097	1.80289	1.53942	-0.138754	0	0.990327	0		$|
-1321300430	-966526064	object/tangible/furniture/all/frn_all_light_lamp_desk_s01.iff	1	3.02735	2.36575	-0.537108	0.707128	0	0.707085	0	item.candle.candle_decay	$|
-1088388381	-966526064	object/static/item/item_eyes_of_mesra.iff	1	-2.40925	1.8036	1.21006	0.77971	0	0.626141	0		$|
-733323794	-966526064	object/tangible/furniture/modern/chair_modern_style_01.iff	1	3.44494	1.2075	-2.72613	0.893821	0	-0.448423	0		occupied.limit|0|1|$|
-669954576	-966526064	object/tangible/furniture/all/frn_all_light_lamp_desk_s01.iff	1	0.226469	2.36564	-2.34828	1	0	0	0	item.candle.candle_decay	$|
-630908294	-966526064	object/static/flora/potted_plant_leaves_small.iff	1	3.68489	1.20562	-4.23028	-0.290344	0	0.956922	0		$|
-454499390	-966526064	object/static/item/item_tool_handheld_viewscreen_s2.iff	1	0.3667	2.35788	-1.5332	0.637151	0	0.770739	0		$|
-399880575	-966526064	object/tangible/ground_spawning/area_spawner.iff	1	2.08314	1.20562	-2.17243	0.970137	0	-0.242556	0	systems.spawning.spawner_area	fltMaxSpawnTime|2|9.000000|fltMinSpawnTime|2|3.000000|fltRadius|2|0.000000|intDefaultBehavior|0|1|intGoodLocationSpawner|0|0|intSpawnCount|0|1|intSpawnSystem|0|1|registerWithController|0|1|strName|4|fs_villager_elder|strSpawnerType|4|area|strSpawns|4|fs_villager_elder|$|
-255836061	-966526064	object/tangible/furniture/modern/sofa_chair_modern_style_01.iff	1	-3.40847	1.20562	0.10268	0.924909	0	0.380189	0		occupied.limit|0|1|$|
-179127249	-966526064	object/static/item/item_document.iff	1	0.825196	2.36456	-0.82373	0.985585	0	0.169182	0		$|
-65087990	-966526064	object/tangible/furniture/modern/coffee_table_modern_style_02.iff	1	-2.23799	1.20562	1.22153	0.92388	0	0.382683	0		$|
-837234934	0	object/building/content/aurilia/aurilia_shere.iff	0	1182	83.91	1967	1	0	0	0		$|
-829361374	0	object/tangible/ground_spawning/area_spawner.iff	0	1322.87	78.8716	1956.54	0.798691	0	-0.601741	0	systems.spawning.spawner_area	fltMaxSpawnTime|2|2.000000|fltMinSpawnTime|2|1.000000|fltRadius|2|0.000000|intDefaultBehavior|0|1|intGoodLocationSpawner|0|0|intSpawnCount|0|1|intSpawnSystem|0|1|registerWithController|0|1|strName|4|nova_orion_intro_quest_giver|strSpawnerType|4|area|strSpawns|4|nova_orion_intro_quest_giver|$|
-823515939	0	object/tangible/ground_spawning/area_spawner.iff	0	1343.98	78.5	1971.89	0.713838	0	-0.700312	0	systems.spawning.spawner_area	fltMaxSpawnTime|2|9.000000|fltMinSpawnTime|2|3.000000|fltRadius|2|0.000000|intDefaultBehavior|0|1|intGoodLocationSpawner|0|0|intSpawnCount|0|1|intSpawnSystem|0|1|registerWithController|0|1|strName|4|nexus_travel_02|strSpawnerType|4|area|strSpawns|4|nexus_travel_02|$|
-819080951	0	object/building/content/aurilia/aurilia_collector_sign.iff	0	1252.17	78.5	2004.08	0.707123	0	-0.70709	0		$|
-796674826	0	object/building/content/aurilia/aurilia_shere.iff	0	1182	83.91	2010	1	0	0	0		$|
-788144879	0	object/tangible/terminal/terminal_bank.iff	0	1286	78.5	2008.33	0.707133	0	0.70708	0	terminal.bank:planet_map.map_loc	banking_bankid|4|dathomir|$|
-788038585	0	object/building/content/aurilia/aurilia_pyramid_hut.iff	0	1259.09	78.5	2005.78	-0.707107	0	0.707107	0		portalProperty.crc|0|-1244451387|$|
-1558278275	-788038585	object/cell/cell.iff	1	0	0	0	1	0	0	0		$|
-2039356872	-1558278275	object/tangible/furniture/decorative/spear_rack.iff	1	-3.1251	1.20562	-4.13199	1	0	0	0		$|
-1819803895	-1558278275	object/tangible/furniture/decorative/tanning_hide_s02.iff	1	2.67026	1.20562	-4.24114	1	0	0	0		$|
-1784524197	-1558278275	object/static/item/wp_mle_sword_lightsaber_leather.iff	1	3.10571	2.25847	-1.80882	0.28833	0.28833	0.645652	0.645651		$|
-1355219736	-1558278275	object/tangible/furniture/elegant/couch_s01.iff	1	-3.6744	1.20562	1.09241	0.707127	0	0.707086	0		$|
-1060234082	-1558278275	object/tangible/ground_spawning/area_spawner.iff	1	0.1333	1.20562	-1.58838	0.998575	0	-0.0533642	0	systems.spawning.spawner_area	fltMaxSpawnTime|2|9.000000|fltMinSpawnTime|2|3.000000|fltRadius|2|0.000000|intDefaultBehavior|0|1|intGoodLocationSpawner|0|0|intSpawnCount|0|1|intSpawnSystem|0|1|registerWithController|0|1|strName|4|nexus_collector|strSpawnerType|4|area|strSpawns|4|nexus_collector|$|
-1037072295	-1558278275	object/tangible/furniture/decorative/event_wookiee_rifle_display.iff	1	2.57276	1.20562	3.76429	0	0	1	0		$|
-1016856608	-1558278275	object/tangible/furniture/ep3_rewards/ep3_kash_reward_trophy_mouf.iff	1	-1.21649	2.73184	-4.94232	1	0	0	0		$|
-1006745603	-1558278275	object/tangible/furniture/elegant/couch_s01.iff	1	-3.66404	1.20562	-1.57391	0.707127	0	0.707086	0		$|
-978691735	-1558278275	object/tangible/furniture/ep3_rewards/ep3_kash_reward_trophy_walluga.iff	1	0.500538	2.82028	-4.98606	1	0	0	0		$|
-694360582	-1558278275	object/static/item/item_frn_display_case.iff	1	3.16063	1.20562	1.57928	0.707127	0	-0.707086	0		$|
-632300256	-1558278275	object/static/item/item_frn_display_case.iff	1	3.16317	1.20562	-1.44847	0.707127	0	-0.707086	0		$|
-603577640	-1558278275	object/static/item/wp_mle_sword_ryyk_blade.iff	1	3.02396	2.23447	1.21558	0.6272	0.6272	-0.326527	-0.326527		$|
-134892243	-1558278275	object/static/item/wp_mle_sword_lightsaber_dugald.iff	1	3.09298	2.24387	-1.02301	0.707127	0.707086	0	0		$|
-122110675	-1558278275	object/tangible/furniture/all/frn_all_tiki_torch_s1.iff	1	-3.54312	1.20562	-0.196592	1	0	0	0		$|
-769361827	0	object/static/structure/tatooine/palette_supply_01.iff	0	1327.76	78.8716	1958.13	-2.74E-07	0	1	0		$|
-760092434	0	object/tangible/ground_spawning/patrol_waypoint.iff	0	1255.8	78.5	1936.48	1	0	0	0		ignoreInBuildoutArray|0|1|pointName|4|fs_villager_militia_13352030_5|registerWithController|0|1|$|
-758701529	0	object/tangible/quest/township/rohak_figurine_spawner_04.iff	0	1312.06	78.8716	1954.89	0.68193	0	0.731417	0	theme_park.dathomir.aurilia.rohak_figurine_spawner	figurineToSpawn|4|rohak_figurine_04|$|
-757232439	0	object/static/structure/military/bunker_crate_style_01.iff	0	1303.18	78.5	1985.62	1	0	0	0		$|
-752819586	0	object/building/content/aurilia/aurilia_bannerpole.iff	0	1160.58	78.5	1973.2	1	0	0	0		$|
-749064670	0	object/tangible/ground_spawning/patrol_waypoint.iff	0	1276.42	78.5	1938.72	1	0	0	0		ignoreInBuildoutArray|0|1|pointName|4|fs_villager_militia_13352030_7|registerWithController|0|1|$|
-744476265	0	object/tangible/ground_spawning/area_spawner.iff	0	1136.15	78.5	1987.13	0.0480931	0	0.998843	0	systems.spawning.spawner_area	fltMaxSpawnTime|2|9.000000|fltMinSpawnTime|2|3.000000|fltRadius|2|3.000000|intDefaultBehavior|0|2|intGoodLocationSpawner|0|0|intSpawnCount|0|2|intSpawnSystem|0|1|registerWithController|0|1|strName|4|fs_villager_generic|strSpawnerType|4|area|strSpawns|4|fs_villager_generic|$|
-739759055	0	object/static/structure/corellia/corl_power_arial_thin.iff	0	1256.45	73.3431	1922.56	2.74E-07	0	1	0		$|
-738535273	0	object/building/content/aurilia/aurilia_shere.iff	0	1240	83.91	1967	1	0	0	0		$|
-722775679	0	object/static/item/item_tool_droid_toolkit.iff	0	1362.23	79.0029	1987.15	1	0	0	0		$|
-717066170	0	object/tangible/ground_spawning/patrol_spawner.iff	0	1373.62	98.2423	2001.75	1	0	0	0	systems.spawning.spawner_patrol	fltMaxSpawnTime|2|119.000000|fltMinSpawnTime|2|99.000000|fltRadius|2|0.000000|intDefaultBehavior|0|1|intGoodLocationSpawner|0|0|intSpawnCount|0|1|intSpawnSystem|0|1|patrolPathType|4|oscillate|registerWithController|0|1|strName|4|fs_villager_militia|strPatrolPointNames|5|fs_villager_militia_13352161_1:fs_villager_militia_13352161_2:fs_villager_militia_13352161_3:fs_villager_militia_13352161_4:fs_villager_militia_13352161_5:fs_villager_militia_13352161_6:fs_villager_militia_13352161_7:fs_villager_militia_13352161_8:fs_villager_militia_13352161_9:|strSpawnerType|4|patrol|strSpawns|4|fs_villager_militia|$|
-714153414	0	object/static/structure/corellia/corl_power_connector.iff	0	1255.91	78.5	1928.65	-0.652135	0	0.758102	0		$|
-711477546	0	object/building/content/aurilia/aurilia_token_vendor_sign.iff	0	1252.6	78.5	1980.21	0.707127	0	0.707086	0		$|
-707048675	0	object/tangible/ground_spawning/patrol_waypoint.iff	0	1256.79	78.5	1938.79	1	0	0	0		ignoreInBuildoutArray|0|1|pointName|4|fs_villager_militia_13352030_6|registerWithController|0|1|$|
-696220890	0	object/building/mustafar/structures/must_miner_tower.iff	0	1346	78.5	2024	1	0	0	0		$|
-690142747	0	object/building/content/aurilia/aurilia_flagpole.iff	0	1267.22	107.97	1937.32	1	0	0	0		$|
-677942212	0	object/tangible/ground_spawning/patrol_waypoint.iff	0	1344.13	78.5	1982.21	1	0	0	0		ignoreInBuildoutArray|0|1|pointName|4|fs_villager_militia_13352161_9|registerWithController|0|1|$|
-673665774	0	object/building/content/aurilia/aurilia_adventure_guild_sign.iff	0	1130.51	78.5	1974.5	1	0	0	0		$|
-662612510	0	object/tangible/ground_spawning/patrol_spawner.iff	0	1262.46	98.4005	1939.6	1	0	0	0	systems.spawning.spawner_patrol	fltMaxSpawnTime|2|119.000000|fltMinSpawnTime|2|99.000000|fltRadius|2|0.000000|intDefaultBehavior|0|1|intGoodLocationSpawner|0|0|intSpawnCount|0|1|intSpawnSystem|0|1|patrolPathType|4|oscillate|registerWithController|0|1|strName|4|fs_villager_militia|strPatrolPointNames|5|fs_villager_militia_13352030_1:fs_villager_militia_13352030_2:fs_villager_militia_13352030_3:fs_villager_militia_13352030_4:fs_villager_militia_13352030_5:fs_villager_militia_13352030_6:fs_villager_militia_13352030_7:|strSpawnerType|4|patrol|strSpawns|4|fs_villager_militia|$|
-653267839	0	object/static/installation/mockup_power_generator_wind_style_1.iff	0	1209.29	78.5	1921.85	0.707108	0	0.707106	0		$|
-645360153	0	object/building/content/aurilia/aurilia_bannerpole.iff	0	1128.51	80.94	1983.31	0.707127	0	-0.707086	0		$|
-645034823	0	object/static/structure/tatooine/debris_tatt_crate_metal_1.iff	0	1325.87	78.8716	1956.12	0.995004	0	0.0998334	0		$|
-644483931	0	object/static/structure/military/bunker_crate_style_01.iff	0	1389.95	79.1321	2008.34	0	0	1	0		$|
-643326509	0	object/building/content/aurilia/aurilia_bannerpole.iff	0	1128.39	80.94	1974.45	0.707108	0	0.707106	0		$|
-632813546	0	object/building/mustafar/structures/must_bandit_fence_post.iff	0	1214.36	78.5	1933.21	0.707108	0	0.707106	0		$|
-622200650	0	object/tangible/ground_spawning/area_spawner.iff	0	1344.12	78.5	1980.39	-0.604968	0	0.79625	0	systems.spawning.spawner_area	fltMaxSpawnTime|2|119.000000|fltMinSpawnTime|2|99.000000|fltRadius|2|0.000000|intDefaultBehavior|0|1|intGoodLocationSpawner|0|0|intSpawnCount|0|1|intSpawnSystem|0|1|registerWithController|0|1|strName|4|fs_villager_militia|strSpawnerType|4|area|strSpawns|4|fs_villager_militia|$|
-617037292	0	object/building/content/aurilia/aurilia_pyramid_hut.iff	0	1160.55	78.5	2017.39	0.707107	0	0.707107	0		portalProperty.crc|0|-1244451387|$|
-776686282	-617037292	object/cell/cell.iff	1	0	0	0	1	0	0	0		$|
-1926712906	-776686282	object/static/structure/tatooine/palette_supply_03.iff	1	-2.56587	1.20562	-3.04584	1	0	0	0		$|
-1779827387	-776686282	object/static/structure/tatooine/palette_tatooine_food_crates_01.iff	1	2.66763	1.20562	-0.570339	2.74E-07	0	1	0		$|
-1657254629	-776686282	object/building/content/aurilia/aurilia_crate.iff	1	2.56294	1.76018	-3.79708	1	0	0	0		$|
-1543268157	-776686282	object/building/content/aurilia/aurilia_crate.iff	1	0.535847	1.74923	-3.19835	0.975897	0	-0.21823	0		$|
-1464758711	-776686282	object/static/structure/tatooine/palette_supply_05.iff	1	2.43283	1.20562	2.23358	2.74E-07	0	1	0		$|
-1234362009	-776686282	object/tangible/ground_spawning/area_spawner.iff	1	-0.545898	1.20562	-0.972657	0.999986	0	0.00526805	0	systems.spawning.spawner_area	fltMaxSpawnTime|2|9.000000|fltMinSpawnTime|2|3.000000|fltRadius|2|0.000000|intDefaultBehavior|0|1|intGoodLocationSpawner|0|0|intSpawnCount|0|1|intSpawnSystem|0|1|registerWithController|0|1|strName|4|aurilia_junk_dealer|strSpawnerType|4|area|strSpawns|4|aurilia_junk_dealer|$|
-615631207	0	object/static/structure/general/ins_shield_generator.iff	0	1205.65	78.5	1925.44	0.707108	0	0.707106	0		$|
-605688336	0	object/static/structure/corellia/corl_power_connector.iff	0	1314.24	78.5	2042.92	1	0	0	0		$|
-599524252	0	object/static/structure/corellia/corl_power_connector.iff	0	1306.24	78.5	2042.92	2.11E-06	0	1	0		$|
-591197268	0	object/building/content/aurilia/aurilia_crate.iff	0	1321.86	79.4279	1953.99	0.992809	0	-0.119712	0		$|
-591157072	0	object/building/content/aurilia/aurilia_bannerpole.iff	0	1259.14	78.5	2025.83	1	0	0	0		$|
-564338819	0	object/static/structure/military/bunker_crate_style_01.iff	0	1352.47	78.4925	1953.32	0.707113	0	0.7071	0		$|
-554602976	0	object/tangible/ground_spawning/patrol_waypoint.iff	0	1346.12	78.5	2007.44	1	0	0	0		ignoreInBuildoutArray|0|1|pointName|4|cll8_binary_load_lifter_13351956_1|registerWithController|0|1|$|
-543638124	0	object/tangible/terminal/terminal_bank.iff	0	1283.71	78.5	2000.63	-0.707102	0	0.707111	0	terminal.bank:planet_map.map_loc	banking_bankid|4|dathomir|$|
-537778565	0	object/building/mustafar/structures/must_smuggler_watchtower.iff	0	1267.27	96.94	1937.37	1	0	0	0		$|
-536313570	0	object/tangible/ground_spawning/patrol_waypoint.iff	0	1243.36	78.5	2006.63	1	0	0	0		ignoreInBuildoutArray|0|1|pointName|4|new_fs_villager_generic_11802847_1|registerWithController|0|1|$|
-536275096	0	object/tangible/ground_spawning/patrol_waypoint.iff	0	1267.07	93.9784	1923.13	1	0	0	0		ignoreInBuildoutArray|0|1|pointName|4|fs_villager_militia_13352030_2|registerWithController|0|1|$|
-529510655	0	object/static/item/item_con_barrel_lg_s1.iff	0	1367.54	79.0029	1973.77	-0.707107	0	0.707107	0		$|
-524081249	0	object/static/structure/corellia/corl_imprv_column_s02.iff	0	1205	78.5	2033	1	0	0	0		$|
-521864261	0	object/static/item/item_con_barrel_lg_s1.iff	0	1367.54	79.0029	1972.77	-0.707107	0	0.707107	0		$|
-513928120	0	object/tangible/quest/township/rohak_figurine_spawner.iff	0	1216.49	78.5	1984.81	1	0	0	0	theme_park.dathomir.aurilia.rohak_figurine_spawner	figurineToSpawn|4|rohak_figurine|$|
-511719650	0	object/building/content/aurilia/aurilia_crystal_centerpiece.iff	0	1208.94	78.5	1996.2	1	0	0	0		$|
-508454494	0	object/tangible/terminal/terminal_bank.iff	0	1283.71	78.5	2004.43	-0.707102	0	0.707111	0	terminal.bank:planet_map.map_loc	banking_bankid|4|dathomir|$|
-501165487	0	object/static/structure/corellia/corl_imprv_column_s02.iff	0	1217	78.5	2033	1	0	0	0		$|
-495810080	0	object/building/mustafar/structures/must_smuggler_bunker.iff	0	1364.23	78.6313	1973.4	0.707127	0	-0.707086	0		$|
-484045827	0	object/soundobject/soundobject_shield_generator.iff	0	1205.56	78.5	1933.83	0.707108	0	0.707106	0		$|
-483369466	0	object/building/content/aurilia/aurilia_shere.iff	0	1205	83.91	2033	1	0	0	0		$|
-480840187	0	object/static/structure/corellia/corl_power_transformer_s02.iff	0	1262.85	78.5	1923.66	1	0	0	0		$|
-473222127	0	object/static/structure/corellia/corl_imprv_column_s02.iff	0	1240	78.5	1990	1	0	0	0		$|
-453761777	0	object/building/corellia/filler_historic_32x16_s02.iff	0	1176.93	78.5	1923.02	0.70713	0	0.707083	0	structure.filler.filler	$|
-443387513	0	object/static/structure/corellia/corl_imprv_column_s02.iff	0	1182	78.5	2033	1	0	0	0		$|
-420798088	0	object/tangible/ground_spawning/patrol_waypoint.iff	0	1245.9	78.5	2005.82	1	0	0	0		ignoreInBuildoutArray|0|1|pointName|4|new_fs_villager_generic_11802893_4|registerWithController|0|1|$|
-407362618	0	object/static/structure/tatooine/debris_tatt_crate_1.iff	0	1325.86	78.8716	1957.03	1	0	0	0		$|
-392812999	0	object/building/mustafar/structures/must_smuggler_watchtower.iff	0	1376.12	96.94	2008.18	0.707165	0	-0.707048	0		$|
-390335686	0	object/tangible/ground_spawning/area_spawner.iff	0	1271.15	98.4005	1933.77	0.405194	0	0.914231	0	systems.spawning.spawner_area	fltMaxSpawnTime|2|119.000000|fltMinSpawnTime|2|99.000000|fltRadius|2|0.000000|intDefaultBehavior|0|1|intGoodLocationSpawner|0|0|intSpawnCount|0|1|intSpawnSystem|0|1|registerWithController|0|1|strName|4|fs_villager_militia|strSpawnerType|4|area|strSpawns|4|fs_villager_militia|$|
-333522701	0	object/building/mustafar/structures/must_bandit_fence_post.iff	0	1214.4	78.5	1916.63	0.707108	0	0.707106	0		$|
-325896675	0	object/building/mustafar/items/must_mining_console_01.iff	0	1209.97	78.5	1928.3	1.29E-06	0	1	0		$|
-313328611	0	object/building/mustafar/structures/must_bandit_fence_post.iff	0	1214.02	78.5	1934.05	-0.382683	0	0.92388	0		$|
-304938445	0	object/building/content/aurilia/aurilia_banner_large.iff	0	1131.1	83.8585	1996.88	0.707108	0	0.707106	0		$|
-300945871	0	object/tangible/ground_spawning/patrol_waypoint.iff	0	1126.87	80.2905	1978.97	1	0	0	0		ignoreInBuildoutArray|0|1|pointName|4|fs_villager_generic_13352510_5|registerWithController|0|1|$|
-287993660	0	object/tangible/ground_spawning/patrol_waypoint.iff	0	1243.41	78.5	1965.7	1	0	0	0		ignoreInBuildoutArray|0|1|pointName|4|new_fs_villager_generic_11802847_2|registerWithController|0|1|$|
-283672228	0	object/static/structure/military/bunker_crate_style_01.iff	0	1307.85	78.5	1987.22	1	0	0	0		$|
-282629457	0	object/building/content/aurilia/aurilia_crate.iff	0	1331.29	79.4147	1958.32	1	0	0	0		$|
-282626209	0	object/tangible/ground_spawning/patrol_waypoint.iff	0	1180.97	78.5	1962.73	1	0	0	0		ignoreInBuildoutArray|0|1|pointName|4|new_fs_villager_generic_11802847_5|registerWithController|0|1|$|
-257591821	0	object/building/content/aurilia/aurilia_shere.iff	0	1182	83.91	1990	1	0	0	0		$|
-248952139	0	object/static/vehicle/static_swoop_bike.iff	0	1313.6	78.5	2039.37	1	0	0	0		$|
-248431841	0	object/tangible/ground_spawning/patrol_waypoint.iff	0	1226.87	78.5	1959.69	1	0	0	0		ignoreInBuildoutArray|0|1|pointName|4|new_fs_villager_generic_11802869_6|registerWithController|0|1|$|
-243097335	0	object/tangible/ground_spawning/area_spawner.iff	0	1109	78.5	1995.38	0.999881	0	-0.0154421	0	systems.spawning.spawner_area	fltMaxSpawnTime|2|9.000000|fltMinSpawnTime|2|3.000000|fltRadius|2|0.000000|intDefaultBehavior|0|1|intGoodLocationSpawner|0|0|intSpawnCount|0|1|intSpawnSystem|0|1|registerWithController|0|1|strName|4|heroic_sd_intro_rebel|strSpawnerType|4|area|strSpawns|4|heroic_sd_intro_rebel|$|
-236840053	0	object/tangible/ground_spawning/patrol_spawner.iff	0	1304.19	78.5	2045.96	1	0	0	0	systems.spawning.spawner_patrol	fltMaxSpawnTime|2|119.000000|fltMinSpawnTime|2|99.000000|fltRadius|2|0.000000|intDefaultBehavior|0|1|intGoodLocationSpawner|0|0|intSpawnCount|0|1|intSpawnSystem|0|1|patrolPathType|4|oscillate|registerWithController|0|1|strName|4|fs_villager_militia|strPatrolPointNames|5|fs_villager_militia_13352216_1:fs_villager_militia_13352216_2:fs_villager_militia_13352216_3:fs_villager_militia_13352216_4:|strSpawnerType|4|patrol|strSpawns|4|fs_villager_militia|$|
-233205530	0	object/static/structure/general/fs_village_bannerpole_s01.iff	0	1311.75	78.5	1962.81	2.74E-07	0	1	0		$|
-224081341	0	object/static/vehicle/e3/landspeeder.iff	0	1307.2	78.5	2039.09	1	0	0	0		$|
-210814834	0	object/static/particle/pt_poi_electricity_2x2.iff	0	1114.01	84.3899	1996	0.92388	0	0.382683	0		$|
-210424163	0	object/building/corellia/filler_historic_32x16_s01.iff	0	1300.72	78.5	2006.09	2.93E-06	0	1	0	structure.filler.filler	$|
-201323163	0	object/tangible/ground_spawning/patrol_waypoint.iff	0	1349.55	78.5	1994.73	1	0	0	0		ignoreInBuildoutArray|0|1|pointName|4|fs_villager_militia_13352161_7|registerWithController|0|1|$|
-193469959	0	object/static/vehicle/static_speeder_bike.iff	0	1328.65	78.5	2038.66	1	0	0	0		$|
-190915515	0	object/tangible/ground_spawning/patrol_waypoint.iff	0	1249.2	78.5	1956.36	1	0	0	0		ignoreInBuildoutArray|0|1|pointName|4|cll8_binary_load_lifter_13352008_3|registerWithController|0|1|$|
-186655207	0	object/tangible/ground_spawning/patrol_waypoint.iff	0	1388.93	88.3076	1996.95	1	0	0	0		ignoreInBuildoutArray|0|1|pointName|4|fs_villager_militia_13352161_5|registerWithController|0|1|$|
-179969684	0	object/static/structure/corellia/corl_power_connector.iff	0	1324.93	78.5	2042.92	6.95E-07	0	1	0		$|
-175570385	0	object/static/creature/droids_c118.iff	0	1308.35	78.5	1984.29	1.45E-06	0	1	0		$|
-171898545	0	object/tangible/terminal/terminal_bank.iff	0	1286	78.5	2004.53	0.707133	0	0.70708	0	terminal.bank:planet_map.map_loc	banking_bankid|4|dathomir|$|
-170144041	0	object/tangible/ground_spawning/area_spawner.iff	0	1208.31	78.5	1992.22	0.0271777	0	0.999631	0	systems.spawning.spawner_area	fltMaxSpawnTime|2|9.000000|fltMinSpawnTime|2|3.000000|fltRadius|2|0.000000|intDefaultBehavior|0|1|intGoodLocationSpawner|0|0|intSpawnCount|0|1|intSpawnSystem|0|1|registerWithController|0|1|strName|4|fs_villager_convert|strSpawnerType|4|area|strSpawns|4|fs_villager_convert|$|
-168912911	0	object/static/structure/general/fs_village_bannerpole_s01.iff	0	1322.74	78.5	1962.85	2.74E-07	0	1	0		$|
-163191215	0	object/tangible/ground_spawning/area_spawner.iff	0	1210.08	78.5	1930.25	-0.000333782	0	1	0	systems.spawning.spawner_area	fltMaxSpawnTime|2|9.000000|fltMinSpawnTime|2|3.000000|fltRadius|2|0.000000|intDefaultBehavior|0|1|intGoodLocationSpawner|0|0|intSpawnCount|0|1|intSpawnSystem|0|1|registerWithController|0|1|strName|4|fs_villager_engineer|strSpawnerType|4|area|strSpawns|4|fs_villager_engineer|$|
-158503251	0	object/building/content/aurilia/aurilia_obelisk.iff	0	1216.49	78.5	2008	0.707108	0	0.707106	0		$|
-153660232	0	object/tangible/ground_spawning/patrol_waypoint.iff	0	1245.79	78.5	2033.04	1	0	0	0		ignoreInBuildoutArray|0|1|pointName|4|new_fs_villager_generic_11802893_5|registerWithController|0|1|$|
-153244731	0	object/static/item/item_tool_instrument_calibrator.iff	0	1362.06	79.0029	1986.35	0.63329	0	0.773915	0		$|
-148198490	0	object/tangible/ground_spawning/patrol_waypoint.iff	0	1257.65	88.3076	1923.44	1	0	0	0		ignoreInBuildoutArray|0|1|pointName|4|fs_villager_militia_13352030_3|registerWithController|0|1|$|
-139743812	0	object/tangible/item/quest/force_sensitive/fs_crafting4_downed_satellite.iff	0	1377.14	78.8489	1973.59	0.998523	-0.0293856	-0.00782244	0.045014	quest.force_sensitive.fs_crafting4_downed_satellite	$|
-133583178	0	object/static/particle/pt_poi_electricity_2x2.iff	0	1266.77	84.3899	1999.6	1	0	0	0		$|
-126251251	0	object/building/content/aurilia/aurilia_shere.iff	0	1240	83.91	2033	1	0	0	0		$|
-110875468	0	object/tangible/ground_spawning/patrol_waypoint.iff	0	1207.93	78.5	1962.77	1	0	0	0		ignoreInBuildoutArray|0|1|pointName|4|new_fs_villager_generic_11802847_4|registerWithController|0|1|$|
-102247296	0	object/static/vehicle/static_speeder_usv5.iff	0	1324.62	78.5	2039.29	1	0	0	0		$|
-98587556	0	object/building/content/aurilia/aurilia_shere.iff	0	1182	83.91	2033	1	0	0	0		$|
-95697876	0	object/building/content/aurilia/aurilia_banner_large.iff	0	1131.1	83.8585	1960.84	0.707127	0	0.707086	0		$|
-95058096	0	object/static/creature/droids_c118.iff	0	1357.63	78.5	1954.24	1	0	0	0		$|
-88905529	0	object/static/structure/general/prp_engine_component.iff	0	1362.55	79.0703	1963.79	0.949235	0	-0.314567	0		$|
-82196989	0	object/static/vehicle/static_speeder_bike.iff	0	1330.35	78.5	2038.69	1	0	0	0		$|
-55839799	0	object/building/mustafar/structures/must_bandit_fence_post.iff	0	1196.51	78.5	1916.59	0.707108	0	0.707106	0		$|
-48666083	0	object/static/structure/corellia/corl_imprv_column_s02.iff	0	1205	78.5	1967	1	0	0	0		$|
-45465408	0	object/tangible/ground_spawning/patrol_waypoint.iff	0	1205.33	78.5	1943.97	1	0	0	0		ignoreInBuildoutArray|0|1|pointName|4|cll8_binary_load_lifter_13352008_5|registerWithController|0|1|$|
-43498000	0	object/building/kashyyyk/thm_kash_rodian_bannerpole_s01.iff	0	0	195	0	1	0	0	0		$|
-39341778	0	object/building/mustafar/structures/must_bandit_fence_post.iff	0	1213.77	78.5	1915.97	1.52E-06	0	1	0		$|
-39266746	0	object/static/structure/military/bunker_crate_style_01.iff	0	1267.6	78.5	1923.6	1	0	0	0		$|
-31772244	0	object/static/installation/mockup_mining_liquid_moisture_harvester.iff	0	1389.9	79.0812	1999.58	1	0	0	0		$|
-23347711	0	object/tangible/ground_spawning/patrol_waypoint.iff	0	1241.34	78.5	1959.83	1	0	0	0		ignoreInBuildoutArray|0|1|pointName|4|new_fs_villager_generic_11802869_7|registerWithController|0|1|$|
-33946	0	object/building/mustafar/structures/must_bandit_fence_16m.iff	0	1196.48	78.5	1924.96	0.707108	0	0.707106	0		$|
