strItemType
s
object/weapon/melee/sword/ep3_loot_eventide.iff
object/weapon/ranged/rifle/ep3/rifle_naktra_crystal.iff
object/tangible/loot/quest/mind_pod_eye.iff
object/tangible/loot/quest/mind_pod_sac.iff
object/tangible/loot/quest/mind_pod_brain.iff
object/tangible/loot/quest/mind_pod_stomach.iff
object/tangible/loot/quest/naktra_crystal.iff
object/tangible/loot/quest/mind_pod_parasites.iff
object/tangible/loot/quest/mind_pod_blood.iff
object/tangible/loot/quest/mind_pod_guts.iff
object/tangible/loot/quest/mind_pod_slime.iff
object/tangible/loot/quest/decomposed_foot.iff
object/tangible/loot/quest/decomposed_hand.iff
object/tangible/loot/quest/decomposed_skull.iff
object/tangible/loot/quest/broken_bottle.iff
object/tangible/loot/quest/runestone.iff
object/tangible/loot/quest/mind_pod_eye.iff
object/tangible/loot/quest/mind_pod_sac.iff
object/tangible/loot/quest/mind_pod_brain.iff
object/tangible/loot/quest/mind_pod_stomach.iff
object/tangible/loot/quest/naktra_crystal.iff
object/tangible/loot/quest/mind_pod_parasites.iff
object/tangible/loot/quest/mind_pod_blood.iff
object/tangible/loot/quest/mind_pod_guts.iff
object/tangible/loot/quest/mind_pod_slime.iff
object/tangible/loot/quest/decomposed_foot.iff
object/tangible/loot/quest/decomposed_hand.iff
object/tangible/loot/quest/decomposed_skull.iff
object/tangible/loot/quest/broken_bottle.iff
object/tangible/loot/quest/runestone.iff
