AdminAccount	AdminLevel	AdminSkill	AdminTitle	AdminIp
s	i{0}	s	c	s
admin-iosnowore	50	admin	Development Lead	99.45.70.115
admin-erebus	50	admin	Community Lead
csr-aesrain	30		CSR
csr-jellibeen	30		CSR
csr-nater	30		CSR
csr-zara	30		CSR
csr-zombienerd	30		CSR 
dev-lordhorrar	20		Developer
qa-rowsdower	40		QA Leader
ops-drakkun	10		QA	74.132.214.32
qa-mana	10		QA
qa-oori	10		QA
